0.0000000	32.2075534	7.3728669	3.2787644	78.3987265	22.9799823
0.0078125	29.9456415	6.8711796	3.1294260	77.0960522	13.4421927
0.0156250	27.7140149	6.5067829	2.9194498	75.3811110	18.6761335
0.0234375	25.5742339	5.9847833	2.7760591	74.0216345	13.2958625
0.0312500	23.4866080	5.5895337	2.5813465	72.2899611	13.2600226
0.0390625	21.5073234	5.0825639	2.4372110	70.8393806	11.4494932
0.0468750	19.6040704	4.6868859	2.2515510	69.0423955	9.8110995
0.0546875	17.8230431	4.2144728	2.1135953	67.5349548	11.8394753
0.0625000	16.1299711	3.8315539	1.9421277	65.7171552	12.8586272
0.0703125	14.5667635	3.4064323	1.8151872	64.1816362	14.1501744
0.0781250	13.1010952	3.0515645	1.6630568	62.3927571	17.0073843
0.0859375	11.7618080	2.6877757	1.5457315	60.8273142	17.4255961
0.0937500	10.5265059	2.3752048	1.4149367	59.0959720	22.0520947
0.1015625	9.4081771	2.0735574	1.3063647	57.5102621	21.6008707
0.1093750	8.3923925	1.8072281	1.1983149	55.8836669	27.6854465
0.1171875	7.4826622	1.5636022	1.1018618	54.3323370	25.9886810
0.1250000	6.6696892	1.3482228	1.0123337	52.8190535	26.2277243
0.1328125	5.9488546	1.1558807	0.9301326	51.3568013	20.5868787
0.1406250	5.3143465	0.9861180	0.8572253	49.9730549	18.7973639
0.1484375	4.7585635	0.8350626	0.7908946	48.6567600	14.5973180
0.1562500	4.2762612	0.7056761	0.7332528	47.4408511	11.4729373
0.1640625	3.8607824	0.5893021	0.6816539	46.3007720	8.9807861
0.1718750	3.5058947	0.4910122	0.6375396	45.2760578	4.3262523
0.1796875	3.2066590	0.4018229	0.5996390	44.3633045	4.8979268
0.1875000	2.9572014	0.3276180	0.5677169	43.5614332	-2.6970917
0.1953125	2.7535644	0.2600038	0.5417244	42.8867652	4.6854765
0.2031250	2.5907889	0.2033453	0.5200033	42.3144364	-0.9920687
0.2109375	2.4652511	0.1518300	0.5041107	41.8840840	7.1104391
0.2187500	2.3721677	0.1099716	0.4916655	41.5421099	1.7325507
0.2265625	2.3083004	0.0737361	0.4832956	41.3087890	7.8462633
0.2343750	2.2694601	0.0458935	0.4766309	41.1239267	3.2085913
0.2421875	2.2511986	0.0222925	0.4722410	41.0035571	7.9085627
0.2500000	2.2467733	0.0006587	0.4697192	40.9450597	3.4847489
0.2578125	2.2512118	-0.0214750	0.4722021	41.0047871	8.3999309
0.2656250	2.2692007	-0.0443084	0.4767828	41.1275489	2.2769816
0.2734375	2.3079297	-0.0726830	0.4829862	41.3017581	7.7953257
0.2812500	2.3712316	-0.1079423	0.4916190	41.5411521	-0.5101625
0.2890625	2.4638980	-0.1499174	0.5039835	41.8806029	6.9599293
0.2968750	2.5898342	-0.1987487	0.5204128	42.3228620	-4.3013190
0.3046875	2.7532460	-0.2557998	0.5416446	42.8886852	6.5139050
0.3125000	2.9580162	-0.3215687	0.5680466	43.5693505	-7.7384547
0.3203125	3.2087658	-0.3975041	0.5999648	44.3729495	6.2104731
0.3281250	3.5095585	-0.4850610	0.6380594	45.2920387	-3.2505286
0.3359375	3.8659673	-0.5854626	0.6826752	46.3234384	4.9145653
0.3437500	4.2831556	-0.7013418	0.7337631	47.4544371	1.6503531
0.3515625	4.7668845	-0.8346485	0.7923900	48.6845011	2.8851961
0.3593750	5.3232512	-0.9863531	0.8581991	50.0008220	6.0338001
0.3671875	5.9587552	-1.1589888	0.9317661	51.3855161	0.7805622
0.3750000	6.6791758	-1.3543078	1.0130194	52.8356270	8.8519005
0.3828125	7.4912301	-1.5739919	1.1029000	54.3433878	-1.0269049
0.3906250	8.4000357	-1.8186055	1.1998694	55.9027776	6.7647255
0.3984375	9.4111886	-2.0874226	1.3051931	57.5038031	-1.3802840
0.4062500	10.5291527	-2.3832707	1.4184969	59.1346333	1.6261974
0.4140625	11.7583175	-2.7060898	1.5402635	60.7781675	-1.5727546
0.4218750	13.1010450	-3.0543528	1.6693584	62.4429666	-2.2756857
0.4296875	14.5579905	-3.4268771	1.8062623	64.1080583	-1.0558372
0.4375000	16.1285899	-3.8234829	1.9515617	65.7885011	-5.2738189
0.4453125	17.8103380	-4.2380666	2.1038892	67.4576392	0.2606170
0.4531250	19.6010741	-4.6689341	2.2617636	69.1219848	-7.4957714
0.4609375	21.4955459	-5.1095711	2.4246378	70.7440597	1.3051740
0.4687500	23.4861501	-5.5600847	2.5908547	72.3547208	-7.2395227
0.4765625	25.5627428	-6.0108176	2.7617226	73.9342324	-1.2270892
0.4843750	27.7171071	-6.4593550	2.9372599	75.4946277	-6.5086013
0.4921875	29.9383792	-6.8984846	3.1144044	77.0152779	-3.9675078
0.5000000	32.2143995	-7.3206793	3.2926812	78.4830627	-6.3504993
0.5078125	34.5280157	-7.7198816	3.4732586	79.9191678	-6.6695082
0.5156250	36.8696561	-8.0901343	3.6521064	81.3033310	-6.5802522
0.5234375	39.2226457	-8.4279207	3.8303883	82.6362753	-9.3208110
0.5312500	41.5714628	-8.7258885	4.0066469	83.9212791	-7.0587923
0.5390625	43.9000982	-8.9797429	4.1799299	85.1523284	-11.7917377
0.5468750	46.1978257	-9.1773909	4.3506006	86.3323857	-7.5561743
0.5546875	48.4510932	-9.3211493	4.5150062	87.4515058	-14.0194657
0.5625000	50.6451061	-9.4098409	4.6758683	88.5176078	-7.8906935
0.5703125	52.7656194	-9.4416501	4.8309067	89.5271842	-16.0744572
0.5781250	54.8013779	-9.4125718	4.9810583	90.4945077	-8.0369165
0.5859375	56.7448143	-9.3214868	5.1202832	91.3996674	-15.7384287
0.5937500	58.5865239	-9.1662026	5.2547831	92.2453431	-7.8467257
0.6015625	60.3179925	-8.9556691	5.3788388	93.0327297	-14.1181154
0.6093750	61.9343160	-8.6901351	5.4958747	93.7665042	-7.2916728
0.6171875	63.4268179	-8.3742572	5.6076321	94.4497892	-12.3467929
0.6250000	64.7960614	-7.9994123	5.7137963	95.1028267	-6.6027462
0.6328125	66.0436978	-7.5768709	5.8046521	95.6728346	-10.6682491
0.6406250	67.1706768	-7.1151175	5.8913655	96.2021536	-5.6981431
0.6484375	68.1731630	-6.6296033	5.9701458	96.6790168	-8.7615982
0.6562500	69.0542336	-6.1170521	6.0456849	97.1393039	-4.6349212
0.6640625	69.8164582	-5.5885965	6.1072230	97.5196788	-7.0253385
0.6718750	70.4686111	-5.0420084	6.1693993	97.8916125	-3.4377172
0.6796875	71.0141663	-4.4978774	6.2148288	98.1767441	-5.3493654
0.6875000	71.4602938	-3.9520185	6.2633272	98.4680587	-2.1106786
0.6953125	71.8114593	-3.4218193	6.2974657	98.6915677	-3.7269762
0.7031250	72.0758955	-2.8975512	6.3386795	98.9275403	-0.7236231
0.7109375	72.2639793	-2.3894909	6.3628255	99.0931895	-2.2181899
0.7187500	72.3896388	-1.8905628	6.4008350	99.2942499	0.7032017
0.7265625	72.4617815	-1.4086043	6.4166586	99.4047635	-0.9990240
0.7343750	72.4987112	-0.9325028	6.4496486	99.5665045	1.9755344
0.7421875	72.5106322	-0.4648686	6.4515508	99.6035004	-0.2969385
0.7500000	72.5121344	0.0050868	6.4738311	99.6972074	3.0283341
0.7578125	72.5112692	0.4732084	6.4533969	99.6093291	-0.0320021
0.7656250	72.5023602	0.9407155	6.4593441	99.6023658	4.1985978
0.7734375	72.4686013	1.4059558	6.4153830	99.4121226	0.2286203
0.7812500	72.3965402	1.8856164	6.4156468	99.3474999	5.8655482
0.7890625	72.2696697	2.3657096	6.3527749	99.0625284	0.5878948
0.7968750	72.0756456	2.8836452	6.3528057	98.9773324	8.2379648
0.8046875	71.8075491	3.3982088	6.2790443	98.6292314	1.0952001
0.8125000	71.4547295	3.9571322	6.2776163	98.5079222	10.9946829
0.8203125	71.0114714	4.4859439	6.1894075	98.0891327	1.4741533
0.8281250	70.4692340	5.0634015	6.1797937	97.9136851	13.9998330
0.8359375	69.8207070	5.5769073	6.0857699	97.4440916	1.8551602
0.8437500	69.0596280	6.1474060	6.0616717	97.1831451	16.9753270
0.8515625	68.1837810	6.6143933	5.9568432	96.6418989	2.0959625
0.8593750	67.1843391	7.1473936	5.9058095	96.2476548	19.8191983
0.8671875	66.0652547	7.5386829	5.8002561	95.6630329	2.5124065
0.8750000	64.8140899	8.0110939	5.7179579	95.1172989	22.3090496
0.8828125	63.4423895	8.3111731	5.6084421	94.4695974	3.2119057
0.8906250	61.9392005	8.7083446	5.4997153	93.7765040	24.7385812
0.8984375	60.3266286	8.8980427	5.3818789	93.0541088	4.1230117
0.9062500	58.5856653	9.1932300	5.2492284	92.2232794	27.1627520
0.9140625	56.7482821	9.2646577	5.1226312	91.4174226	5.1411084
0.9218750	54.7963031	9.4532738	4.9746064	90.4614561	29.7737757
0.9296875	52.7667828	9.3920283	4.8351743	89.5595070	6.4644779
0.9375000	50.6358542	9.4587626	4.6672589	88.4674287	30.2691998
0.9453125	48.4511596	9.2784930	4.5217098	87.4876906	8.4498281
0.9531250	46.1896313	9.2335467	4.3370257	86.2595382	29.5907459
0.9609375	43.8997188	8.9361787	4.1887488	85.1963402	10.3269736
0.9687500	41.5578992	8.7854665	3.9891328	83.8198599	28.2161529
0.9765625	39.2219886	8.3962889	3.8403786	82.6859525	11.9772562
0.9843750	36.8616985	8.1513566	3.6399085	81.2221401	26.1004708
0.9921875	34.5342004	7.6870072	3.4844812	79.9769625	12.9244356
1.0000000	32.2075534	7.3728669	3.2787644	78.3987265	22.9799823
