0.0000000	0.0000000	24.6370044	-3.2552217	0.1040895	76.1045700	-0.0090193	57.3175583
0.0000000	0.1250000	26.9115750	-2.1080351	4.0182211	76.1239896	0.2050437	29.5252236
0.0000000	0.2500000	29.3242538	0.0000108	6.2264402	76.3407768	-0.0005928	22.0626687
0.0000000	0.3750000	26.9058625	2.1050809	3.9871019	76.1174706	-0.2045428	21.4735863
0.0000000	0.5000000	24.6398693	3.2548513	0.1203670	76.1136765	0.0089024	59.3508387
0.0000000	0.6250000	27.2377101	2.1408846	-3.8645911	76.5830652	0.2211282	7.9725511
0.0000000	0.7500000	29.8213738	0.0000947	-6.1954152	76.9798864	-0.0002356	2.2031864
0.0000000	0.8750000	27.2432234	-2.1376875	-3.8375613	76.5855293	-0.2210983	15.1638754
0.0000000	1.0000000	24.6370044	-3.2552217	0.1040895	76.1045700	-0.0090193	57.3175583
0.0078125	0.0000000	24.6367547	-3.2468276	-0.1534302	76.0950576	-0.2797571	-51.0669400
0.0078125	0.1250000	25.7006856	-2.0189349	3.6395287	75.3690952	0.0160108	-4.1180145
0.0078125	0.2500000	27.3753814	-0.0022874	5.8445743	75.2318679	0.0002867	4.9514568
0.0078125	0.3750000	25.6914589	2.0169888	3.6742214	75.3597829	-0.0153858	-1.3280020
0.0078125	0.5000000	24.6398979	3.2462109	-0.1572149	76.0990564	0.2802895	-53.2107929
0.0078125	0.6250000	28.4580566	2.2291889	-4.1731906	77.3015484	0.4124941	-16.7213405
0.0078125	0.7500000	31.7995339	0.0023649	-6.5628980	78.0614731	0.0009704	-14.0096857
0.0078125	0.8750000	28.4594976	-2.2262942	-4.2161278	77.2945221	-0.4123082	-23.4646526
0.0078125	1.0000000	24.6367547	-3.2468276	-0.1534302	76.0950576	-0.2797571	-51.0669400
0.0156250	0.0000000	24.6315931	-3.2414083	0.1234539	75.9775744	-0.5680597	56.3648946
0.0156250	0.1250000	24.4234289	-1.8859127	3.7271958	74.3780844	-0.1855962	24.7246975
0.0156250	0.2500000	25.4451843	0.0001458	5.5672806	73.8803099	0.0007083	19.6057726
0.0156250	0.3750000	24.4240053	1.8828933	3.6954334	74.4067926	0.1861814	13.3970790
0.0156250	0.5000000	24.6339333	3.2411362	0.1394987	75.9875219	0.5677426	58.3613895
0.0156250	0.6250000	29.7535632	2.3536960	-4.1155156	78.1380451	0.6283590	11.8625274
0.0156250	0.7500000	33.8127612	0.0000954	-6.7192645	79.2636490	-0.0009397	-6.1387022
0.0156250	0.8750000	29.7558749	-2.3504011	-4.0912567	78.1257231	-0.6279501	17.8746383
0.0156250	1.0000000	24.6315931	-3.2414083	0.1234539	75.9775744	-0.5680597	56.3648946
0.0234375	0.0000000	24.6412338	-3.1918007	-0.1295209	76.1339707	-0.8424508	-47.2480189
0.0234375	0.1250000	23.2665714	-1.7880794	3.3633476	73.6723121	-0.3796159	0.6122609
0.0234375	0.2500000	23.5686343	-0.0022474	5.1539723	72.7080613	0.0005718	-3.5666268
0.0234375	0.3750000	23.2572693	1.7866177	3.3914997	73.6756340	0.3792298	-1.8540958
0.0234375	0.5000000	24.6463283	3.1915552	-0.1291872	76.1345035	0.8422089	-49.2086335
0.0234375	0.6250000	30.9903959	2.4323347	-4.3998691	78.8953576	0.8171233	-20.3625797
0.0234375	0.7500000	35.7886280	0.0020712	-7.0479623	80.2690456	0.0006549	-18.5237252
0.0234375	0.8750000	30.9932924	-2.4291767	-4.4309193	78.8882988	-0.8174553	-27.6550304
0.0234375	1.0000000	24.6412338	-3.1918007	-0.1295209	76.1339707	-0.8424508	-47.2480189
0.0312500	0.0000000	24.6302625	-3.1754158	0.1365275	76.1097696	-1.1225848	53.5212086
0.0312500	0.1250000	22.0577446	-1.6529604	3.3902043	72.7452272	-0.5732416	19.6379008
0.0312500	0.2500000	21.7281192	-0.0004303	4.8409885	71.3581400	-0.0004751	14.0162945
0.0312500	0.3750000	22.0535341	1.6502499	3.3672801	72.7410052	0.5731317	4.1121409
0.0312500	0.5000000	24.6360484	3.1755589	0.1479401	76.0953648	1.1223469	55.4143044
0.0312500	0.6250000	32.2999765	2.5399125	-4.3071937	79.7259343	1.0300772	14.2868339
0.0312500	0.7500000	37.7684596	0.0004451	-7.1089320	81.4241515	-0.0002417	-12.9821728
0.0312500	0.8750000	32.3114843	-2.5380896	-4.2808814	79.7361792	-1.0295508	19.4853307
0.0312500	1.0000000	24.6302625	-3.1754158	0.1365275	76.1097696	-1.1225848	53.5212086
0.0390625	0.0000000	24.6404634	-3.0858634	-0.1238326	76.1844181	-1.3914925	-45.4446725
0.0390625	0.1250000	20.9455979	-1.5516982	3.0330462	71.9290007	-0.7601465	1.7642825
0.0390625	0.2500000	19.9604166	-0.0028782	4.4441973	70.0768095	0.0009793	-16.7268959
0.0390625	0.3750000	20.9371886	1.5513467	3.0732858	71.9314760	0.7603314	-5.2326335
0.0390625	0.5000000	24.6468132	3.0859821	-0.1308200	76.1777125	1.3917611	-46.7641206
0.0390625	0.6250000	33.5231928	2.6007146	-4.5816385	80.3834585	1.2178045	-24.7227815
0.0390625	0.7500000	39.6958823	0.0025172	-7.3710025	82.2995715	0.0005596	-24.9195645
0.0390625	0.8750000	33.5307953	-2.5978269	-4.6200455	80.3816464	-1.2172227	-33.2560754
0.0390625	1.0000000	24.6404634	-3.0858634	-0.1238326	76.1844181	-1.3914925	-45.4446725
0.0468750	0.0000000	24.6217652	-3.0650062	0.1293974	76.1170014	-1.6666443	50.5971032
0.0468750	0.1250000	19.7947840	-1.4187608	3.0437748	71.0010806	-0.9452821	14.2592111
0.0468750	0.2500000	18.2695574	-0.0007711	4.1200138	68.6981129	-0.0001067	9.6771432
0.0468750	0.3750000	19.7943178	1.4161158	3.0234263	71.0029494	0.9455148	-6.3925190
0.0468750	0.5000000	24.6271350	3.0652976	0.1352479	76.1187375	1.6662120	52.3802518
0.0468750	0.6250000	34.8100746	2.6858878	-4.4444990	81.1599244	1.4291359	15.9008825
0.0468750	0.7500000	41.6065660	0.0011629	-7.3442806	83.3772219	-0.0004153	-18.4093186
0.0468750	0.8750000	34.8191847	-2.6844666	-4.4306005	81.1605550	-1.4291424	21.2161993
0.0468750	1.0000000	24.6217652	-3.0650062	0.1293974	76.1170014	-1.6666443	50.5971032
0.0546875	0.0000000	24.6261640	-2.9459800	-0.1282439	76.1921877	-1.9278216	-42.9381424
0.0546875	0.1250000	18.7437430	-1.3171168	2.7023752	70.1889541	-1.1260074	2.4884528
0.0546875	0.2500000	16.6544979	-0.0030378	3.7403118	67.3604398	0.0000849	-12.8639226
0.0546875	0.3750000	18.7380093	1.3175300	2.7381086	70.1741198	1.1257998	-10.0664262
0.0546875	0.5000000	24.6298373	2.9461241	-0.1371964	76.1788201	1.9279467	-44.3234401
0.0546875	0.6250000	36.0111081	2.7238951	-4.6912980	81.7620807	1.6127247	-28.7920822
0.0546875	0.7500000	43.4329851	0.0028154	-7.5276897	84.1533036	0.0011686	-31.5794124
0.0546875	0.8750000	36.0137226	-2.7211304	-4.7366656	81.7678000	-1.6119166	-38.4732569
0.0546875	1.0000000	24.6261640	-2.9459800	-0.1282439	76.1921877	-1.9278216	-42.9381424
0.0625000	0.0000000	24.6021882	-2.9258660	0.1284683	76.0409532	-2.1932783	46.6903275
0.0625000	0.1250000	17.6570288	-1.1917728	2.6985056	69.2094195	-1.2988938	9.5850305
0.0625000	0.2500000	15.1382445	-0.0004664	3.4267989	65.9480922	0.0005990	11.5550037
0.0625000	0.3750000	17.6601413	1.1883086	2.6816151	69.2289249	1.3001273	-14.7803236
0.0625000	0.5000000	24.6062582	2.9271937	0.1408779	76.0643131	2.1939852	49.0766179
0.0625000	0.6250000	37.2474859	2.7820095	-4.5286437	82.4517826	1.8196229	15.9412796
0.0625000	0.7500000	45.2296767	0.0012059	-7.3950855	85.1129910	-0.0009678	-22.4633894
0.0625000	0.8750000	37.2515300	-2.7811426	-4.5098076	82.4347627	-1.8196296	20.9707118
0.0625000	1.0000000	24.6021882	-2.9258660	0.1284683	76.0409532	-2.1932783	46.6903275
0.0703125	0.0000000	24.6045743	-2.7863579	-0.1224352	76.2337052	-2.4486830	-37.7490073
0.0703125	0.1250000	16.6838687	-1.0917186	2.3915469	68.4886692	-1.4752959	3.0220074
0.0703125	0.2500000	13.7108037	-0.0025450	3.0548349	64.6526813	-0.0008377	0.8387762
0.0703125	0.3750000	16.6827179	1.0922101	2.4219726	68.4663033	1.4751581	-9.6970812
0.0703125	0.5000000	24.6073342	2.7868485	-0.1243700	76.2306429	2.4489269	-39.5998519
0.0703125	0.6250000	38.4083829	2.7955514	-4.7166172	83.0773060	1.9978602	-31.6806080
0.0703125	0.7500000	46.9241023	0.0024351	-7.4959835	85.8714128	0.0012408	-37.1366470
0.0703125	0.8750000	38.4122972	-2.7933233	-4.7439306	83.0794704	-1.9977369	-41.9482518
0.0703125	1.0000000	24.6045743	-2.7863579	-0.1224352	76.2337052	-2.4486830	-37.7490073
0.0781250	0.0000000	24.5747008	-2.7634464	0.1243075	76.0272977	-2.6980365	41.3264343
0.0781250	0.1250000	15.6770354	-0.9795005	2.3662632	67.4505909	-1.6335226	8.7282600
0.0781250	0.2500000	12.3775460	0.0003014	2.7648337	63.1972312	0.0010531	16.1318497
0.0781250	0.3750000	15.6850015	0.9746365	2.3395573	67.4761480	1.6347191	-9.8167390
0.0781250	0.5000000	24.5764079	2.7660892	0.1477376	76.0404010	2.6988812	43.7526877
0.0781250	0.6250000	39.5887432	2.8250149	-4.5183556	83.6362801	2.1957835	14.2828111
0.0781250	0.7500000	48.5607478	0.0008667	-7.2657859	86.6790815	-0.0010124	-25.0589325
0.0781250	0.8750000	39.5892639	-2.8224435	-4.5035292	83.6223249	-2.1952047	19.1398324
0.0781250	1.0000000	24.5747008	-2.7634464	0.1243075	76.0272977	-2.6980365	41.3264343
0.0859375	0.0000000	24.5757210	-2.6119986	-0.1017169	76.2590782	-2.9462415	-31.7835687
0.0859375	0.1250000	14.7887808	-0.8841797	2.0897722	66.7770719	-1.8022644	5.4335466
0.0859375	0.2500000	11.1489765	-0.0015552	2.4420387	61.9390914	-0.0000728	20.1507940
0.0859375	0.3750000	14.7877933	0.8839398	2.1040549	66.7703880	1.8025135	-3.8782553
0.0859375	0.5000000	24.5793677	2.6132076	-0.0931224	76.2671408	2.9460994	-33.4182267
0.0859375	0.6250000	40.6919023	2.8104225	-4.6521455	84.2581168	2.3682067	-33.4748080
0.0859375	0.7500000	50.0930261	0.0018757	-7.2620877	87.4115470	0.0008409	-37.2007520
0.0859375	0.8750000	40.6911720	-2.8069608	-4.6738409	84.2630774	-2.3687953	-43.5500055
0.0859375	1.0000000	24.5757210	-2.6119986	-0.1017169	76.2590782	-2.9462415	-31.7835687
0.0937500	0.0000000	24.5472474	-2.5813510	0.1266478	76.0806918	-3.1786632	35.7365819
0.0937500	0.1250000	13.8698652	-0.7861141	2.0250897	65.7828785	-1.9480380	9.0005292
0.0937500	0.2500000	10.0132889	0.0004797	2.1769070	60.4881897	0.0009045	22.5650976
0.0937500	0.3750000	13.8753199	0.7818104	2.0010827	65.8022930	1.9481451	-4.0080797
0.0937500	0.5000000	24.5498520	2.5839425	0.1511609	76.0696844	3.1785030	37.6715944
0.0937500	0.6250000	41.7898013	2.8063716	-4.4393199	84.7516715	2.5537189	11.9604367
0.0937500	0.7500000	51.5557050	0.0007367	-6.9442704	88.0907997	-0.0006796	-19.8178295
0.0937500	0.8750000	41.7930891	-2.8055322	-4.4144723	84.7367918	-2.5528061	16.4949483
0.0937500	1.0000000	24.5472474	-2.5813510	0.1266478	76.0806918	-3.1786632	35.7365819
0.1015625	0.0000000	24.5477572	-2.4233063	-0.0790988	76.2625678	-3.4134474	-26.9084850
0.1015625	0.1250000	13.0595410	-0.7023284	1.7986027	65.0936519	-2.1036199	7.8023060
0.1015625	0.2500000	8.9824146	-0.0008943	1.9104287	59.2381558	0.0006938	45.4112330
0.1015625	0.3750000	13.0607060	0.7013667	1.8071534	65.1073339	2.1040315	3.3961156
0.1015625	0.5000000	24.5519439	2.4243628	-0.0720756	76.2656597	3.4132753	-27.8269542
0.1015625	0.6250000	42.8070155	2.7597777	-4.5147430	85.3160159	2.7183589	-36.0505040
0.1015625	0.7500000	52.9122280	0.0015261	-6.8383586	88.7229059	0.0004658	-33.9784867
0.1015625	0.8750000	42.8085281	-2.7566177	-4.5333228	85.3080427	-2.7183332	-46.1261734
0.1015625	1.0000000	24.5477572	-2.4233063	-0.0790988	76.2625678	-3.4134474	-26.9084850
0.1093750	0.0000000	24.5235549	-2.3819266	0.1219441	76.1401665	-3.6299079	31.5171214
0.1093750	0.1250000	12.2446969	-0.6168468	1.7100608	64.2082262	-2.2380313	11.7034198
0.1093750	0.2500000	8.0401651	0.0004619	1.6606073	57.8791315	0.0001796	31.1680956
0.1093750	0.3750000	12.2495132	0.6134562	1.6938774	64.2143643	2.2376281	3.7538715
0.1093750	0.5000000	24.5234032	2.3829390	0.1331936	76.1264832	3.6294715	32.9048873
0.1093750	0.6250000	43.8170401	2.7275481	-4.2539963	85.7666838	2.8897871	10.7449680
0.1093750	0.7500000	54.1824989	0.0006474	-6.4750197	89.3357347	-0.0004845	-15.1403403
0.1093750	0.8750000	43.8179881	-2.7271117	-4.2374018	85.7671451	-2.8892028	15.1947877
0.1093750	1.0000000	24.5235549	-2.3819266	0.1219441	76.1401665	-3.6299079	31.5171214
0.1171875	0.0000000	24.5198621	-2.2183635	-0.0771003	76.2538235	-3.8455211	-23.3645619
0.1171875	0.1250000	11.5174505	-0.5476587	1.5272166	63.4901038	-2.3774487	8.2337669
0.1171875	0.2500000	7.1946762	-0.0006388	1.4511125	56.6498182	0.0008610	72.1874136
0.1171875	0.3750000	11.5180680	0.5471368	1.5333087	63.5048864	2.3775427	9.3359986
0.1171875	0.5000000	24.5202776	2.2203558	-0.0697241	76.2471903	3.8457078	-23.7529364
0.1171875	0.6250000	44.7454657	2.6488484	-4.2738053	86.2492225	3.0442248	-37.3851636
0.1171875	0.7500000	55.3295305	0.0011894	-6.3000178	89.8627865	-0.0000416	-31.1511201
0.1171875	0.8750000	44.7433775	-2.6465718	-4.2922625	86.2358154	-3.0435200	-47.4812159
0.1171875	1.0000000	24.5198621	-2.2183635	-0.0771003	76.2538235	-3.8455211	-23.3645619
0.1250000	0.0000000	24.4956406	-2.1705720	0.1125992	76.1673730	-4.0444571	28.3199862
0.1250000	0.1250000	10.8092507	-0.4746659	1.4263484	62.7205564	-2.4997703	16.8336498
0.1250000	0.2500000	6.4398013	0.0004206	1.2347757	55.4096068	-0.0004271	30.4042720
0.1250000	0.3750000	10.8091140	0.4723862	1.4099533	62.7115919	2.4999212	14.8235231
0.1250000	0.5000000	24.4944091	2.1700158	0.1199238	76.1729814	4.0449742	29.7253107
0.1250000	0.6250000	45.6539913	2.5887240	-3.9857502	86.6590622	3.2011803	8.7935323
0.1250000	0.7500000	56.3979794	0.0001910	-5.8829493	90.4187063	-0.0005395	-9.4470488
0.1250000	0.8750000	45.6516486	-2.5892929	-3.9720695	86.6586570	-3.2014046	13.6177620
0.1250000	1.0000000	24.4956406	-2.1705720	0.1125992	76.1673730	-4.0444571	28.3199862
0.1328125	0.0000000	24.4955992	-2.0012888	-0.0728918	76.2501498	-4.2404567	-20.7749244
0.1328125	0.1250000	10.1650700	-0.4196229	1.2604135	62.0216663	-2.6232085	7.9002950
0.1328125	0.2500000	5.7654096	-0.0007214	1.0781226	54.2369194	0.0000346	48.7499207
0.1328125	0.3750000	10.1654767	0.4199436	1.2702874	62.0186644	2.6230211	14.2081119
0.1328125	0.5000000	24.4892136	2.0028154	-0.0671115	76.2399633	4.2403703	-21.1732259
0.1328125	0.6250000	46.4778635	2.4802876	-3.9540443	87.0601231	3.3425362	-34.9538415
0.1328125	0.7500000	57.3470050	0.0003939	-5.6487028	90.8597043	0.0003513	-29.2973255
0.1328125	0.8750000	46.4681195	-2.4777514	-3.9731861	87.0570340	-3.3421698	-44.6279209
0.1328125	1.0000000	24.4955992	-2.0012888	-0.0728918	76.2501498	-4.2404567	-20.7749244
0.1406250	0.0000000	24.4718117	-1.9440251	0.0927056	76.1737671	-4.4187256	25.9521773
0.1406250	0.1250000	9.5553129	-0.3622446	1.1729810	61.3333065	-2.7313139	23.0642487
0.1406250	0.2500000	5.1793901	0.0009448	0.8966025	53.1229078	-0.0000393	19.2575953
0.1406250	0.3750000	9.5558183	0.3582163	1.1508181	61.3372570	2.7325018	27.7663827
0.1406250	0.5000000	24.4663419	1.9463833	0.1143347	76.1885529	4.4193046	27.6728420
0.1406250	0.6250000	47.2788166	2.3961613	-3.6364728	87.4047542	3.4834899	7.2559721
0.1406250	0.7500000	58.2109923	-0.0011275	-5.2004934	91.3144495	-0.0004946	-4.5970188
0.1406250	0.8750000	47.2661180	-2.3958763	-3.6184262	87.3996593	-3.4836048	12.8433679
0.1406250	1.0000000	24.4718117	-1.9440251	0.0927056	76.1737671	-4.4187256	25.9521773
0.1484375	0.0000000	24.4698194	-1.7698250	-0.0782085	76.2682752	-4.5952148	-17.8446591
0.1484375	0.1250000	9.0051671	-0.3174475	1.0185307	60.6962953	-2.8414371	7.6183225
0.1484375	0.2500000	4.6585623	-0.0006879	0.7754643	52.0597780	0.0000852	20.6200548
0.1484375	0.3750000	9.0018403	0.3185635	1.0290636	60.6891924	2.8403855	17.9559559
0.1484375	0.5000000	24.4619357	1.7723792	-0.0654259	76.2546324	4.5944316	-19.2686962
0.1484375	0.6250000	47.9985809	2.2636247	-3.5594460	87.7694653	3.6106394	-32.6950863
0.1484375	0.7500000	58.9644130	-0.0013658	-4.9134086	91.7115939	0.0003972	-26.9753388
0.1484375	0.8750000	47.9805350	-2.2604844	-3.5640511	87.7769632	-3.6105035	-41.4749875
0.1484375	1.0000000	24.4698194	-1.7698250	-0.0782085	76.2682752	-4.5952148	-17.8446591
0.1562500	0.0000000	24.4453462	-1.7047516	0.0781887	76.1790968	-4.7487821	23.1556625
0.1562500	0.1250000	8.4887639	-0.2747233	0.9397342	60.0779423	-2.9329413	29.8262845
0.1562500	0.2500000	4.2179455	0.0009959	0.6350666	51.0936210	0.0005196	7.5544131
0.1562500	0.3750000	8.4892009	0.2702711	0.9240656	60.0866101	2.9331961	41.5502064
0.1562500	0.5000000	24.4397295	1.7090261	0.1040334	76.1830983	4.7497772	25.6624424
0.1562500	0.6250000	48.6799333	2.1560030	-3.2326220	88.0311394	3.7338479	6.6948502
0.1562500	0.7500000	59.6385087	-0.0031035	-4.4446026	92.0494255	-0.0009979	-0.9716870
0.1562500	0.8750000	48.6659794	-2.1571333	-3.1985031	88.0123029	-3.7330900	11.5942499
0.1562500	1.0000000	24.4453462	-1.7047516	0.0781887	76.1790968	-4.7487821	23.1556625
0.1640625	0.0000000	24.4478271	-1.5299149	-0.0643624	76.3001384	-4.9057747	-14.7130757
0.1640625	0.1250000	8.0284976	-0.2391961	0.7978537	59.5510638	-3.0300185	8.2793983
0.1640625	0.2500000	3.8338130	-0.0004890	0.5430628	50.1700920	-0.0005874	-10.2866604
0.1640625	0.3750000	8.0258335	0.2398823	0.8074846	59.5358261	3.0286067	21.2703406
0.1640625	0.5000000	24.4394781	1.5310210	-0.0589569	76.2843749	4.9055452	-16.6101017
0.1640625	0.6250000	49.2831445	2.0045211	-3.1024660	88.3750669	3.8462671	-29.8106946
0.1640625	0.7500000	60.2234578	-0.0033162	-4.1248078	92.4249197	0.0002458	-23.9424959
0.1640625	0.8750000	49.2683467	-2.0012629	-3.1002222	88.3778112	-3.8459356	-37.7854209
0.1640625	1.0000000	24.4478271	-1.5299149	-0.0643624	76.3001384	-4.9057747	-14.7130757
0.1718750	0.0000000	24.4294529	-1.4514309	0.0648792	76.1780397	-5.0334102	19.6394336
0.1718750	0.1250000	7.6014528	-0.2097435	0.7317318	59.0029880	-3.1033942	35.1132146
0.1718750	0.2500000	3.5165365	0.0010050	0.4356716	49.3610051	0.0007951	-4.4843857
0.1718750	0.3750000	7.6034659	0.2045755	0.7191796	59.0135577	3.1042899	53.8294643
0.1718750	0.5000000	24.4203181	1.4575842	0.0865773	76.1847275	5.0342364	22.9105536
0.1718750	0.6250000	49.8459754	1.8801056	-2.7456097	88.5443178	3.9485761	5.2843447
0.1718750	0.7500000	60.7294544	-0.0048322	-3.6782120	92.6427913	-0.0008466	1.1252996
0.1718750	0.8750000	49.8263804	-1.8761340	-2.7271912	88.5275040	-3.9480071	10.1309866
0.1718750	1.0000000	24.4294529	-1.4514309	0.0648792	76.1780397	-5.0334102	19.6394336
0.1796875	0.0000000	24.4338511	-1.2769989	-0.0586337	76.3205031	-5.1688819	-10.7801401
0.1796875	0.1250000	7.2325710	-0.1820639	0.6067584	58.5832641	-3.1868811	9.6232059
0.1796875	0.2500000	3.2455072	-0.0001657	0.3632142	48.6183578	-0.0009398	-41.1000106
0.1796875	0.3750000	7.2312499	0.1820489	0.6154953	58.5690661	3.1865719	24.6853081
0.1796875	0.5000000	24.4222376	1.2777089	-0.0553733	76.3175735	5.1684592	-13.2378853
0.1796875	0.6250000	50.3401833	1.7133308	-2.5790266	88.8636649	4.0459955	-26.3644297
0.1796875	0.7500000	61.1596098	-0.0050415	-3.3355838	93.0123850	0.0005041	-19.8716167
0.1796875	0.8750000	50.3180595	-1.7069388	-2.5711050	88.8740361	-4.0463482	-33.3800240
0.1796875	1.0000000	24.4338511	-1.2769989	-0.0586337	76.3205031	-5.1688819	-10.7801401
0.1875000	0.0000000	24.4167069	-1.1840167	0.0415253	76.1950951	-5.2698869	15.9637542
0.1875000	0.1250000	6.8958837	-0.1621590	0.5437462	58.1186333	-3.2441487	40.4044061
0.1875000	0.2500000	3.0275245	0.0010111	0.2870198	47.9792514	0.0006663	-15.7092769
0.1875000	0.3750000	6.8995519	0.1567677	0.5331396	58.1323223	3.2447198	64.3577387
0.1875000	0.5000000	24.4048502	1.1946770	0.0781470	76.1967167	5.2706660	19.1914354
0.1875000	0.6250000	50.7793747	1.5692625	-2.2406506	88.9500095	4.1272593	3.5727255
0.1875000	0.7500000	61.5239431	-0.0067555	-2.8981307	93.1329188	-0.0006602	1.6556283
0.1875000	0.8750000	50.7588447	-1.5654193	-2.1997260	88.9337635	-4.1266429	7.7930106
0.1875000	1.0000000	24.4167069	-1.1840167	0.0415253	76.1950951	-5.2698869	15.9637542
0.1953125	0.0000000	24.4203013	-1.0138718	-0.0560490	76.3336019	-5.3821665	-7.0240456
0.1953125	0.1250000	6.6160982	-0.1416119	0.4409028	57.8125663	-3.3125413	10.8420669
0.1953125	0.2500000	2.8466139	0.0003857	0.2317100	47.4146337	-0.0006496	-53.2043736
0.1953125	0.3750000	6.6153613	0.1396885	0.4395594	57.8018950	3.3123748	27.3542308
0.1953125	0.5000000	24.4118750	1.0172326	-0.0413168	76.3308206	5.3814558	-9.5283704
0.1953125	0.6250000	51.1539659	1.3898551	-2.0320296	89.2524697	4.2072941	-22.2506428
0.1953125	0.7500000	61.8319629	-0.0071684	-2.5493415	93.4518673	0.0004911	-15.9032345
0.1953125	0.8750000	51.1405948	-1.3848891	-2.0002359	89.2634741	-4.2077052	-27.6484234
0.1953125	1.0000000	24.4203013	-1.0138718	-0.0560490	76.3336019	-5.3821665	-7.0240456
0.2031250	0.0000000	24.4055207	-0.9090261	0.0265741	76.2101694	-5.4554142	12.8983531
0.2031250	0.1250000	6.3688594	-0.1266095	0.3752794	57.4588734	-3.3553735	41.3453221
0.2031250	0.2500000	2.7059226	0.0008096	0.1785293	46.9379191	0.0010384	-10.7285374
0.2031250	0.3750000	6.3720619	0.1222214	0.3711280	57.4710089	3.3550421	66.4242496
0.2031250	0.5000000	24.3950985	0.9184141	0.0550612	76.2070341	5.4559868	15.8449867
0.2031250	0.6250000	51.4746939	1.2307042	-1.6924589	89.2694240	4.2684944	1.9454091
0.2031250	0.7500000	62.0831487	-0.0081094	-2.1364274	93.5208231	-0.0007975	1.9579517
0.2031250	0.8750000	51.4630329	-1.2254307	-1.6521787	89.2532294	-4.2673212	4.9864726
0.2031250	1.0000000	24.4055207	-0.9090261	0.0265741	76.2101694	-5.4554142	12.8983531
0.2109375	0.0000000	24.4106997	-0.7454359	-0.0492170	76.3354710	-5.5423270	-4.2323535
0.2109375	0.1250000	6.1726731	-0.1107383	0.2943805	57.2485713	-3.4064403	11.4052474
0.2109375	0.2500000	2.5942479	0.0006002	0.1342791	46.5483352	-0.0004029	-34.1419640
0.2109375	0.3750000	6.1740484	0.1078619	0.2925097	57.2416183	3.4069395	25.4725184
0.2109375	0.5000000	24.4011040	0.7492900	-0.0348835	76.3368841	5.5419790	-6.3017552
0.2109375	0.6250000	51.7395572	1.0395842	-1.4529269	89.5289844	4.3293615	-18.4172448
0.2109375	0.7500000	62.2898721	-0.0080372	-1.7857105	93.7798604	0.0003637	-12.2220864
0.2109375	0.8750000	51.7296285	-1.0316652	-1.4225433	89.5439122	-4.3302908	-22.5969596
0.2109375	1.0000000	24.4106997	-0.7454359	-0.0492170	76.3354710	-5.5423270	-4.2323535
0.2187500	0.0000000	24.3967034	-0.6277596	0.0039988	76.2387089	-5.5914932	10.4361899
0.2187500	0.1250000	6.0119568	-0.0967372	0.2303079	56.9993250	-3.4352316	36.6109474
0.2187500	0.2500000	2.5104373	0.0007487	0.0993242	46.2328965	0.0009151	-4.5266018
0.2187500	0.3750000	6.0159010	0.0930860	0.2302702	57.0098910	3.4342132	58.6625156
0.2187500	0.5000000	24.3856032	0.6368220	0.0309567	76.2255798	5.5913844	12.8374772
0.2187500	0.6250000	51.9489980	0.8638394	-1.1241674	89.5092182	4.3694561	0.4728802
0.2187500	0.7500000	62.4487011	-0.0087305	-1.3927085	93.7847256	-0.0005344	1.4071586
0.2187500	0.8750000	51.9403502	-0.8566613	-1.0875761	89.4951424	-4.3682790	2.7319697
0.2187500	1.0000000	24.3967034	-0.6277596	0.0039988	76.2387089	-5.5914932	10.4361899
0.2265625	0.0000000	24.3982509	-0.4736628	-0.0464835	76.3298956	-5.6491268	-2.0445215
0.2265625	0.1250000	5.8952137	-0.0812275	0.1653724	56.8774850	-3.4684082	12.6297852
0.2265625	0.2500000	2.4488322	0.0008669	0.0660084	45.9961523	-0.0005842	-20.5037585
0.2265625	0.3750000	5.8992859	0.0768266	0.1606777	56.8746398	3.4693037	23.1248900
0.2265625	0.5000000	24.3878983	0.4768756	-0.0294376	76.3370058	5.6487722	-3.4077208
0.2265625	0.6250000	52.1086789	0.6601129	-0.8688650	89.6997299	4.4101852	-14.9430511
0.2265625	0.7500000	62.5726976	-0.0087779	-1.0390815	93.9919431	0.0003878	-8.6921819
0.2265625	0.8750000	52.1023009	-0.6510179	-0.8373660	89.7101214	-4.4109824	-17.6432266
0.2265625	1.0000000	24.3982509	-0.4736628	-0.0464835	76.3298956	-5.6491268	-2.0445215
0.2343750	0.0000000	24.3848186	-0.3477769	-0.0143812	76.2553582	-5.6741025	8.8012312
0.2343750	0.1250000	5.8141038	-0.0634337	0.1047988	56.7359478	-3.4830282	34.1638892
0.2343750	0.2500000	2.4073784	0.0010114	0.0409681	45.8259179	0.0004239	-0.0875373
0.2343750	0.3750000	5.8170471	0.0598512	0.1025081	56.7383695	3.4823264	54.0752210
0.2343750	0.5000000	24.3761164	0.3556527	0.0186292	76.2465897	5.6739457	10.2743411
0.2343750	0.6250000	52.2149256	0.4709681	-0.5540865	89.6635824	4.4305714	-0.7919783
0.2343750	0.7500000	62.6563929	-0.0094614	-0.6621709	93.9481368	-0.0002867	0.5997080
0.2343750	0.8750000	52.2097164	-0.4621673	-0.5153323	89.6544640	-4.4298467	0.9261681
0.2343750	1.0000000	24.3848186	-0.3477769	-0.0143812	76.2553582	-5.6741025	8.8012312
0.2421875	0.0000000	24.3839821	-0.2015130	-0.0453959	76.3183782	-5.7016275	-0.3689761
0.2421875	0.1250000	5.7695430	-0.0441140	0.0484996	56.6972483	-3.4990343	12.7190648
0.2421875	0.2500000	2.3831041	0.0011531	0.0145143	45.7317426	-0.0004590	-13.4535834
0.2421875	0.3750000	5.7715993	0.0395961	0.0402555	56.6903755	3.4994470	21.7456915
0.2421875	0.5000000	24.3793273	0.2046762	-0.0172322	76.3218896	5.7020243	-1.1399344
0.2421875	0.6250000	52.2764715	0.2588998	-0.2845085	89.7823995	4.4497545	-11.7989093
0.2421875	0.7500000	62.7088836	-0.0095432	-0.3150566	94.0728575	0.0000849	-5.7676537
0.2421875	0.8750000	52.2750067	-0.2502870	-0.2419624	89.7827490	-4.4500325	-14.0499867
0.2421875	1.0000000	24.3839821	-0.2015130	-0.0453959	76.3183782	-5.7016275	-0.3689761
0.2500000	0.0000000	24.3740579	-0.0706196	-0.0253845	76.2639286	-5.7015452	7.3386337
0.2500000	0.1250000	5.7574768	-0.0222833	-0.0104607	56.6683593	-3.5004630	32.8327991
0.2500000	0.2500000	2.3755142	0.0011968	-0.0050860	45.7000916	-0.0001769	1.0569814
0.2500000	0.3750000	5.7574867	0.0178814	-0.0194469	56.6625667	3.4999938	50.7046303
0.2500000	0.5000000	24.3735440	0.0791860	0.0172412	76.2629896	5.7017374	8.4464867
0.2500000	0.6250000	52.2864707	0.0602396	0.0213157	89.7046255	4.4499499	-1.6211993
0.2500000	0.7500000	62.7235544	-0.0098079	0.0510719	94.0012843	-0.0001536	0.0002241
0.2500000	0.8750000	52.2888204	-0.0513976	0.0652004	89.7053111	-4.4498790	-0.2400348
0.2500000	1.0000000	24.3740579	-0.0706196	-0.0253845	76.2639286	-5.7015452	7.3386337
0.2578125	0.0000000	24.3721725	0.0712750	-0.0397539	76.3068460	-5.7003181	0.8180806
0.2578125	0.1250000	5.7790887	-0.0026680	-0.0639588	56.7034820	-3.4999497	12.3850695
0.2578125	0.2500000	2.3838951	0.0011885	-0.0324757	45.7515974	0.0006104	-13.1382945
0.2578125	0.3750000	5.7762642	-0.0026357	-0.0740206	56.7157877	3.5004795	21.1138997
0.2578125	0.5000000	24.3785321	-0.0673610	-0.0116867	76.3109678	5.6996626	0.4827120
0.2578125	0.6250000	52.2581964	-0.1490638	0.3087710	89.7492976	4.4473654	-9.4215045
0.2578125	0.7500000	62.7047193	-0.0093360	0.3985701	94.0393898	0.0002648	-3.5985019
0.2578125	0.8750000	52.2631201	0.1600290	0.3447552	89.7529666	-4.4475224	-11.0495047
0.2578125	1.0000000	24.3721725	0.0712750	-0.0397539	76.3068460	-5.7003181	0.8180806
0.2656250	0.0000000	24.3669208	0.2068070	-0.0272813	76.2678738	-5.6744136	6.4982293
0.2656250	0.1250000	5.8329108	0.0177717	-0.1308752	56.7817874	-3.4872492	33.8338043
0.2656250	0.2500000	2.4089552	0.0008972	-0.0526148	45.8644346	0.0001154	-0.4319152
0.2656250	0.3750000	5.8296828	-0.0210329	-0.1312892	56.7830352	3.4869395	49.6626197
0.2656250	0.5000000	24.3737335	-0.2002667	0.0011154	76.2615567	5.6740785	7.0053661
0.2656250	0.6250000	52.1805287	-0.3483704	0.6069745	89.6451813	4.4288622	-1.9279781
0.2656250	0.7500000	62.6462912	-0.0093458	0.7631378	93.9489381	-0.0000428	-0.2056754
0.2656250	0.8750000	52.1867101	0.3563593	0.6476648	89.6498700	-4.4289432	-0.4739303
0.2656250	1.0000000	24.3669208	0.2068070	-0.0272813	76.2678738	-5.6744136	6.4982293
0.2734375	0.0000000	24.3642997	0.3507368	-0.0394742	76.2929611	-5.6435873	1.6111975
0.2734375	0.1250000	5.9232007	0.0324994	-0.1878079	56.9115519	-3.4707615	11.3437141
0.2734375	0.2500000	2.4525584	0.0008867	-0.0826816	46.0529035	0.0003966	-19.6166062
0.2734375	0.3750000	5.9195071	-0.0372052	-0.1922265	56.9238284	3.4707322	19.1489070
0.2734375	0.5000000	24.3753872	-0.3434193	-0.0123485	76.2881484	5.6433517	1.5000819
0.2734375	0.6250000	52.0590762	-0.5485371	0.8950578	89.6226209	4.4041303	-7.9993545
0.2734375	0.7500000	62.5531396	-0.0088196	1.1223482	93.9016814	0.0000966	-2.3865358
0.2734375	0.8750000	52.0699876	0.5562192	0.9349942	89.6187593	-4.4040083	-9.0610267
0.2734375	1.0000000	24.3642997	0.3507368	-0.0394742	76.2929611	-5.6435873	1.6111975
0.2812500	0.0000000	24.3612048	0.4872116	-0.0254804	76.2643117	-5.5934385	5.7750369
0.2812500	0.1250000	6.0505385	0.0482521	-0.2591457	57.0979779	-3.4433145	35.4815579
0.2812500	0.2500000	2.5166290	0.0005928	-0.1125029	46.3127621	-0.0002807	-3.5934426
0.2812500	0.3750000	6.0480083	-0.0510224	-0.2568242	57.0886549	3.4424419	49.9881398
0.2812500	0.5000000	24.3713420	-0.4826200	-0.0097104	76.2581694	5.5934416	6.3288522
0.2812500	0.6250000	51.8858107	-0.7374570	1.1905530	89.5043787	4.3655088	-1.8938120
0.2812500	0.7500000	62.4193621	-0.0082367	1.4936638	93.7440715	-0.0000715	-0.6062123
0.2812500	0.8750000	51.8979246	0.7461108	1.2226441	89.5063647	-4.3654061	-0.2254279
0.2812500	1.0000000	24.3612048	0.4872116	-0.0254804	76.2643117	-5.5934385	5.7750369
0.2890625	0.0000000	24.3652529	0.6298308	-0.0318179	76.2622900	-5.5334131	2.1473674
0.2890625	0.1250000	6.2170183	0.0611029	-0.3253324	57.3182005	-3.4089736	10.7401607
0.2890625	0.2500000	2.6055793	0.0007617	-0.1500161	46.6557016	-0.0003894	-30.7808100
0.2890625	0.3750000	6.2156471	-0.0649780	-0.3297600	57.3126736	3.4097551	17.5908576
0.2890625	0.5000000	24.3728776	-0.6238569	-0.0117077	76.2736502	5.5338593	2.4482189
0.2890625	0.6250000	51.6609512	-0.9234486	1.4780223	89.4062166	4.3196393	-7.0851393
0.2890625	0.7500000	62.2479630	-0.0080615	1.8609023	93.6388023	0.0001151	-0.8041269
0.2890625	0.8750000	51.6734318	0.9302767	1.5129792	89.4122481	-4.3203773	-7.7189244
0.2890625	1.0000000	24.3652529	0.6298308	-0.0318179	76.2622900	-5.5334131	2.1473674
0.2968750	0.0000000	24.3673628	0.7700752	-0.0330418	76.2468077	-5.4580367	5.6578994
0.2968750	0.1250000	6.4246522	0.0759314	-0.4048254	57.5904535	-3.3660759	37.9017210
0.2968750	0.2500000	2.7231183	0.0006594	-0.1907017	47.0755273	-0.0004749	-7.6165074
0.2968750	0.3750000	6.4235882	-0.0791364	-0.4062528	57.5859716	3.3665352	52.3918386
0.2968750	0.5000000	24.3749593	-0.7633276	-0.0100046	76.2581828	5.4584853	5.8874065
0.2968750	0.6250000	51.3786499	-1.0999778	1.7676705	89.2440367	4.2614754	-1.0498739
0.2968750	0.7500000	62.0277649	-0.0077253	2.2353452	93.4563053	0.0002539	-0.9926650
0.2968750	0.8750000	51.3934132	1.1061792	1.8021671	89.2492468	-4.2619409	1.3053095
0.2968750	1.0000000	24.3673628	0.7700752	-0.0330418	76.2468077	-5.4580367	5.6578994
0.3046875	0.0000000	24.3698555	0.9101998	-0.0385921	76.2589842	-5.3719577	2.6121793
0.3046875	0.1250000	6.6745954	0.0912691	-0.4820885	57.9090775	-3.3167563	10.2412138
0.3046875	0.2500000	2.8740443	0.0007742	-0.2434144	47.5828648	0.0000089	-44.5860967
0.3046875	0.3750000	6.6739413	-0.0950890	-0.4879774	57.9118173	3.3167863	15.0709510
0.3046875	0.5000000	24.3800564	-0.9020838	-0.0103409	76.2630931	5.3718827	2.8095541
0.3046875	0.6250000	51.0423578	-1.2722121	2.0514268	89.0879344	4.1946740	-6.5351553
0.3046875	0.7500000	61.7575106	-0.0071048	2.6192679	93.2695112	0.0002702	-0.0016084
0.3046875	0.8750000	51.0620829	1.2777270	2.0863784	89.0907613	-4.1948116	-7.0494367
0.3046875	1.0000000	24.3698555	0.9101998	-0.0385921	76.2589842	-5.3719577	2.6121793
0.3125000	0.0000000	24.3730833	1.0451491	-0.0313161	76.2569852	-5.2715883	5.4747499
0.3125000	0.1250000	6.9685133	0.1102558	-0.5718256	58.2838030	-3.2586383	34.9261290
0.3125000	0.2500000	3.0630316	0.0005567	-0.3022168	48.1792012	0.0001489	-9.2881949
0.3125000	0.3750000	6.9667827	-0.1136108	-0.5741459	58.2857112	3.2582260	47.3672777
0.3125000	0.5000000	24.3864695	-1.0395524	-0.0126678	76.2463610	5.2710983	5.6886874
0.3125000	0.6250000	50.6452491	-1.4373675	2.3253113	88.8959412	4.1173501	-0.3177743
0.3125000	0.7500000	61.4331434	-0.0061145	3.0114419	93.0380241	-0.0001022	-1.0030116
0.3125000	0.8750000	50.6699743	1.4443484	2.3491682	88.8881218	-4.1171512	2.2090437
0.3125000	1.0000000	24.3730833	1.0451491	-0.0313161	76.2569852	-5.2715883	5.4747499
0.3203125	0.0000000	24.3818762	1.1778607	-0.0240403	76.2483425	-5.1589513	2.5787091
0.3203125	0.1250000	7.3041515	0.1327053	-0.6640704	58.7112920	-3.1927358	8.6304176
0.3203125	0.2500000	3.2969649	0.0004069	-0.3735768	48.8554403	0.0002493	-34.3687101
0.3203125	0.3750000	7.3033671	-0.1353627	-0.6647682	58.7152169	3.1927301	10.3835592
0.3203125	0.5000000	24.3937291	-1.1743355	-0.0114311	76.2519734	5.1586937	3.0511605
0.3203125	0.6250000	50.1922173	-1.5977065	2.5897342	88.6752034	4.0307336	-6.0127990
0.3203125	0.7500000	61.0487593	-0.0051958	3.4116442	92.7855506	0.0002014	0.4513520
0.3203125	0.8750000	50.2159047	1.6030397	2.6105435	88.6816065	-4.0309380	-5.6938565
0.3203125	1.0000000	24.3818762	1.1778607	-0.0240403	76.2483425	-5.1589513	2.5787091
0.3281250	0.0000000	24.3932692	1.3094953	-0.0248781	76.2343064	-5.0335415	5.1678887
0.3281250	0.1250000	7.6846960	0.1592489	-0.7584363	59.2007505	-3.1185316	27.3355197
0.3281250	0.2500000	3.5788640	0.0003394	-0.4585742	49.6247031	-0.0004007	-1.9167429
0.3281250	0.3750000	7.6855718	-0.1615341	-0.7585991	59.1947177	3.1189204	35.2367492
0.3281250	0.5000000	24.4024858	-1.3058613	-0.0124929	76.2421300	5.0334757	5.5407821
0.3281250	0.6250000	49.6771577	-1.7516333	2.8397541	88.4332350	3.9344600	0.2542840
0.3281250	0.7500000	60.5979707	-0.0043317	3.8121289	92.4969227	0.0003152	-0.9502879
0.3281250	0.8750000	49.7010577	1.7557875	2.8581881	88.4498191	-3.9353590	3.2509392
0.3281250	1.0000000	24.3932692	1.3094953	-0.0248781	76.2343064	-5.0335415	5.1678887
0.3359375	0.0000000	24.4055475	1.4389193	-0.0294258	76.2287395	-4.8957687	3.0145706
0.3359375	0.1250000	8.1114500	0.1903235	-0.8566960	59.7254609	-3.0370134	6.7411124
0.3359375	0.2500000	3.9156014	0.0004094	-0.5554370	50.4764150	-0.0001300	-12.3703785
0.3359375	0.3750000	8.1116767	-0.1929156	-0.8608283	59.7262686	3.0373618	6.9582870
0.3359375	0.5000000	24.4146569	-1.4355334	-0.0144411	76.2343137	4.8955608	3.3344394
0.3359375	0.6250000	49.1013272	-1.8956474	3.0941656	88.1703261	3.8301097	-5.7653283
0.3359375	0.7500000	60.0742707	-0.0033966	4.2100343	92.1861972	0.0003889	1.2540586
0.3359375	0.8750000	49.1255459	1.8995272	3.1083032	88.1749102	-3.8305575	-4.7968090
0.3359375	1.0000000	24.4055475	1.4389193	-0.0294258	76.2287395	-4.8957687	3.0145706
0.3437500	0.0000000	24.4173509	1.5651452	-0.0346723	76.2260800	-4.7467348	5.0864937
0.3437500	0.1250000	8.5855068	0.2269492	-0.9595730	60.3031813	-2.9480035	19.5898021
0.3437500	0.2500000	4.3112420	0.0002648	-0.6699043	51.4096888	-0.0002041	2.7558996
0.3437500	0.3750000	8.5867599	-0.2288024	-0.9632996	60.3042516	2.9481596	23.3945400
0.3437500	0.5000000	24.4243142	-1.5621135	-0.0175124	76.2301676	4.7467748	5.4497362
0.3437500	0.6250000	48.4723963	-2.0348063	3.3204843	87.8726340	3.7157985	1.7260492
0.3437500	0.7500000	59.4681468	-0.0024509	4.6036252	91.8385304	0.0001697	-1.4220199
0.3437500	0.8750000	48.4934539	2.0371779	3.3339168	87.8794858	-3.7161607	4.8221121
0.3437500	1.0000000	24.4173509	1.5651452	-0.0346723	76.2260800	-4.7467348	5.0864937
0.3515625	0.0000000	24.4296258	1.6877262	-0.0359750	76.2291034	-4.5861845	3.0971753
0.3515625	0.1250000	9.1082857	0.2690067	-1.0686815	60.9193606	-2.8510895	4.8495994
0.3515625	0.2500000	4.7707273	0.0003898	-0.7995167	52.4230109	-0.0000882	6.7565159
0.3515625	0.3750000	9.1091089	-0.2712379	-1.0758698	60.9197561	2.8508742	4.0952238
0.3515625	0.5000000	24.4360988	-1.6848917	-0.0168883	76.2246641	4.5859250	3.5625897
0.3515625	0.6250000	47.7828864	-2.1619542	3.5449537	87.5543404	3.5937488	-6.2658066
0.3515625	0.7500000	58.7750631	-0.0016585	4.9913330	91.4525897	0.0001076	2.4107776
0.3515625	0.8750000	47.8032612	2.1647739	3.5549595	87.5484004	-3.5936444	-4.6344529
0.3515625	1.0000000	24.4296258	1.6877262	-0.0359750	76.2291034	-4.5861845	3.0971753
0.3593750	0.0000000	24.4436670	1.8061768	-0.0298286	76.2123486	-4.4142408	4.9715777
0.3593750	0.1250000	9.6786369	0.3177503	-1.1895701	61.5809761	-2.7460720	11.6529459
0.3593750	0.2500000	5.3020096	0.0002126	-0.9428904	53.5082618	0.0001865	3.5883066
0.3593750	0.3750000	9.6763897	-0.3199076	-1.1945585	61.5872848	2.7462573	13.1275505
0.3593750	0.5000000	24.4507916	-1.8051793	-0.0168077	76.2172185	4.4136062	5.5375083
0.3593750	0.6250000	47.0359291	-2.2812690	3.7334884	87.1948113	3.4631097	3.6785805
0.3593750	0.7500000	57.9936678	-0.0008443	5.3763748	91.0362575	0.0002625	-1.7817538
0.3593750	0.8750000	47.0549824	2.2846455	3.7372289	87.2119863	-3.4637869	7.6469649
0.3593750	1.0000000	24.4436670	1.8061768	-0.0298286	76.2123486	-4.4142408	4.9715777
0.3671875	0.0000000	24.4622706	1.9231373	-0.0316215	76.2049838	-4.2311220	3.1088467
0.3671875	0.1250000	10.2933546	0.3731773	-1.3127926	62.2840758	-2.6336345	3.2337116
0.3671875	0.2500000	5.9102404	0.0000047	-1.1073659	54.6477667	0.0000129	21.8801648
0.3671875	0.3750000	10.2932018	-0.3745562	-1.3142494	62.2844119	2.6336772	2.4129248
0.3671875	0.5000000	24.4643806	-1.9232527	-0.0224655	76.2086089	4.2308870	3.4412012
0.3671875	0.6250000	46.2322690	-2.3870811	3.9260681	86.8204103	3.3247234	-6.5563538
0.3671875	0.7500000	57.1188890	-0.0001888	5.7295217	90.5703386	0.0001660	3.2757104
0.3671875	0.8750000	46.2441698	2.3890265	3.9297712	86.8281276	-3.3251857	-4.5730690
0.3671875	1.0000000	24.4622706	1.9231373	-0.0316215	76.2049838	-4.2311220	3.1088467
0.3750000	0.0000000	24.4789978	2.0392648	-0.0395071	76.1966876	-4.0378590	4.9244963
0.3750000	0.1250000	10.9572681	0.4344102	-1.4389024	63.0223870	-2.5137905	3.7011403
0.3750000	0.2500000	6.5998723	0.0001074	-1.2910970	55.8441533	-0.0004251	-0.2722412
0.3750000	0.3750000	10.9569588	-0.4364586	-1.4436072	63.0149114	2.5138446	3.6763309
0.3750000	0.5000000	24.4787724	-2.0379897	-0.0227206	76.2017927	4.0380330	5.8332861
0.3750000	0.6250000	45.3766941	-2.4816811	4.0851665	86.4179822	3.1792929	5.6409711
0.3750000	0.7500000	56.1427372	0.0002636	6.0636420	90.0863231	0.0000477	-1.5826058
0.3750000	0.8750000	45.3852636	2.4829062	4.0918853	86.4211624	-3.1796811	9.6248549
0.3750000	1.0000000	24.4789978	2.0392648	-0.0395071	76.1966876	-4.0378590	4.9244963
0.3828125	0.0000000	24.4936262	2.1508395	-0.0419691	76.1959139	-3.8349424	3.2050715
0.3828125	0.1250000	11.6695192	0.5031095	-1.5710691	63.7809973	-2.3865413	2.1423449
0.3828125	0.2500000	7.3769373	0.0000580	-1.4967029	57.0893295	-0.0000925	33.1673318
0.3828125	0.3750000	11.6676861	-0.5054896	-1.5780203	63.7795966	2.3862027	2.5331912
0.3828125	0.5000000	24.4936172	-2.1495650	-0.0232952	76.1971312	3.8350729	3.3774887
0.3828125	0.6250000	44.4679509	-2.5620099	4.2363720	85.9719048	3.0263369	-7.4310905
0.3828125	0.7500000	55.0642373	0.0006994	6.3724588	89.5538347	-0.0000225	4.9153747
0.3828125	0.8750000	44.4759502	2.5638034	4.2386573	85.9754336	-3.0263994	-4.3026887
0.3828125	1.0000000	24.4936262	2.1508395	-0.0419691	76.1959139	-3.8349424	3.2050715
0.3906250	0.0000000	24.5092971	2.2595759	-0.0422443	76.1884037	-3.6227394	4.9375173
0.3906250	0.1250000	12.4272099	0.5794187	-1.7114574	64.5734068	-2.2519417	-3.7963177
0.3906250	0.2500000	8.2452502	-0.0001567	-1.7227780	58.3784983	-0.0003755	-5.6652937
0.3906250	0.3750000	12.4255666	-0.5814454	-1.7169188	64.5642828	2.2514414	-4.2479683
0.3906250	0.5000000	24.5093592	-2.2584474	-0.0260284	76.1856091	3.6226421	5.9725977
0.3906250	0.6250000	43.5087241	-2.6280349	4.3617510	85.5157944	2.8672261	7.3786891
0.3906250	0.7500000	53.8871917	0.0009990	6.6451315	88.9817356	0.0000390	-1.2405975
0.3906250	0.8750000	43.5163813	2.6305019	4.3577704	85.5175506	-2.8673121	12.7142622
0.3906250	1.0000000	24.5092971	2.2595759	-0.0422443	76.1884037	-3.6227394	4.9375173
0.3984375	0.0000000	24.5248409	2.3654068	-0.0382933	76.1850064	-3.4013769	2.9667034
0.3984375	0.1250000	13.2312711	0.6627548	-1.8602240	65.3754321	-2.1100832	2.3927914
0.3984375	0.2500000	9.2088845	-0.0003075	-1.9667051	59.7058321	-0.0003187	15.7641412
0.3984375	0.3750000	13.2277280	-0.6650036	-1.8634614	65.3749781	2.1095846	4.1696687
0.3984375	0.5000000	24.5247420	-2.3653462	-0.0302444	76.1788954	3.4013040	3.4424420
0.3984375	0.6250000	42.5050988	-2.6788720	4.4711438	85.0116838	2.7011743	-4.9461084
0.3984375	0.7500000	52.6055278	0.0012216	6.8953414	88.3687274	-0.0000062	6.8638439
0.3984375	0.8750000	42.5090278	2.6818264	4.4565162	85.0168791	-2.7014686	-2.0869273
0.3984375	1.0000000	24.5248409	2.3654068	-0.0382933	76.1850064	-3.4013769	2.9667034
0.4062500	0.0000000	24.5392117	2.4685815	-0.0362593	76.1799508	-3.1720663	5.0804723
0.4062500	0.1250000	14.0812836	0.7532215	-2.0140287	66.2092245	-1.9617591	-10.6221947
0.4062500	0.2500000	10.2683491	-0.0005541	-2.2309455	61.0535323	-0.0000628	-5.0222866
0.4062500	0.3750000	14.0771904	-0.7556851	-2.0170011	66.2058935	1.9612979	-10.3117184
0.4062500	0.5000000	24.5374295	-2.4681748	-0.0269744	76.1750924	3.1713757	6.2364196
0.4062500	0.6250000	41.4608526	-2.7166463	4.5371444	84.4852086	2.5295012	9.5017633
0.4062500	0.7500000	51.2250951	0.0013047	7.1047941	87.7112814	0.0001566	-0.6575162
0.4062500	0.8750000	41.4600702	2.7186822	4.5331636	84.4942502	-2.5297825	14.5497966
0.4062500	1.0000000	24.5392117	2.4685815	-0.0362593	76.1799508	-3.1720663	5.0804723
0.4140625	0.0000000	24.5524784	2.5688958	-0.0348259	76.1686127	-2.9345640	2.8181441
0.4140625	0.1250000	14.9744549	0.8506721	-2.1676871	67.0517623	-1.8063220	3.3281519
0.4140625	0.2500000	11.4279001	-0.0008119	-2.5226035	62.4147589	-0.0003086	1.3556130
0.4140625	0.3750000	14.9720792	-0.8529420	-2.1678865	67.0485126	1.8065204	7.1100938
0.4140625	0.5000000	24.5497898	-2.5679440	-0.0247856	76.1802511	2.9342143	3.4902775
0.4140625	0.6250000	40.3700008	-2.7377719	4.5924295	83.9229739	2.3521476	-1.4294072
0.4140625	0.7500000	49.7506976	0.0013701	7.2663018	87.0065873	0.0002931	9.5686857
0.4140625	0.8750000	40.3712742	2.7395708	4.5946077	83.9418261	-2.3529988	1.5260864
0.4140625	1.0000000	24.5524784	2.5688958	-0.0348259	76.1686127	-2.9345640	2.8181441
0.4218750	0.0000000	24.5630975	2.6657342	-0.0317086	76.1624872	-2.6897775	5.0733779
0.4218750	0.1250000	15.9120611	0.9547132	-2.3295277	67.9200530	-1.6453189	-16.5378877
0.4218750	0.2500000	12.6862502	-0.0010279	-2.8282558	63.7845799	-0.0003453	-0.9156485
0.4218750	0.3750000	15.9104735	-0.9569576	-2.3247710	67.9095553	1.6449732	-14.8423170
0.4218750	0.5000000	24.5603992	-2.6646751	-0.0243329	76.1620170	2.6899224	6.0251335
0.4218750	0.6250000	39.2444963	-2.7432475	4.6329899	83.3623209	2.1711699	11.0499741
0.4218750	0.7500000	48.1834841	0.0013896	7.3733775	86.2637349	-0.0000955	2.0407850
0.4218750	0.8750000	39.2481819	2.7460265	4.6271540	83.3547753	-2.1713518	14.9008117
0.4218750	1.0000000	24.5630975	2.6657342	-0.0317086	76.1624872	-2.6897775	5.0733779
0.4296875	0.0000000	24.5719598	2.7590415	-0.0295630	76.1556294	-2.4384965	2.8159727
0.4296875	0.1250000	16.8916073	1.0644299	-2.4906232	68.7856940	-1.4781823	4.6413723
0.4296875	0.2500000	14.0419887	-0.0011813	-3.1532291	65.1619520	-0.0004228	-8.1005911
0.4296875	0.3750000	16.8906561	-1.0668140	-2.4874883	68.7810529	1.4776640	11.4268516
0.4296875	0.5000000	24.5690497	-2.7581336	-0.0208513	76.1487426	2.4386445	3.5877044
0.4296875	0.6250000	38.0882053	-2.7339929	4.6458765	82.7475788	1.9849307	2.2286801
0.4296875	0.7500000	46.5269689	0.0014975	7.4495676	85.4692180	-0.0003003	13.0950150
0.4296875	0.8750000	38.0913886	2.7368181	4.6405517	82.7491231	-1.9850231	4.7089907
0.4296875	1.0000000	24.5719598	2.7590415	-0.0295630	76.1556294	-2.4384965	2.8159727
0.4375000	0.0000000	24.5781540	2.8483114	-0.0268208	76.1449576	-2.1817344	4.9064659
0.4375000	0.1250000	17.9126191	1.1790019	-2.6520953	69.6585164	-1.3053752	-20.8739575
0.4375000	0.2500000	15.4924614	-0.0012253	-3.4958172	66.5417495	-0.0004598	5.8740089
0.4375000	0.3750000	17.9115617	-1.1815305	-2.6483535	69.6515900	1.3051386	-17.8168274
0.4375000	0.5000000	24.5757629	-2.8476912	-0.0199442	76.1479933	2.1816688	6.1981667
0.4375000	0.6250000	36.9041503	-2.7108822	4.6344994	82.1162095	1.7951413	12.2852612
0.4375000	0.7500000	44.7930048	0.0014286	7.4829824	84.6261509	-0.0000676	6.9334579
0.4375000	0.8750000	36.9071886	2.7140524	4.6229005	82.1211027	-1.7955095	15.7729114
0.4375000	1.0000000	24.5781540	2.8483114	-0.0268208	76.1449576	-2.1817344	4.9064659
0.4453125	0.0000000	24.5824981	2.9331846	-0.0242969	76.1360147	-1.9192736	2.9250743
0.4453125	0.1250000	18.9728844	1.2974705	-2.8181581	70.5277873	-1.1273733	5.5251840
0.4453125	0.2500000	17.0306438	-0.0013437	-3.8461847	67.9212488	-0.0003208	-12.9961288
0.4453125	0.3750000	18.9751941	-1.2998285	-2.8127587	70.5288679	1.1271257	14.4259475
0.4453125	0.5000000	24.5781262	-2.9330915	-0.0200076	76.1355093	1.9192252	3.7617901
0.4453125	0.6250000	35.6965908	-2.6733537	4.6063320	81.4484200	1.6024103	5.2855300
0.4453125	0.7500000	42.9897411	0.0013135	7.4665338	83.7522072	-0.0000024	16.9783976
0.4453125	0.8750000	35.6960242	2.6765434	4.5976670	81.4534731	-1.6027349	6.7607265
0.4453125	1.0000000	24.5824981	2.9331846	-0.0242969	76.1360147	-1.9192736	2.9250743
0.4531250	0.0000000	24.5839654	3.0128761	-0.0242808	76.1311902	-1.6526002	4.7843473
0.4531250	0.1250000	20.0684484	1.4183210	-2.9811360	71.4035825	-0.9451629	-15.5693352
0.4531250	0.2500000	18.6579637	-0.0011220	-4.2032056	69.2860606	-0.0003634	14.1189696
0.4531250	0.3750000	20.0720643	-1.4212116	-2.9808174	71.3995219	0.9449256	-13.5944550
0.4531250	0.5000000	24.5794442	-3.0122021	-0.0144854	76.1293287	1.6524040	6.3360830
0.4531250	0.6250000	34.4687151	-2.6231462	4.5527426	80.7592159	1.4063692	13.2394653
0.4531250	0.7500000	41.1278100	0.0010853	7.3947238	82.8253117	0.0000645	11.5303236
0.4531250	0.8750000	34.4675910	2.6260044	4.5512463	80.7678857	-1.4068181	15.5615702
0.4531250	1.0000000	24.5839654	3.0128761	-0.0242808	76.1311902	-1.6526002	4.7843473
0.4609375	0.0000000	24.5834452	3.0849412	-0.0165689	76.1244902	-1.3818724	2.9125869
0.4609375	0.1250000	21.1977990	1.5410649	-3.1543602	72.2811053	-0.7591304	3.4131588
0.4609375	0.2500000	20.3671845	-0.0010915	-4.5550680	70.6197915	0.0000666	-12.9525108
0.4609375	0.3750000	21.1995234	-1.5440113	-3.1520478	72.2847132	0.7586785	11.2673690
0.4609375	0.5000000	24.5808811	-3.0843822	-0.0083547	76.1227973	1.3816896	3.6991285
0.4609375	0.6250000	33.2211757	-2.5601879	4.4811129	80.0459245	1.2088002	7.9782424
0.4609375	0.7500000	39.2147623	0.0010006	7.2927863	81.8609488	-0.0003655	19.1129260
0.4609375	0.8750000	33.2235652	2.5635972	4.4761600	80.0436932	-1.2088837	8.8989186
0.4609375	1.0000000	24.5834452	3.0849412	-0.0165689	76.1244902	-1.3818724	2.9125869
0.4687500	0.0000000	24.5834974	3.1478993	-0.0094560	76.1172754	-1.1078546	4.7094811
0.4687500	0.1250000	22.3540040	1.6638528	-3.3250777	73.1579920	-0.5693432	-10.2504731
0.4687500	0.2500000	22.1501761	-0.0010749	-4.9130097	71.9350820	-0.0000380	12.3603391
0.4687500	0.3750000	22.3570460	-1.6667457	-3.3163628	73.1617074	0.5690347	-8.8400488
0.4687500	0.5000000	24.5804763	-3.1475588	-0.0046664	76.1131905	1.1078536	6.4523070
0.4687500	0.6250000	31.9655976	-2.4875169	4.3882211	79.3192012	1.0097425	13.3262777
0.4687500	0.7500000	37.2641188	0.0009243	7.1514216	80.8425719	-0.0002787	14.6388564
0.4687500	0.8750000	31.9672929	2.4909391	4.3824381	79.3124059	-1.0098984	14.7007018
0.4687500	1.0000000	24.5834974	3.1478993	-0.0094560	76.1172754	-1.1078546	4.7094811
0.4765625	0.0000000	24.5825333	3.1992326	-0.0061296	76.1123522	-0.8316439	2.6943727
0.4765625	0.1250000	23.5395003	1.7856077	-3.4877565	74.0190514	-0.3763589	2.1053970
0.4765625	0.2500000	23.9936614	-0.0008726	-5.2620131	73.2297713	-0.0001282	-9.0865708
0.4765625	0.3750000	23.5423283	-1.7886588	-3.4797483	74.0232909	0.3759879	7.2448594
0.4765625	0.5000000	24.5801556	-3.1991032	-0.0028599	76.1120154	0.8317070	3.6830281
0.4765625	0.6250000	30.6993983	-2.4053941	4.2875993	78.5543333	0.8094825	10.2697172
0.4765625	0.7500000	35.2926761	0.0007245	6.9645268	79.7907380	-0.0001714	18.9047861
0.4765625	0.8750000	30.7010268	2.4089577	4.2761349	78.5582704	-0.8096292	10.7489809
0.4765625	1.0000000	24.5825333	3.1992326	-0.0061296	76.1123522	-0.8316439	2.6943727
0.4843750	0.0000000	24.5814168	3.2370940	-0.0065293	76.1088590	-0.5540626	4.7306162
0.4843750	0.1250000	24.7488792	1.9049949	-3.6434532	74.8703392	-0.1804021	-6.9942302
0.4843750	0.2500000	25.8908205	-0.0007314	-5.6041740	74.5004907	-0.0000481	5.0274498
0.4843750	0.3750000	24.7519378	-1.9082357	-3.6365868	74.8781312	0.1802482	-5.9902240
0.4843750	0.5000000	24.5788617	-3.2370816	-0.0027041	76.1122854	0.5535608	6.7190862
0.4843750	0.6250000	29.4329257	-2.3155696	4.1733675	77.7730247	0.6087846	12.3080131
0.4843750	0.7500000	33.3072318	0.0005909	6.7375953	78.6935083	0.0001812	16.2457266
0.4843750	0.8750000	29.4323047	2.3192158	4.1620467	77.7879775	-0.6091481	12.7194504
0.4843750	1.0000000	24.5814168	3.2370940	-0.0065293	76.1088590	-0.5540626	4.7306162
0.4921875	0.0000000	24.5804330	3.2605903	-0.0095515	76.1068944	-0.2745002	2.6551697
0.4921875	0.1250000	25.9749221	2.0211254	-3.7943640	75.7186679	0.0177065	-0.0269034
0.4921875	0.2500000	27.8346657	-0.0004469	-5.9325405	75.7447665	-0.0003752	-7.5988690
0.4921875	0.3750000	25.9787848	-2.0249223	-3.7896764	75.7110905	-0.0177943	2.4297911
0.4921875	0.5000000	24.5784977	-3.2604100	0.0005179	76.1101714	0.2746056	3.7684892
0.4921875	0.6250000	28.1722005	-2.2194909	4.0446453	76.9800438	0.4082436	12.0685303
0.4921875	0.7500000	31.3138976	0.0002981	6.4726061	77.5543720	-0.0001243	16.2833677
0.4921875	0.8750000	28.1716804	2.2233509	4.0443864	76.9819174	-0.4087744	11.7292044
0.4921875	1.0000000	24.5804330	3.2605903	-0.0095515	76.1068944	-0.2745002	2.6551697
0.5000000	0.0000000	24.5798453	3.2699812	-0.0102083	76.1157817	0.0056921	4.7276474
0.5000000	0.1250000	27.2186654	2.1332532	-3.9355387	76.5418775	0.2168463	-4.3346259
0.5000000	0.2500000	29.8109399	-0.0003979	-6.2379309	76.9327536	-0.0000103	-3.9974731
0.5000000	0.3750000	27.2196005	-2.1371099	-3.9361397	76.5525917	-0.2173730	-3.6350580
0.5000000	0.5000000	24.5814314	-3.2700661	0.0021955	76.1090103	-0.0056593	6.6385860
0.5000000	0.6250000	26.9177463	-2.1176278	3.9065846	76.1583441	0.2091716	10.4026591
0.5000000	0.7500000	29.3284559	0.0002981	6.1820860	76.3950256	-0.0001540	15.3141766
0.5000000	0.8750000	26.9218424	2.1215905	3.9089547	76.1607916	-0.2093756	9.9628244
0.5000000	1.0000000	24.5798453	3.2699812	-0.0102083	76.1157817	0.0056921	4.7276474
0.5078125	0.0000000	24.5812046	3.2655718	-0.0036636	76.1153784	0.2853125	2.5542062
0.5078125	0.1250000	28.4763135	2.2410523	-4.0760196	77.3495500	0.4180431	-3.3234883
0.5078125	0.2500000	31.8001033	-0.0005414	-6.5177603	78.1061348	0.0002175	-7.0059983
0.5078125	0.3750000	28.4750144	-2.2447485	-4.0706736	77.3571683	-0.4185450	-3.3646445
0.5078125	0.5000000	24.5848049	-3.2656284	0.0027482	76.1099320	-0.2855845	3.9882027
0.5078125	0.6250000	25.6762095	-2.0106588	3.7603162	75.3295022	0.0112550	12.9524292
0.5078125	0.7500000	27.3670900	0.0004966	5.8772652	75.1882351	-0.0004238	10.4412544
0.5078125	0.8750000	25.6827512	2.0143668	3.7538065	75.3227294	-0.0111236	12.4085277
0.5078125	1.0000000	24.5812046	3.2655718	-0.0036636	76.1153784	0.2853125	2.5542062
0.5156250	0.0000000	24.5870743	3.2471676	0.0022898	76.1123268	0.5645280	4.3422947
0.5156250	0.1250000	29.7374279	2.3430794	-4.2056721	78.1511450	0.6200596	-2.1381725
0.5156250	0.2500000	33.8000074	-0.0007781	-6.7639552	79.2272119	-0.0000965	-13.6164239
0.5156250	0.3750000	29.7353285	-2.3463668	-4.1979273	78.1491025	-0.6202003	-2.2369461
0.5156250	0.5000000	24.5896355	-3.2470192	0.0064593	76.1142571	-0.5648401	6.4346952
0.5156250	0.6250000	24.4525704	-1.8991834	3.6061800	74.4849778	-0.1855810	7.6887880
0.5156250	0.7500000	25.4421909	0.0007403	5.5437167	73.9398521	0.0001468	11.1371901
0.5156250	0.8750000	24.4549961	1.9024395	3.5991188	74.4891144	0.1851649	6.7597972
0.5156250	1.0000000	24.5870743	3.2471676	0.0022898	76.1123268	0.5645280	4.3422947
0.5234375	0.0000000	24.5927183	3.2137386	-0.0003544	76.1123665	0.8426880	2.5960141
0.5234375	0.1250000	30.9979748	2.4385056	-4.3174932	78.9201143	0.8218696	-7.0574811
0.5234375	0.2500000	35.7968790	-0.0009690	-6.9856953	80.3118263	-0.0000247	-8.0658081
0.5234375	0.3750000	30.9960845	-2.4419104	-4.3049430	78.9282628	-0.8222131	-9.0165491
0.5234375	0.5000000	24.5963561	-3.2137020	0.0047884	76.1115163	-0.8428237	4.1632492
0.5234375	0.6250000	23.2484504	-1.7844392	3.4504724	73.6282784	-0.3794846	12.5066187
0.5234375	0.7500000	23.5586714	0.0007679	5.1913228	72.6710150	-0.0000996	1.8267507
0.5234375	0.8750000	23.2513503	1.7875645	3.4495800	73.6341479	0.3791432	12.1664794
0.5234375	1.0000000	24.5927183	3.2137386	-0.0003544	76.1123665	0.8426880	2.5960141
0.5312500	0.0000000	24.5947859	3.1670085	-0.0020239	76.1155584	1.1190386	4.1342347
0.5312500	0.1250000	32.2623230	2.5268810	-4.4061773	79.6763403	1.0235475	-1.1461238
0.5312500	0.2500000	37.7672590	-0.0012509	-7.1704369	81.3565812	-0.0004693	-22.6302980
0.5312500	0.3750000	32.2636605	-2.5301822	-4.3959115	79.6709551	-1.0235358	-2.1557824
0.5312500	0.5000000	24.5978332	-3.1670737	0.0010564	76.1266479	-1.1189950	6.4968784
0.5312500	0.6250000	22.0724478	-1.6676662	3.2969438	72.7647547	-0.5712202	4.3598981
0.5312500	0.7500000	21.7267879	0.0011985	4.8288094	71.3727647	-0.0001438	3.0799448
0.5312500	0.8750000	22.0768480	1.6703265	3.2873242	72.7655323	0.5706710	2.6823686
0.5312500	1.0000000	24.5947859	3.1670085	-0.0020239	76.1155584	1.1190386	4.1342347
0.5390625	0.0000000	24.5942371	3.1095750	-0.0042402	76.1176810	1.3925978	2.5669633
0.5390625	0.1250000	33.5229447	2.6057907	-4.4819122	80.4070270	1.2239800	-11.0972633
0.5390625	0.2500000	39.7040690	-0.0012958	-7.3188780	82.3550703	-0.0003673	-9.9923724
0.5390625	0.3750000	33.5233861	-2.6086948	-4.4779258	80.3995137	-1.2239545	-14.1817023
0.5390625	0.5000000	24.5973299	-3.1103988	0.0062943	76.1210604	-1.3923809	4.0954732
0.5390625	0.6250000	20.9272103	-1.5490373	3.1319345	71.9003803	-0.7595975	10.7467945
0.5390625	0.7500000	19.9590443	0.0010855	4.4632755	70.0518202	0.0000350	-10.7324858
0.5390625	0.8750000	20.9292136	1.5520731	3.1281695	71.9002325	0.7589733	11.5012646
0.5390625	1.0000000	24.5942371	3.1095750	-0.0042402	76.1176810	1.3925978	2.5669633
0.5468750	0.0000000	24.5907672	3.0443447	0.0014469	76.1354381	1.6631732	4.6041149
0.5468750	0.1250000	34.7729296	2.6735288	-4.5518163	81.1036019	1.4225587	-0.7494884
0.5468750	0.2500000	41.5988617	-0.0014625	-7.4060112	83.3140829	0.0001720	-31.4826725
0.5468750	0.3750000	34.7697162	-2.6759152	-4.5461453	81.1102752	-1.4232967	-2.6162754
0.5468750	0.5000000	24.5960558	-3.0444396	0.0090094	76.1256237	-1.6633044	6.5047978
0.5468750	0.6250000	19.8117825	-1.4309204	2.9636945	71.0255498	-0.9438128	-0.0055350
0.5468750	0.7500000	18.2667060	0.0013234	4.1062476	68.7137643	-0.0005210	-3.3075800
0.5468750	0.8750000	19.8134351	1.4335529	2.9600228	71.0202856	0.9440548	-3.0862715
0.5468750	1.0000000	24.5907672	3.0443447	0.0014469	76.1354381	1.6631732	4.6041149
0.5546875	0.0000000	24.5867312	2.9717832	0.0031343	76.1360438	1.9299531	1.9799763
0.5546875	0.1250000	36.0018287	2.7287008	-4.5999913	81.7878595	1.6193226	-15.2628013
0.5546875	0.2500000	43.4449070	-0.0016654	-7.4529280	84.2187928	-0.0003532	-11.9346399
0.5546875	0.3750000	36.0016518	-2.7315194	-4.5928304	81.7864389	-1.6193911	-19.7861365
0.5546875	0.5000000	24.5910491	-2.9718790	0.0092307	76.1405781	-1.9301336	4.2757208
0.5546875	0.6250000	18.7288235	-1.3141705	2.7971849	70.1529865	-1.1250877	7.9436285
0.5546875	0.7500000	16.6589269	0.0013597	3.7517223	67.3519012	-0.0001683	-6.8906074
0.5546875	0.8750000	18.7301069	1.3165489	2.7937259	70.1537656	1.1245972	11.0022536
0.5546875	1.0000000	24.5867312	2.9717832	0.0031343	76.1360438	1.9299531	1.9799763
0.5625000	0.0000000	24.5797549	2.8935859	0.0038583	76.1443942	2.1922196	4.8648847
0.5625000	0.1250000	37.2119081	2.7711383	-4.6202050	82.4406547	1.8131981	-1.3566953
0.5625000	0.2500000	45.2260111	-0.0017114	-7.4575550	85.0802926	-0.0002414	-39.2059832
0.5625000	0.3750000	37.2170202	-2.7744216	-4.6146178	82.4427644	-1.8133213	-3.1535815
0.5625000	0.5000000	24.5816141	-2.8941808	0.0099438	76.1504547	-2.1920971	6.6512252
0.5625000	0.6250000	17.6857548	-1.1999035	2.6344127	69.2842697	-1.3014206	-5.2727413
0.5625000	0.7500000	15.1344887	0.0014437	3.4032381	65.9873244	-0.0002846	3.1539228
0.5625000	0.8750000	17.6849629	1.2020859	2.6277552	69.2804171	1.3007912	-8.0700951
0.5625000	1.0000000	24.5797549	2.8935859	0.0038583	76.1443942	2.1922196	4.8648847
0.5703125	0.0000000	24.5713299	2.8115046	0.0092449	76.1586577	2.4490923	1.8965048
0.5703125	0.1250000	38.3980337	2.7992597	-4.6252116	83.0587616	2.0032138	-19.1472070
0.5703125	0.2500000	46.9329675	-0.0016428	-7.4176473	85.8949665	-0.0000450	-14.8033104
0.5703125	0.3750000	38.4031797	-2.8025489	-4.6264217	83.0679869	-2.0036940	-24.4641753
0.5703125	0.5000000	24.5726778	-2.8123135	0.0176173	76.1579005	-2.4492936	3.9779990
0.5703125	0.6250000	16.6780479	-1.0889805	2.4619383	68.4162329	-1.4723892	6.6313073
0.5703125	0.7500000	13.7066143	0.0012153	3.0772651	64.6165202	-0.0003763	4.7665481
0.5703125	0.8750000	16.6754722	1.0911800	2.4547124	68.4119549	1.4723329	10.2102698
0.5703125	1.0000000	24.5713299	2.8115046	0.0092449	76.1586577	2.4490923	1.8965048
0.5781250	0.0000000	24.5609163	2.7254914	0.0106771	76.1607412	2.6999692	4.6577209
0.5781250	0.1250000	39.5577304	2.8134972	-4.6097572	83.6665548	2.1901663	-1.6531742
0.5781250	0.2500000	48.5582226	-0.0016231	-7.3266640	86.6746005	-0.0003104	-44.7697248
0.5781250	0.3750000	39.5599621	-2.8164497	-4.6089714	83.6656201	-2.1904401	-3.8189055
0.5781250	0.5000000	24.5620969	-2.7264204	0.0213897	76.1680786	-2.7001562	6.7197154
0.5781250	0.6250000	15.7103227	-0.9828023	2.2991048	67.5546828	-1.6386983	-2.2886964
0.5781250	0.7500000	12.3753904	0.0010245	2.7574794	63.2494408	-0.0000124	12.8464200
0.5781250	0.8750000	15.7063735	0.9850441	2.2963604	67.5568467	1.6381508	-3.8082340
0.5781250	1.0000000	24.5609163	2.7254914	0.0106771	76.1607412	2.6999692	4.6577209
0.5859375	0.0000000	24.5500033	2.6357063	0.0114077	76.1723867	2.9439276	2.1730563
0.5859375	0.1250000	40.6777024	2.8114103	-4.5768882	84.2234794	2.3717415	-24.0031649
0.5859375	0.2500000	50.1019557	-0.0016476	-7.1938809	87.4086183	0.0002216	-14.4722410
0.5859375	0.3750000	40.6774254	-2.8136981	-4.5752757	84.2373572	-2.3723366	-29.6545575
0.5859375	0.5000000	24.5523627	-2.6370250	0.0264080	76.1681147	-2.9443181	3.9378677
0.5859375	0.6250000	14.7822966	-0.8819924	2.1368826	66.7098217	-1.7986798	6.9461182
0.5859375	0.7500000	11.1444267	0.0005365	2.4512512	61.8801093	-0.0002005	20.7914779
0.5859375	0.8750000	14.7786956	0.8847825	2.1425400	66.7113247	1.7987741	10.0318000
0.5859375	1.0000000	24.5500033	2.6357063	0.0114077	76.1723867	2.9439276	2.1730563
0.5937500	0.0000000	24.5374923	2.5430379	0.0151007	76.1863470	3.1812976	4.6177657
0.5937500	0.1250000	41.7580574	2.7942796	-4.5221088	84.7719972	2.5492928	-1.2839244
0.5937500	0.2500000	51.5560156	-0.0017121	-7.0027199	88.0898710	0.0004001	-39.5996775
0.5937500	0.3750000	41.7590730	-2.7969555	-4.5178583	84.7890295	-2.5499438	-3.2372933
0.5937500	0.5000000	24.5407737	-2.5438370	0.0283062	76.1751665	-3.1817182	6.7044694
0.5937500	0.6250000	13.8989856	-0.7873550	1.9800109	65.8742916	-1.9523030	1.3439505
0.5937500	0.7500000	10.0110345	0.0004718	2.1693959	60.5311823	-0.0005844	26.5844019
0.5937500	0.8750000	13.8967627	0.7898358	1.9868174	65.8662324	1.9525710	0.6590632
0.5937500	1.0000000	24.5374923	2.5430379	0.0151007	76.1863470	3.1812976	4.6177657
0.6015625	0.0000000	24.5263326	2.4472108	0.0213354	76.1773654	3.4107116	1.8125137
0.6015625	0.1250000	42.7938128	2.7616997	-4.4449022	85.2929701	2.7210492	-27.7270721
0.6015625	0.2500000	52.9141282	-0.0016779	-6.7888149	88.7276825	-0.0000981	-13.2386533
0.6015625	0.3750000	42.7973857	-2.7646663	-4.4343500	85.2923349	-2.7211283	-35.0821468
0.6015625	0.5000000	24.5282840	-2.4471234	0.0271680	76.1840017	-3.4105751	4.0387231
0.6015625	0.6250000	13.0597626	-0.6992436	1.8272386	65.0590898	-2.1003644	8.4277145
0.6015625	0.7500000	8.9756992	0.0004522	1.9118258	59.2083377	-0.0004570	41.0418367
0.6015625	0.8750000	13.0585437	0.7009206	1.8264386	65.0492400	2.0995989	10.7528928
0.6015625	1.0000000	24.5263326	2.4472108	0.0213354	76.1773654	3.4107116	1.8125137
0.6093750	0.0000000	24.5144867	2.3468068	0.0157417	76.1949541	3.6318937	4.8467592
0.6093750	0.1250000	43.7848934	2.7149902	-4.3322716	85.7699682	2.8862989	-3.0545584
0.6093750	0.2500000	54.1760804	-0.0016527	-6.5344961	89.3225262	0.0000411	-32.8886627
0.6093750	0.3750000	43.7905654	-2.7171795	-4.3258046	85.7723689	-2.8865553	-3.5788553
0.6093750	0.5000000	24.5149468	-2.3476181	0.0248708	76.1977123	-3.6319201	6.5970864
0.6093750	0.6250000	12.2657775	-0.6183100	1.6873449	64.2612256	-2.2413839	6.6150065
0.6093750	0.7500000	8.0384025	0.0003375	1.6644427	57.9007453	-0.0003388	44.0984932
0.6093750	0.8750000	12.2645527	0.6199045	1.6870281	64.2566878	2.2411042	6.6464051
0.6093750	1.0000000	24.5144867	2.3468068	0.0157417	76.1949541	3.6318937	4.8467592
0.6171875	0.0000000	24.5013183	2.2441819	0.0160660	76.1982963	3.8432681	1.7850204
0.6171875	0.1250000	44.7291527	2.6525289	-4.2037500	86.2232513	3.0459555	-29.3793441
0.6171875	0.2500000	55.3304835	-0.0013019	-6.2639046	89.8749818	0.0000098	-12.3039549
0.6171875	0.3750000	44.7366450	-2.6548120	-4.1985133	86.2316890	-3.0462446	-36.0243095
0.6171875	0.5000000	24.5006707	-2.2448709	0.0273397	76.1980519	-3.8435627	3.9572763
0.6171875	0.6250000	11.5208222	-0.5436942	1.5440124	63.4772059	-2.3752195	10.6259131
0.6171875	0.7500000	7.1922125	0.0001356	1.4413222	56.6432718	0.0000224	62.8304147
0.6171875	0.8750000	11.5192566	0.5454560	1.5467719	63.4777800	2.3749813	11.5165206
0.6171875	1.0000000	24.5013183	2.2441819	0.0160660	76.1982963	3.8432681	1.7850204
0.6250000	0.0000000	24.4889278	2.1383913	0.0173387	76.2107660	4.0459430	4.8656722
0.6250000	0.1250000	45.6233957	2.5765061	-4.0587299	86.6418641	3.1988750	-4.0367532
0.6250000	0.2500000	56.3837731	-0.0009319	-5.9373652	90.4125332	0.0000272	-26.9130271
0.6250000	0.3750000	45.6317350	-2.5779199	-4.0573249	86.6454209	-3.1991884	-4.4948132
0.6250000	0.5000000	24.4879345	-2.1392439	0.0300634	76.2081824	-4.0460156	6.5634229
0.6250000	0.6250000	10.8215896	-0.4759164	1.4056786	62.7287790	-2.5020192	13.1978127
0.6250000	0.7500000	6.4353923	-0.0000584	1.2451866	55.4208414	0.0001358	45.2137378
0.6250000	0.8750000	10.8211725	0.4777541	1.4105182	62.7321164	2.5019934	13.1373865
0.6250000	1.0000000	24.4889278	2.1383913	0.0173387	76.2107660	4.0459430	4.8656722
0.6328125	0.0000000	24.4770783	2.0283404	0.0157168	76.2086246	4.2379111	1.6575095
0.6328125	0.1250000	46.4624970	2.4859755	-3.8976102	87.0343343	3.3439458	-26.9604245
0.6328125	0.2500000	57.3401791	-0.0004163	-5.5926020	90.8712226	0.0004339	-11.5341698
0.6328125	0.3750000	46.4701029	-2.4865866	-3.8996172	87.0462099	-3.3441753	-31.7317441
0.6328125	0.5000000	24.4760190	-2.0294086	0.0316246	76.2121807	-4.2387787	3.6896835
0.6328125	0.6250000	10.1675432	-0.4157377	1.2722501	62.0163648	-2.6217305	14.4967465
0.6328125	0.7500000	5.7657022	-0.0001117	1.0672726	54.2398111	0.0001407	40.9816366
0.6328125	0.8750000	10.1690769	0.4173039	1.2797826	62.0252676	2.6216882	13.2030766
0.6328125	1.0000000	24.4770783	2.0283404	0.0157168	76.2086246	4.2379111	1.6575095
0.6406250	0.0000000	24.4670709	1.9157488	0.0150343	76.2172729	4.4208474	5.0048483
0.6406250	0.1250000	47.2416884	2.3825609	-3.7137482	87.4106716	3.4816883	-4.3959883
0.6406250	0.2500000	58.2058061	0.0001298	-5.2231747	91.3025728	0.0001359	-21.6479300
0.6406250	0.3750000	47.2549907	-2.3846526	-3.7104060	87.4127162	-3.4817359	-4.6751110
0.6406250	0.5000000	24.4635607	-1.9162560	0.0277858	76.2198064	-4.4213249	6.6403455
0.6406250	0.6250000	9.5626187	-0.3619158	1.1509693	61.3385390	-2.7340858	20.0495942
0.6406250	0.7500000	5.1754185	-0.0001258	0.9083274	53.1205518	0.0000244	27.2782476
0.6406250	0.8750000	9.5640218	0.3633658	1.1559736	61.3429377	2.7340017	19.7736563
0.6406250	1.0000000	24.4670709	1.9157488	0.0150343	76.2172729	4.4208474	5.0048483
0.6484375	0.0000000	24.4565802	1.7971370	0.0065731	76.2197346	4.5925868	1.6417144
0.6484375	0.1250000	47.9678250	2.2686726	-3.4977987	87.7538680	3.6116005	-25.0114366
0.6484375	0.2500000	58.9672360	0.0009086	-4.8675167	91.6902969	-0.0002259	-9.7929111
0.6484375	0.3750000	47.9873429	-2.2710758	-3.5044342	87.7438776	-3.6112766	-28.9320130
0.6484375	0.5000000	24.4500912	-1.7990565	0.0248392	76.2278142	-4.5923498	3.6681192
0.6484375	0.6250000	9.0052215	-0.3145284	1.0326620	60.7016807	-2.8395598	19.1102340
0.6484375	0.7500000	4.6597233	-0.0002047	0.7658212	52.0590455	-0.0000247	17.1498256
0.6484375	0.8750000	9.0066937	0.3162306	1.0397539	60.6987582	2.8388988	15.0698067
0.6484375	1.0000000	24.4565802	1.7971370	0.0065731	76.2197346	4.5925868	1.6417144
0.6562500	0.0000000	24.4458865	1.6770277	0.0050947	76.2407540	4.7533360	5.4710898
0.6562500	0.1250000	48.6419643	2.1450347	-3.2693568	88.0539937	3.7327725	-4.2345237
0.6562500	0.2500000	59.6379349	0.0018498	-4.4807267	92.0698815	0.0001555	-17.0631032
0.6562500	0.3750000	48.6607706	-2.1469799	-3.2824855	88.0571871	-3.7330678	-3.8010049
0.6562500	0.5000000	24.4399936	-1.6799245	0.0230692	76.2319694	-4.7529033	6.3765394
0.6562500	0.6250000	8.4937103	-0.2730374	0.9238224	60.0975853	-2.9363051	27.1073612
0.6562500	0.7500000	4.2143096	-0.0002540	0.6403419	51.0826958	-0.0004524	7.0831149
0.6562500	0.8750000	8.4957991	0.2748790	0.9277146	60.0907242	2.9367059	26.6400332
0.6562500	1.0000000	24.4458865	1.6770277	0.0050947	76.2407540	4.7533360	5.4710898
0.6640625	0.0000000	24.4370773	1.5539020	0.0057820	76.2470458	4.9015213	1.5799173
0.6640625	0.1250000	49.2577439	2.0101853	-3.0321717	88.3233846	3.8448669	-23.6102751
0.6640625	0.2500000	60.2195722	0.0027325	-4.1026909	92.3855426	0.0002450	-8.3721268
0.6640625	0.3750000	49.2768201	-2.0123438	-3.0462185	88.3308807	-3.8455392	-26.6892989
0.6640625	0.5000000	24.4296425	-1.5560870	0.0193272	76.2384709	-4.9016907	3.8085875
0.6640625	0.6250000	8.0284172	-0.2371662	0.8149272	59.5335169	-3.0258647	24.3936543
0.6640625	0.7500000	3.8341442	-0.0002439	0.5342280	50.1807731	-0.0000799	-7.1358567
0.6640625	0.8750000	8.0295209	0.2389856	0.8170349	59.5360337	3.0264740	17.4502399
0.6640625	1.0000000	24.4370773	1.5539020	0.0057820	76.2470458	4.9015213	1.5799173
0.6718750	0.0000000	24.4313880	1.4275722	0.0038696	76.2585752	5.0388599	5.5116325
0.6718750	0.1250000	49.8142060	1.8664320	-2.7846674	88.5821627	3.9495831	-2.9953942
0.6718750	0.2500000	60.7242231	0.0036404	-3.6940835	92.7005217	0.0002199	-13.0539269
0.6718750	0.3750000	49.8356734	-1.8701628	-2.8032093	88.5862998	-3.9498569	-1.9103841
0.6718750	0.5000000	24.4218822	-1.4313910	0.0219179	76.2480813	-5.0387642	6.2408644
0.6718750	0.6250000	7.6073917	-0.2062542	0.7129587	59.0203530	-3.1080358	33.8537754
0.6718750	0.7500000	3.5137803	-0.0003747	0.4418424	49.3612717	-0.0001751	-14.4491750
0.6718750	0.8750000	7.6077486	0.2088531	0.7175114	59.0210672	3.1083170	33.6034632
0.6718750	1.0000000	24.4313880	1.4275722	0.0038696	76.2585752	5.0388599	5.5116325
0.6796875	0.0000000	24.4248108	1.2968890	-0.0023291	76.2510965	5.1633306	1.4046810
0.6796875	0.1250000	50.3096188	1.7136450	-2.5229379	88.8136840	4.0441456	-22.3203064
0.6796875	0.2500000	61.1577543	0.0045340	-3.3084817	92.9444844	0.0000962	-7.0006237
0.6796875	0.3750000	50.3303635	-1.7180340	-2.5477098	88.8133476	-4.0441254	-25.2295055
0.6796875	0.5000000	24.4149826	-1.3009384	0.0157320	76.2491851	-5.1632932	3.5750324
0.6796875	0.6250000	7.2320802	-0.1803688	0.6187171	58.5606143	-3.1821144	29.6191046
0.6796875	0.7500000	3.2459778	-0.0003440	0.3603499	48.6208348	-0.0000461	-30.6088115
0.6796875	0.8750000	7.2327420	0.1826104	0.6202854	58.5633175	3.1821126	19.5519834
0.6796875	1.0000000	24.4248108	1.2968890	-0.0023291	76.2510965	5.1633306	1.4046810
0.6875000	0.0000000	24.4202333	1.1657007	-0.0024132	76.2605439	5.2764888	5.8852463
0.6875000	0.1250000	50.7486638	1.5559555	-2.2483277	89.0205499	4.1298047	-1.7014732
0.6875000	0.2500000	61.5276600	0.0052661	-2.9094472	93.1974149	-0.0001703	-9.3335208
0.6875000	0.3750000	50.7694446	-1.5619064	-2.2749604	89.0150694	-4.1296914	-0.4867745
0.6875000	0.5000000	24.4090117	-1.1702604	0.0151989	76.2657202	-5.2763144	6.4460775
0.6875000	0.6250000	6.9020990	-0.1578867	0.5291308	58.1532125	-3.2495616	40.0714843
0.6875000	0.7500000	3.0259526	-0.0003894	0.2910102	47.9768314	0.0000867	-34.9596131
0.6875000	0.8750000	6.9008730	0.1606810	0.5310772	58.1514641	3.2490204	39.6565251
0.6875000	1.0000000	24.4202333	1.1657007	-0.0024132	76.2605439	5.2764888	5.8852463
0.6953125	0.0000000	24.4149797	1.0300939	-0.0127168	76.2632564	5.3750993	1.6139109
0.6953125	0.1250000	51.1295609	1.3891204	-1.9673508	89.1821823	4.2045376	-20.5464837
0.6953125	0.2500000	61.8323775	0.0060996	-2.5371846	93.3864422	0.0000809	-6.1755439
0.6953125	0.3750000	51.1477651	-1.3946323	-2.0043179	89.1803665	-4.2048471	-22.8487061
0.6953125	0.5000000	24.4034294	-1.0355935	0.0090150	76.2599270	-5.3752330	3.0856683
0.6953125	0.6250000	6.6159602	-0.1389886	0.4471027	57.7951498	-3.3078465	34.8938141
0.6953125	0.7500000	2.8474695	-0.0005370	0.2283408	47.4136444	-0.0001795	-38.5452895
0.6953125	0.8750000	6.6146132	0.1422730	0.4507187	57.7891167	3.3080727	21.6485899
0.6953125	1.0000000	24.4149797	1.0300939	-0.0127168	76.2632564	5.3750993	1.6139109
0.7031250	0.0000000	24.4114690	0.8954324	-0.0127610	76.2801850	5.4629850	6.0979651
0.7031250	0.1250000	51.4550622	1.2174915	-1.6818505	89.3415383	4.2712100	-0.9961325
0.7031250	0.2500000	62.0860594	0.0066680	-2.1434733	93.5891260	0.0000932	-6.0888331
0.7031250	0.3750000	51.4719395	-1.2249490	-1.7186430	89.3490242	-4.2712802	0.4586671
0.7031250	0.5000000	24.3991227	-0.9011018	0.0099714	76.2814904	-5.4632567	6.9617670
0.7031250	0.6250000	6.3743058	-0.1226875	0.3705115	57.4886255	-3.3601331	41.9019367
0.7031250	0.7500000	2.7051299	-0.0004737	0.1779717	46.9393883	-0.0001506	-25.8647155
0.7031250	0.8750000	6.3719967	0.1254872	0.3706916	57.4871034	3.3597743	40.5536068
0.7031250	1.0000000	24.4114690	0.8954324	-0.0127610	76.2801850	5.4629850	6.0979651
0.7109375	0.0000000	24.4045986	0.7554478	-0.0259943	76.2802937	5.5358031	1.4655186
0.7109375	0.1250000	51.7224312	1.0357761	-1.3971527	89.4538494	4.3257420	-18.5718447
0.7109375	0.2500000	62.2896695	0.0074214	-1.7775934	93.7083433	0.0000494	-5.7074611
0.7109375	0.3750000	51.7341225	-1.0410823	-1.4437433	89.4574505	-4.3261543	-20.6728883
0.7109375	0.5000000	24.3935180	-0.7629775	0.0025276	76.2672553	-5.5351764	2.4978223
0.7109375	0.6250000	6.1759978	-0.1074617	0.2963913	57.2251739	-3.4020853	33.3330373
0.7109375	0.7500000	2.5937266	-0.0007024	0.1331884	46.5500259	0.0000056	-23.5437957
0.7109375	0.8750000	6.1726708	0.1112649	0.3007821	57.2265846	3.4026213	19.9613381
0.7109375	1.0000000	24.4045986	0.7554478	-0.0259943	76.2802937	5.5358031	1.4655186
0.7187500	0.0000000	24.4005065	0.6207090	-0.0177262	76.2902739	5.5981468	6.3236979
0.7187500	0.1250000	51.9388128	0.8516616	-1.1061505	89.5881508	4.3731714	-0.0772399
0.7187500	0.2500000	62.4528696	0.0075828	-1.3924566	93.8650032	0.0001662	-3.3341380
0.7187500	0.3750000	51.9467961	-0.8596728	-1.1437240	89.5864661	-4.3733683	1.3711684
0.7187500	0.5000000	24.3908941	-0.6262770	0.0052442	76.2934592	-5.5982586	7.0968773
0.7187500	0.6250000	6.0175970	-0.0928008	0.2252830	57.0210671	-3.4385377	37.3296885
0.7187500	0.7500000	2.5101302	-0.0006747	0.1006137	46.2340596	-0.0003561	-14.8134377
0.7187500	0.8750000	6.0140422	0.0960313	0.2271535	57.0194736	3.4387071	36.5734930
0.7187500	1.0000000	24.4005065	0.6207090	-0.0177262	76.2902739	5.5981468	6.3236979
0.7265625	0.0000000	24.3940367	0.4801908	-0.0306966	76.2809374	5.6427972	1.2443348
0.7265625	0.1250000	52.0951798	0.6524901	-0.8263197	89.6249594	4.4062471	-17.2011931
0.7265625	0.2500000	62.5753459	0.0077531	-1.0385833	93.9100253	0.0001828	-5.4340329
0.7265625	0.3750000	52.1039703	-0.6625309	-0.8611945	89.6385738	-4.4068965	-18.8853793
0.7265625	0.5000000	24.3824640	-0.4835826	-0.0104850	76.2702399	-5.6426992	2.0309363
0.7265625	0.6250000	5.8997124	-0.0773814	0.1625584	56.8658684	-3.4649349	33.4518337
0.7265625	0.7500000	2.4485660	-0.0008308	0.0665011	45.9950838	-0.0002747	-12.5231647
0.7265625	0.8750000	5.8954865	0.0811325	0.1656136	56.8591190	3.4653327	18.4951543
0.7265625	1.0000000	24.3940367	0.4801908	-0.0306966	76.2809374	5.6427972	1.2443348
0.7343750	0.0000000	24.3900434	0.3453810	-0.0232700	76.3049470	5.6797642	6.7650566
0.7343750	0.1250000	52.2098391	0.4610830	-0.5176950	89.7291721	4.4342151	1.6340660
0.7343750	0.2500000	62.6617252	0.0082089	-0.6688581	94.0239729	-0.0000148	-0.9241607
0.7343750	0.3750000	52.2163901	-0.4708932	-0.5558001	89.7278381	-4.4340080	2.4844009
0.7343750	0.5000000	24.3810281	-0.3511096	0.0067106	76.3153984	-5.6802806	7.5768330
0.7343750	0.6250000	5.8185870	-0.0593136	0.1004756	56.7549332	-3.4869107	32.1825428
0.7343750	0.7500000	2.4072268	-0.0009342	0.0412651	45.8285732	0.0000008	-8.2118087
0.7343750	0.8750000	5.8145835	0.0631002	0.1035076	56.7580551	3.4865080	33.6259775
0.7343750	1.0000000	24.3900434	0.3453810	-0.0232700	76.3049470	5.6797642	6.7650566
0.7421875	0.0000000	24.3815015	0.2034113	-0.0430313	76.2690506	5.6959965	0.4318013
0.7421875	0.1250000	52.2711955	0.2483734	-0.2445095	89.7036962	4.4455095	-17.2165934
0.7421875	0.2500000	62.7096186	0.0085578	-0.3221416	94.0015591	-0.0000074	-5.6348228
0.7421875	0.3750000	52.2746133	-0.2588801	-0.2823777	89.7055554	-4.4459245	-18.2083168
0.7421875	0.5000000	24.3757136	-0.2071999	-0.0136813	76.2644898	-5.6956662	0.9076810
0.7421875	0.6250000	5.7716353	-0.0394802	0.0424167	56.6877506	-3.4957909	34.1841344
0.7421875	0.7500000	2.3831253	-0.0011805	0.0136832	45.7311164	-0.0002362	-6.3981341
0.7421875	0.8750000	5.7691937	0.0446047	0.0503402	56.6811157	3.4961973	18.0372675
0.7421875	1.0000000	24.3815015	0.2034113	-0.0430313	76.2690506	5.6959965	0.4318013
0.7500000	0.0000000	24.3785619	0.0724919	-0.0206863	76.3199113	5.7076597	7.9508448
0.7500000	0.1250000	52.2911238	0.0520240	0.0648032	89.7761464	4.4539148	4.1218982
0.7500000	0.2500000	62.7273693	0.0087929	0.0524077	94.0805161	-0.0001294	1.4746533
0.7500000	0.3750000	52.2907748	-0.0630347	0.0263194	89.7722309	-4.4536178	5.4179022
0.7500000	0.5000000	24.3792804	-0.0785387	0.0152862	76.3200568	-5.7076163	8.7245427
0.7500000	0.6250000	5.7584998	-0.0182968	-0.0156590	56.6744315	-3.5037615	29.9592512
0.7500000	0.7500000	2.3752111	-0.0011857	-0.0061735	45.7059958	0.0000393	-5.9107752
0.7500000	0.8750000	5.7580986	0.0221601	-0.0109146	56.6749788	3.5034627	31.9876398
0.7500000	1.0000000	24.3785619	0.0724919	-0.0206863	76.3199113	5.7076597	7.9508448
0.7578125	0.0000000	24.3688729	-0.0738170	-0.0499351	76.2597488	5.6938451	-0.9200780
0.7578125	0.1250000	52.2612527	-0.1628723	0.3369912	89.6761818	4.4437699	-18.1394390
0.7578125	0.2500000	62.7064941	0.0086007	0.3906009	93.9742054	0.0001826	-6.3476574
0.7578125	0.3750000	52.2574513	0.1536969	0.2955022	89.6763462	-4.4439963	-19.3139964
0.7578125	0.5000000	24.3752920	0.0691262	-0.0187626	76.2513552	-5.6936082	-0.9826322
0.7578125	0.6250000	5.7766148	0.0031331	-0.0753241	56.6952282	-3.4962452	33.8243416
0.7578125	0.7500000	2.3837533	-0.0011641	-0.0312848	45.7477775	-0.0002960	-5.8186123
0.7578125	0.8750000	5.7786432	0.0022883	-0.0660636	56.6904224	3.4969892	18.2648487
0.7578125	1.0000000	24.3688729	-0.0738170	-0.0499351	76.2597488	5.6938451	-0.9200780
0.7656250	0.0000000	24.3706160	-0.2013497	-0.0108769	76.3206199	5.6810745	9.1811355
0.7656250	0.1250000	52.1924953	-0.3522788	0.6573800	89.7295233	4.4326655	7.8779788
0.7656250	0.2500000	62.6508680	0.0082749	0.7688050	94.0060152	-0.0002881	3.6462418
0.7656250	0.3750000	52.1840151	0.3425873	0.6212309	89.7274257	-4.4322086	9.0557983
0.7656250	0.5000000	24.3819895	0.1955972	0.0146640	76.3199677	-5.6804622	10.3398753
0.7656250	0.6250000	5.8295175	0.0210849	-0.1306649	56.7972526	-3.4910014	30.1726766
0.7656250	0.7500000	2.4093686	-0.0009810	-0.0522085	45.8638219	0.0002501	-8.5613784
0.7656250	0.8750000	5.8330073	-0.0174780	-0.1295620	56.8022832	3.4904799	32.1046265
0.7656250	1.0000000	24.3706160	-0.2013497	-0.0108769	76.3206199	5.6810745	9.1811355
0.7734375	0.0000000	24.3624585	-0.3553415	-0.0536843	76.2298531	5.6364981	-2.4693312
0.7734375	0.1250000	52.0711997	-0.5635794	0.9078003	89.5419373	4.4001080	-20.6977513
0.7734375	0.2500000	62.5555625	0.0076157	1.1115938	93.8347639	0.0003237	-7.0598654
0.7734375	0.3750000	52.0619343	0.5531234	0.8781833	89.5484324	-4.4007380	-21.0806446
0.7734375	0.5000000	24.3731011	0.3534300	-0.0394283	76.2260643	-5.6369778	-3.2844287
0.7734375	0.6250000	5.9180668	0.0372748	-0.1934747	56.9075520	-3.4666960	33.5060488
0.7734375	0.7500000	2.4533263	-0.0007816	-0.0836133	46.0494575	-0.0001885	-9.0980661
0.7734375	0.8750000	5.9208380	-0.0336808	-0.1895915	56.9091430	3.4674466	17.6032054
0.7734375	1.0000000	24.3624585	-0.3553415	-0.0536843	76.2298531	5.6364981	-2.4693312
0.7812500	0.0000000	24.3688537	-0.4797762	-0.0062961	76.3162672	5.5990197	11.2738709
0.7812500	0.1250000	51.9025964	-0.7392708	1.2471321	89.5702353	4.3695572	12.1148941
0.7812500	0.2500000	62.4252622	0.0076551	1.5036601	93.8279575	-0.0004116	5.5067264
0.7812500	0.3750000	51.8905832	0.7321932	1.2049362	89.5720554	-4.3691305	13.2744585
0.7812500	0.5000000	24.3811832	0.4702442	0.0263054	76.3232154	-5.5990937	12.9014014
0.7812500	0.6250000	6.0467717	0.0515874	-0.2547736	57.1046244	-3.4472618	30.3671535
0.7812500	0.7500000	2.5173317	-0.0008392	-0.1140437	46.3166316	0.0005719	-15.4526967
0.7812500	0.8750000	6.0505366	-0.0472424	-0.2498359	57.1105198	3.4464909	34.0085952
0.7812500	1.0000000	24.3688537	-0.4797762	-0.0062961	76.3162672	5.5990197	11.2738709
0.7890625	0.0000000	24.3618398	-0.6416142	-0.0670149	76.2039839	5.5272355	-4.7745614
0.7890625	0.1250000	51.6797689	-0.9379880	1.4840406	89.3286680	4.3161128	-22.6219790
0.7890625	0.2500000	62.2497859	0.0069497	1.8403766	93.5729221	0.0003844	-8.2738199
0.7890625	0.3750000	51.6656911	0.9301103	1.4515490	89.3329752	-4.3163739	-22.0048960
0.7890625	0.5000000	24.3724268	0.6403956	-0.0550513	76.2076472	-5.5275921	-6.3475005
0.7890625	0.6250000	6.2133830	0.0644950	-0.3303319	57.2935616	-3.4046923	36.0517498
0.7890625	0.7500000	2.6064345	-0.0004923	-0.1497960	46.6623407	-0.0006857	-13.0430226
0.7890625	0.8750000	6.2143911	-0.0624906	-0.3308778	57.2873737	3.4048668	17.7239365
0.7890625	1.0000000	24.3618398	-0.6416142	-0.0670149	76.2039839	5.5272355	-4.7745614
0.7968750	0.0000000	24.3730734	-0.7566569	0.0054079	76.3231319	5.4652254	13.9287651
0.7968750	0.1250000	51.4046145	-1.0995645	1.8335733	89.3313450	4.2652713	16.1991921
0.7968750	0.2500000	62.0315425	0.0068723	2.2543030	93.5254930	-0.0007494	7.6385691
0.7968750	0.3750000	51.3860704	1.0938645	1.7921006	89.3136695	-4.2639281	16.0716207
0.7968750	0.5000000	24.3846368	0.7461264	0.0410408	76.3264492	-5.4648726	16.0428472
0.7968750	0.6250000	6.4237431	0.0795315	-0.4038783	57.5972009	-3.3711909	29.3549146
0.7968750	0.7500000	2.7228950	-0.0008976	-0.1902197	47.0754324	0.0012108	-27.8801599
0.7968750	0.8750000	6.4257722	-0.0750850	-0.3978172	57.6072217	3.3704268	36.1835492
0.7968750	1.0000000	24.3730734	-0.7566569	0.0054079	76.3231319	5.4652254	13.9287651
0.8046875	0.0000000	24.3662316	-0.9266643	-0.0760827	76.1917278	5.3652604	-7.5827856
0.8046875	0.1250000	51.0739291	-1.2889025	2.0303496	89.0113990	4.1915438	-25.3030186
0.8046875	0.2500000	61.7606437	0.0056947	2.5993547	93.2142519	0.0006481	-9.3062460
0.8046875	0.3750000	51.0518449	1.2808001	2.0084968	89.0272129	-4.1926294	-22.7715825
0.8046875	0.5000000	24.3792817	0.9241624	-0.0636494	76.1875028	-5.3657281	-10.0950264
0.8046875	0.6250000	6.6708612	0.0944547	-0.4943429	57.8952318	-3.3117900	38.9249234
0.8046875	0.7500000	2.8756533	-0.0003048	-0.2401780	47.5805899	-0.0010373	-16.6652194
0.8046875	0.8750000	6.6705228	-0.0926659	-0.4955021	57.8819180	3.3124976	16.7512776
0.8046875	1.0000000	24.3662316	-0.9266643	-0.0760827	76.1917278	5.3652604	-7.5827856
0.8125000	0.0000000	24.3842565	-1.0242727	0.0298696	76.3184437	5.2776471	16.9538289
0.8125000	0.1250000	50.6791321	-1.4384510	2.3833780	88.9719059	4.1203672	20.5124643
0.8125000	0.2500000	61.4382450	0.0054953	3.0438525	93.0954894	-0.0007561	9.3103606
0.8125000	0.3750000	50.6556921	1.4324142	2.3501247	88.9593411	-4.1196018	19.4811585
0.8125000	0.5000000	24.3966049	1.0179861	0.0559832	76.3198941	-5.2769660	19.7512498
0.8125000	0.6250000	6.9663004	0.1142056	-0.5687103	58.3008997	-3.2631577	25.3833861
0.8125000	0.7500000	3.0633112	-0.0008770	-0.3052171	48.1680510	0.0009076	-36.1611736
0.8125000	0.8750000	6.9684819	-0.1096832	-0.5597712	58.3139109	3.2632706	33.7547101
0.8125000	1.0000000	24.3842565	-1.0242727	0.0298696	76.3184437	5.2776471	16.9538289
0.8203125	0.0000000	24.3848637	-1.2014892	-0.0845072	76.1688851	5.1528042	-11.0783961
0.8203125	0.1250000	50.2259863	-1.6143030	2.5505142	88.6254127	4.0296793	-28.1018239
0.8203125	0.2500000	61.0572593	0.0043350	3.3773625	92.7355972	0.0002729	-10.2009258
0.8203125	0.3750000	50.2028014	1.6088486	2.5342997	88.6273899	-4.0293045	-23.7771272
0.8203125	0.5000000	24.3951426	1.2001780	-0.0757594	76.1909964	-5.1536501	-13.8219554
0.8203125	0.6250000	7.3008762	0.1335725	-0.6709179	58.6974983	-3.1884614	31.1661625
0.8203125	0.7500000	3.2988302	0.0000904	-0.3717414	48.8610278	-0.0003569	-9.3534317
0.8203125	0.8750000	7.2974746	-0.1338646	-0.6774851	58.6883395	3.1871954	12.2458697
0.8203125	1.0000000	24.3848637	-1.2014892	-0.0845072	76.1688851	5.1528042	-11.0783961
0.8281250	0.0000000	24.4049750	-1.2882645	0.0339371	76.3061463	5.0393138	20.6305515
0.8281250	0.1250000	49.7104300	-1.7469268	2.9232772	88.5119713	3.9361716	24.6491766
0.8281250	0.2500000	60.6038216	0.0040322	3.8381137	92.5277501	-0.0007918	10.4203433
0.8281250	0.3750000	49.6842853	1.7434176	2.8919137	88.4936893	-3.9355011	23.5798502
0.8281250	0.5000000	24.4163605	1.2812810	0.0626258	76.2947627	-5.0379670	22.7425448
0.8281250	0.6250000	7.6837694	0.1636332	-0.7560229	59.2093361	-3.1222940	20.7701638
0.8281250	0.7500000	3.5779685	-0.0012209	-0.4614162	49.6200754	0.0004898	-17.9695385
0.8281250	0.8750000	7.6864940	-0.1578008	-0.7396847	59.2117308	3.1229694	27.6255853
0.8281250	1.0000000	24.4049750	-1.2882645	0.0339371	76.3061463	5.0393138	20.6305515
0.8359375	0.0000000	24.4058609	-1.4669617	-0.1050259	76.1708136	4.8917093	-14.6952801
0.8359375	0.1250000	49.1464973	-1.9125295	3.0410433	88.1326364	3.8302176	-30.3819129
0.8359375	0.2500000	60.0804135	0.0025554	4.1588654	92.1594953	0.0005279	-10.0220057
0.8359375	0.3750000	49.1195521	1.9072697	3.0368379	88.1431930	-3.8302912	-24.9697617
0.8359375	0.5000000	24.4179999	1.4666022	-0.0996840	76.1884756	-4.8926544	-17.1484445
0.8359375	0.6250000	8.1064235	0.1897128	-0.8628355	59.7206394	-3.0341589	21.2125883
0.8359375	0.7500000	3.9192380	0.0005226	-0.5512824	50.4823846	-0.0010165	-0.6867126
0.8359375	0.8750000	8.1055902	-0.1905487	-0.8762515	59.6985196	3.0327753	7.0018042
0.8359375	1.0000000	24.4058609	-1.4669617	-0.1050259	76.1708136	4.8917093	-14.6952801
0.8437500	0.0000000	24.4309158	-1.5392915	0.0401685	76.2827410	4.7502880	24.0347408
0.8437500	0.1250000	48.5069191	-2.0287791	3.4086936	87.9149185	3.7159528	28.2187672
0.8437500	0.2500000	59.4675379	0.0023333	4.6412932	91.8468814	-0.0007559	10.5711762
0.8437500	0.3750000	48.4834228	2.0269054	3.3830199	87.8974448	-3.7154323	27.3768200
0.8437500	0.5000000	24.4367692	1.5360744	0.0629347	76.2765135	-4.7496445	25.7044778
0.8437500	0.6250000	8.5850025	0.2313358	-0.9557125	60.3004360	-2.9505853	15.7931648
0.8437500	0.7500000	4.3102097	-0.0009801	-0.6779979	51.4030274	0.0007772	-1.9184495
0.8437500	0.8750000	8.5842554	-0.2272859	-0.9425026	60.3165529	2.9513131	21.2667824
0.8437500	1.0000000	24.4309158	-1.5392915	0.0401685	76.2827410	4.7502880	24.0347408
0.8515625	0.0000000	24.4333214	-1.7191500	-0.1228860	76.1731062	4.5834014	-18.0086121
0.8515625	0.1250000	47.8283971	-2.1781835	3.4697131	87.5434815	3.5956126	-32.5932739
0.8515625	0.2500000	58.7814523	0.0009045	4.9423419	91.4500810	0.0002344	-8.9288413
0.8515625	0.3750000	47.8056938	2.1746369	3.4726316	87.5392003	-3.5947251	-25.3493105
0.8515625	0.5000000	24.4411850	1.7161998	-0.1057589	76.1928887	-4.5840547	-19.9571415
0.8515625	0.6250000	9.1020734	0.2675246	-1.0800873	60.9152165	-2.8489738	12.2485953
0.8515625	0.7500000	4.7763089	0.0003954	-0.7910963	52.4322087	0.0002692	6.4639678
0.8515625	0.8750000	9.0989640	-0.2678727	-1.0876902	60.9104028	2.8476770	2.5849299
0.8515625	1.0000000	24.4333214	-1.7191500	-0.1228860	76.1731062	4.5834014	-18.0086121
0.8593750	0.0000000	24.4593087	-1.7805375	0.0496630	76.2529250	4.4160123	26.8492802
0.8593750	0.1250000	47.0649550	-2.2741255	3.8265439	87.2167852	3.4613925	30.7805156
0.8593750	0.2500000	57.9925829	0.0007478	5.4214323	91.0169264	-0.0004579	9.6038422
0.8593750	0.3750000	47.0440425	2.2726364	3.8044628	87.2098958	-3.4617934	31.8756097
0.8593750	0.5000000	24.4645765	1.7802326	0.0679639	76.2420448	-4.4152604	27.7807449
0.8593750	0.6250000	9.6733573	0.3231665	-1.1881676	61.5822579	-2.7472232	10.7051730
0.8593750	0.7500000	5.3031624	-0.0009801	-0.9533655	53.4953173	-0.0003039	7.0489130
0.8593750	0.8750000	9.6736974	-0.3193982	-1.1670228	61.5831141	2.7485033	14.3874145
0.8593750	1.0000000	24.4593087	-1.7805375	0.0496630	76.2529250	4.4160123	26.8492802
0.8671875	0.0000000	24.4656184	-1.9563126	-0.1265044	76.1644637	4.2296053	-20.9259993
0.8671875	0.1250000	46.2756516	-2.4014824	3.8412647	86.8255623	3.3281195	-33.1391751
0.8671875	0.2500000	57.1242060	-0.0005511	5.6729684	90.5996953	0.0001762	-6.3012907
0.8671875	0.3750000	46.2583814	2.3981997	3.8521512	86.8214873	-3.3273213	-25.8106434
0.8671875	0.5000000	24.4691336	1.9558390	-0.1148356	76.1736962	-4.2294715	-22.2607153
0.8671875	0.6250000	10.2835049	0.3702769	-1.3197811	62.2731526	-2.6319206	4.9710938
0.8671875	0.7500000	5.9162130	0.0004640	-1.0996174	54.6516809	0.0003558	12.9849496
0.8671875	0.8750000	10.2822513	-0.3706042	-1.3267102	62.2684663	2.6311040	-0.1376880
0.8671875	1.0000000	24.4656184	-1.9563126	-0.1265044	76.1644637	4.2296053	-20.9259993
0.8750000	0.0000000	24.4931463	-2.0133688	0.0556831	76.2298691	4.0391976	29.6108033
0.8750000	0.1250000	45.3959216	-2.4723614	4.1812991	86.4137964	3.1768099	32.7112512
0.8750000	0.2500000	56.1396179	-0.0005572	6.1234610	90.0664865	-0.0002766	7.5261755
0.8750000	0.3750000	45.3843608	2.4735133	4.1607311	86.4135684	-3.1769855	36.5557985
0.8750000	0.5000000	24.4961076	2.0126848	0.0724181	76.2249432	-4.0388100	29.8541898
0.8750000	0.6250000	10.9527743	0.4404559	-1.4353902	63.0253883	-2.5148666	4.1519738
0.8750000	0.7500000	6.6031227	-0.0008135	-1.3036680	55.8497033	-0.0008095	8.0033650
0.8750000	0.8750000	10.9546688	-0.4370222	-1.4143777	63.0132353	2.5151951	7.3675876
0.8750000	1.0000000	24.4931463	-2.0133688	0.0556831	76.2298691	4.0391976	29.6108033
0.8828125	0.0000000	24.4985802	-2.1835780	-0.1258168	76.1477601	3.8335642	-23.6664885
0.8828125	0.1250000	44.5091672	-2.5746164	4.1402087	85.9808990	3.0295557	-33.0890632
0.8828125	0.2500000	55.0706021	-0.0014793	6.3156695	89.5743190	0.0001763	-3.2359602
0.8828125	0.3750000	44.4957101	2.5709319	4.1657505	85.9643435	-3.0292118	-24.1694923
0.8828125	0.5000000	24.5006332	2.1846292	-0.1268758	76.1342970	-3.8326244	-24.8016636
0.8828125	0.6250000	11.6523668	0.5009778	-1.5847096	63.7443633	-2.3830964	0.3752030
0.8828125	0.7500000	7.3825507	0.0006557	-1.4885116	57.0822052	0.0004899	17.7310939
0.8828125	0.8750000	11.6538653	-0.5009646	-1.5958799	63.7540836	2.3838578	-1.8446068
0.8828125	1.0000000	24.4985802	-2.1835780	-0.1258168	76.1477601	3.8335642	-23.6664885
0.8906250	0.0000000	24.5293828	-2.2332115	0.0707707	76.2311246	3.6237219	32.8065704
0.8906250	0.1250000	43.5287419	-2.6218999	4.4501439	85.5129762	2.8646522	34.2287504
0.8906250	0.2500000	53.8802528	-0.0010915	6.7229187	88.9743651	-0.0004024	6.7326570
0.8906250	0.3750000	43.5244390	2.6221816	4.4332750	85.5160426	-2.8641866	39.8095196
0.8906250	0.5000000	24.5282859	2.2341234	0.0795507	76.2425677	-3.6241216	33.2602846
0.8906250	0.6250000	12.4247175	0.5848741	-1.7016073	64.5951737	-2.2543681	-2.7394037
0.8906250	0.7500000	8.2501985	-0.0004249	-1.7268029	58.4067906	0.0001096	1.5293594
0.8906250	0.8750000	12.4284251	-0.5818338	-1.6860054	64.5998078	2.2541692	1.1828453
0.8906250	1.0000000	24.5293828	-2.2332115	0.0707707	76.2311246	3.6237219	32.8065704
0.8984375	0.0000000	24.5360455	-2.3997770	-0.1339799	76.0943403	3.3989900	-27.2617055
0.8984375	0.1250000	42.5432550	-2.6915235	4.3623378	85.0084555	2.7045822	-29.5680542
0.8984375	0.2500000	52.6148442	-0.0018016	6.8374768	88.3743969	0.0004867	-0.5621807
0.8984375	0.3750000	42.5368981	2.6890372	4.3779905	85.0041023	-2.7046252	-19.5676571
0.8984375	0.5000000	24.5329548	2.4007781	-0.1280040	76.0845725	-3.3988289	-29.0175626
0.8984375	0.6250000	13.2077971	0.6607875	-1.8839435	65.3129346	-2.1050434	-2.9053525
0.8984375	0.7500000	9.2107864	0.0007970	-1.9669843	59.6687575	0.0003592	7.5186312
0.8984375	0.8750000	13.2093444	-0.6599913	-1.8930536	65.3204985	2.1057858	-3.7628786
0.8984375	1.0000000	24.5360455	-2.3997770	-0.1339799	76.0943403	3.3989900	-27.2617055
0.9062500	0.0000000	24.5670823	-2.4440696	0.0705111	76.2563054	3.1737994	37.1771306
0.9062500	0.1250000	41.4769601	-2.7116857	4.6467005	84.5262050	2.5267284	35.4779445
0.9062500	0.2500000	51.2251856	-0.0012406	7.1607002	87.7128493	-0.0006593	6.9893422
0.9062500	0.3750000	41.4691029	2.7108896	4.6230446	84.5227121	-2.5259474	40.3983958
0.9062500	0.5000000	24.5678619	2.4427467	0.0940365	76.2671166	-3.1739796	38.4175130
0.9062500	0.6250000	14.0810493	0.7578425	-1.9848651	66.2619177	-1.9653017	-8.0337705
0.9062500	0.7500000	10.2752895	-0.0003655	-2.2318765	61.0954684	0.0007927	-1.5197483
0.9062500	0.8750000	14.0883349	-0.7537659	-1.9621713	66.2783569	1.9652491	-2.6364200
0.9062500	1.0000000	24.5670823	-2.4440696	0.0705111	76.2563054	3.1737994	37.1771306
0.9140625	0.0000000	24.5664165	-2.6059819	-0.1495701	76.0762345	2.9326543	-32.0265182
0.9140625	0.1250000	40.4159360	-2.7497247	4.4890084	83.9129605	2.3565803	-26.4299747
0.9140625	0.2500000	49.7539096	-0.0023436	7.1936160	87.0134801	0.0010755	2.8892315
0.9140625	0.3750000	40.4055245	2.7467225	4.5130980	83.9272739	-2.3574209	-15.4877437
0.9140625	0.5000000	24.5662733	2.6063409	-0.1457242	76.0613371	-2.9329968	-34.7138232
0.9140625	0.6250000	14.9486142	0.8461327	-2.2043330	66.9697643	-1.8020638	-5.7747429
0.9140625	0.7500000	11.4298241	0.0015962	-2.5320827	62.3541042	-0.0001474	-1.8986268
0.9140625	0.8750000	14.9488210	-0.8460970	-2.2190346	66.9663736	1.8027110	-6.5066937
0.9140625	1.0000000	24.5664165	-2.6059819	-0.1495701	76.0762345	2.9326543	-32.0265182
0.9218750	0.0000000	24.5993468	-2.6405638	0.0862047	76.2803291	2.6914948	42.2061952
0.9218750	0.1250000	39.2664045	-2.7416979	4.7248426	83.3985343	2.1666138	37.8764335
0.9218750	0.2500000	48.1818258	-0.0014157	7.4589267	86.2594465	-0.0011090	7.1858918
0.9218750	0.3750000	39.2580181	2.7396275	4.7163340	83.3851382	-2.1659245	41.5857327
0.9218750	0.5000000	24.6006514	2.6396992	0.1028876	76.2734488	-2.6907534	44.4306593
0.9218750	0.6250000	15.9146880	0.9587223	-2.2846071	67.9735107	-1.6488942	-12.3793733
0.9218750	0.7500000	12.6938114	-0.0000037	-2.8154952	63.8380813	0.0011763	1.1889541
0.9218750	0.8750000	15.9251325	-0.9545509	-2.2612899	68.0007525	1.6498341	-4.5419368
0.9218750	1.0000000	24.5993468	-2.6405638	0.0862047	76.2803291	2.6914948	42.2061952
0.9296875	0.0000000	24.5959827	-2.7942447	-0.1614147	76.0639142	2.4395410	-37.8859585
0.9296875	0.1250000	38.1316343	-2.7477372	4.5191079	82.7526540	1.9916823	-23.9809376
0.9296875	0.2500000	46.5377818	-0.0026596	7.3756144	85.4966716	0.0009984	6.8266716
0.9296875	0.3750000	38.1262092	2.7451821	4.5521362	82.7492516	-1.9911701	-12.5655654
0.9296875	0.5000000	24.5952285	2.7943291	-0.1651185	76.0795647	-2.4397197	-40.7726487
0.9296875	0.6250000	16.8657172	1.0553032	-2.5300888	68.7227977	-1.4762913	-6.6696458
0.9296875	0.7500000	14.0477005	0.0025496	-3.1753263	65.1181511	-0.0004153	-8.5833913
0.9296875	0.8750000	16.8656766	-1.0556352	-2.5618463	68.6970827	1.4755184	-7.5606686
0.9296875	1.0000000	24.5959827	-2.7942447	-0.1614147	76.0639142	2.4395410	-37.8859585
0.9375000	0.0000000	24.6206669	-2.8253895	0.0895476	76.2317736	2.1810496	47.5766600
0.9375000	0.1250000	36.9198925	-2.7078733	4.7480743	82.1249077	1.7888846	38.8217322
0.9375000	0.2500000	44.7904134	-0.0011493	7.5465332	84.5942329	-0.0009762	12.7437982
0.9375000	0.3750000	36.9135741	2.7060298	4.7275431	82.1097384	-1.7886850	41.0291352
0.9375000	0.5000000	24.6196835	2.8240678	0.1065063	76.2270194	-2.1808599	49.5267149
0.9375000	0.6250000	17.9184084	1.1829679	-2.5983264	69.6948659	-1.3070984	-17.3031974
0.9375000	0.7500000	15.4978984	0.0003341	-3.4745064	66.5872788	0.0008115	9.0433748
0.9375000	0.8750000	17.9262071	-1.1789028	-2.5757475	69.7132076	1.3079119	-7.0126027
0.9375000	1.0000000	24.6206669	-2.8253895	0.0895476	76.2317736	2.1810496	47.5766600
0.9453125	0.0000000	24.6118816	-2.9614121	-0.1652266	76.0761531	1.9228096	-42.7882801
0.9453125	0.1250000	35.7405342	-2.6868305	4.4731409	81.4895022	1.6103596	-20.7452930
0.9453125	0.2500000	42.9998656	-0.0025864	7.3856420	83.8144499	0.0009693	9.8856093
0.9453125	0.3750000	35.7311036	2.6841836	4.5029696	81.4867019	-1.6095289	-9.1357688
0.9453125	0.5000000	24.6113725	2.9604159	-0.1653704	76.0925009	-1.9226217	-45.2474567
0.9453125	0.6250000	18.9501676	1.2846999	-2.8730226	70.5048446	-1.1280514	-4.7333649
0.9453125	0.7500000	17.0428719	0.0028358	-3.8632306	67.9026420	0.0001456	-12.6869649
0.9453125	0.8750000	18.9488265	-1.2841425	-2.9090491	70.4885345	1.1275404	-6.7248324
0.9453125	1.0000000	24.6118816	-2.9614121	-0.1652266	76.0761531	1.9228096	-42.7882801
0.9531250	0.0000000	24.6299629	-2.9890658	0.1110063	76.1438567	1.6500922	51.2672186
0.9531250	0.1250000	34.4701930	-2.6171635	4.6689970	80.7051756	1.4006093	37.4691457
0.9531250	0.2500000	41.1219966	-0.0009212	7.4678609	82.7625446	-0.0003716	17.0921290
0.9531250	0.3750000	34.4622508	2.6152521	4.6521438	80.7123607	-1.4009528	37.8338155
0.9531250	0.5000000	24.6288398	2.9886386	0.1209610	76.1347785	-1.6506515	52.7335827
0.9531250	0.6250000	20.0741212	1.4233172	-2.9317941	71.4167699	-0.9451620	-12.2954652
0.9531250	0.7500000	18.6670083	0.0005974	-4.1815392	69.2865752	-0.0000374	19.0477963
0.9531250	0.8750000	20.0770318	-1.4200763	-2.9099963	71.4276670	0.9457973	-1.5386787
0.9531250	1.0000000	24.6299629	-2.9890658	0.1110063	76.1438567	1.6500922	51.2672186
0.9609375	0.0000000	24.6228873	-3.0975595	-0.1446936	76.0630746	1.3847311	-45.4185369
0.9609375	0.1250000	33.2596967	-2.5726448	4.3567843	80.0789838	1.2157849	-15.5475480
0.9609375	0.2500000	39.2233777	-0.0023414	7.2203386	81.9173531	0.0008038	11.6747084
0.9609375	0.3750000	33.2509367	2.5693819	4.3994699	80.0754903	-1.2155283	-4.9073047
0.9609375	0.5000000	24.6209801	3.0973560	-0.1511041	76.0542178	-1.3842819	-47.4656733
0.9609375	0.6250000	21.1760863	1.5270789	-3.2162234	72.2420548	-0.7590900	-5.6149595
0.9609375	0.7500000	20.3739991	0.0027502	-4.5845507	70.5975510	0.0007548	-11.4628018
0.9609375	0.8750000	21.1719862	-1.5260556	-3.2525860	72.2349946	0.7597098	-9.3477680
0.9609375	1.0000000	24.6228873	-3.0975595	-0.1446936	76.0630746	1.3847311	-45.4185369
0.9687500	0.0000000	24.6355287	-3.1234591	0.1217978	76.1137912	1.1055650	53.9109159
0.9687500	0.1250000	31.9605048	-2.4792902	4.5288372	79.2541856	1.0039435	34.6086730
0.9687500	0.2500000	37.2558334	-0.0004340	7.1993519	80.7739346	-0.0001654	20.7655739
0.9687500	0.3750000	31.9599621	2.4778221	4.5013755	79.2685192	-1.0035477	32.4899580
0.9687500	0.5000000	24.6333166	3.1228082	0.1343904	76.1253220	-1.1059016	55.7069623
0.9687500	0.6250000	22.3744591	1.6690339	-3.2504630	73.1697708	-0.5678647	-3.9361880
0.9687500	0.7500000	22.1463133	0.0003207	-4.9012165	71.9571248	-0.0004862	17.2087540
0.9687500	0.8750000	22.3752405	-1.6657189	-3.2219055	73.1618941	0.5679494	4.9247895
0.9687500	1.0000000	24.6355287	-3.1234591	0.1217978	76.1137912	1.1055650	53.9109159
0.9765625	0.0000000	24.6299786	-3.1955768	-0.1345460	76.0824677	0.8334231	-47.0178068
0.9765625	0.1250000	30.7430886	-2.4172508	4.1732720	78.5945589	0.8141668	-10.3867093
0.9765625	0.2500000	35.2935285	-0.0019973	6.9047353	79.8334331	0.0003501	11.4485952
0.9765625	0.3750000	30.7344474	2.4149579	4.2045131	78.5829165	-0.8146596	-1.8989836
0.9765625	0.5000000	24.6295636	3.1951438	-0.1391955	76.0754249	-0.8331547	-49.4310195
0.9765625	0.6250000	23.5293498	1.7713747	-3.5559914	73.9758860	-0.3772815	-8.7199273
0.9765625	0.7500000	23.9860431	0.0022032	-5.2955316	73.1920411	0.0002318	-8.7909803
0.9765625	0.8750000	23.5292536	-1.7693468	-3.5861748	73.9660368	0.3773197	-12.5909719
0.9765625	1.0000000	24.6299786	-3.1955768	-0.1345460	76.0824677	0.8334231	-47.0178068
0.9843750	0.0000000	24.6413310	-3.2161001	0.1133887	76.2299032	0.5505597	56.3925262
0.9843750	0.1250000	29.4430145	-2.3087222	4.2879040	77.7963807	0.6013941	32.1143980
0.9843750	0.2500000	33.2940730	-0.0003579	6.7856986	78.6626127	-0.0009443	22.7821248
0.9843750	0.3750000	29.4322818	2.3063066	4.2639982	77.7815428	-0.6010354	27.3143136
0.9843750	0.5000000	24.6437273	3.2155764	0.1239883	76.2226948	-0.5502642	58.4455845
0.9843750	0.6250000	24.7739631	1.9102004	-3.5611849	74.9597976	-0.1805232	3.3777785
0.9843750	0.7500000	25.8968641	0.0001346	-5.5696257	74.5569360	0.0001803	9.2196606
0.9843750	0.8750000	24.7837868	-1.9069690	-3.5356566	74.9757232	0.1811220	11.1854920
0.9843750	1.0000000	24.6413310	-3.2161001	0.1133887	76.2299032	0.5505597	56.3925262
0.9921875	0.0000000	24.6361551	-3.2474317	-0.1552763	76.1340872	0.2804068	-50.7852558
0.9921875	0.1250000	28.2118279	-2.2319462	3.9122966	77.0349500	0.4139284	-7.8047757
0.9921875	0.2500000	31.3164648	-0.0023380	6.4299832	77.6055924	0.0007933	9.4645694
0.9921875	0.3750000	28.2018389	2.2295814	3.9569910	77.0278051	-0.4134555	-1.6351049
0.9921875	0.5000000	24.6368277	3.2470015	-0.1647483	76.1336768	-0.2798023	-52.8408388
0.9921875	0.6250000	25.9682301	2.0067411	-3.8802538	75.6886939	0.0117962	-13.1709395
0.9921875	0.7500000	27.8318875	0.0024404	-5.9625089	75.6885940	0.0004341	-10.1825729
0.9921875	0.8750000	25.9662815	-2.0041860	-3.9274309	75.6783779	-0.0114987	-18.6132068
0.9921875	1.0000000	24.6361551	-3.2474317	-0.1552763	76.1340872	0.2804068	-50.7852558
1.0000000	0.0000000	24.6370044	-3.2552217	0.1040895	76.1045700	-0.0090193	57.3175583
1.0000000	0.1250000	26.9115750	-2.1080351	4.0182211	76.1239896	0.2050437	29.5252236
1.0000000	0.2500000	29.3242538	0.0000108	6.2264402	76.3407768	-0.0005928	22.0626687
1.0000000	0.3750000	26.9058625	2.1050809	3.9871019	76.1174706	-0.2045428	21.4735863
1.0000000	0.5000000	24.6398693	3.2548513	0.1203670	76.1136765	0.0089024	59.3508387
1.0000000	0.6250000	27.2377101	2.1408846	-3.8645911	76.5830652	0.2211282	7.9725511
1.0000000	0.7500000	29.8213738	0.0000947	-6.1954152	76.9798864	-0.0002356	2.2031864
1.0000000	0.8750000	27.2432234	-2.1376875	-3.8375613	76.5855293	-0.2210983	15.1638754
1.0000000	1.0000000	24.6370044	-3.2552217	0.1040895	76.1045700	-0.0090193	57.3175583
