0.0000000	0.0000000	15.8612057	-0.0500453	-0.0002925	0.0000000	0.0000000	15.7882245	-0.0000120	-629.0124622
0.0000000	0.2500000	15.8620712	0.0000082	0.0387637	0.0000000	0.0000000	15.7836268	0.0000002	-892.1172120
0.0000000	0.5000000	15.8611996	0.0500393	-0.0003019	0.0000000	0.0000000	15.7882723	0.0000118	-626.7564413
0.0000000	0.7500000	15.8624163	0.0000025	-0.0384222	0.0000000	0.0000000	15.7871716	-0.0000001	-476.4235423
0.0000000	1.0000000	15.8612057	-0.0500453	-0.0002925	0.0000000	0.0000000	15.7882245	-0.0000120	-629.0124622
0.0078125	0.0000000	15.8612012	-0.0499827	-0.0003111	0.0000000	0.0000000	15.7881027	-0.0000311	-627.5130854
0.0078125	0.2500000	15.8588101	0.0000078	0.0389547	0.0000000	0.0000000	16.4047526	-0.0000001	-894.3596323
0.0078125	0.5000000	15.8611947	0.0499756	-0.0003202	0.0000000	0.0000000	15.7880994	0.0000310	-623.8930352
0.0078125	0.7500000	15.8656668	0.0000041	-0.0379890	0.0000000	0.0000000	15.1651890	0.0000001	-469.5892724
0.0078125	1.0000000	15.8612012	-0.0499827	-0.0003111	0.0000000	0.0000000	15.7881027	-0.0000311	-627.5130854
0.0156250	0.0000000	15.8611892	-0.0497856	-0.0003374	0.0000000	0.0000000	15.7877597	-0.0000501	-626.0520445
0.0156250	0.2500000	15.8555502	0.0000071	0.0390539	0.0000000	0.0000000	17.0238323	-0.0000005	-894.7894663
0.0156250	0.5000000	15.8611868	0.0497778	-0.0003422	0.0000000	0.0000000	15.7876987	0.0000500	-624.7014136
0.0156250	0.7500000	15.8689054	0.0000057	-0.0374530	0.0000000	0.0000000	14.5440925	0.0000003	-462.4940409
0.0156250	1.0000000	15.8611892	-0.0497856	-0.0003374	0.0000000	0.0000000	15.7877597	-0.0000501	-626.0520445
0.0234375	0.0000000	15.8611747	-0.0494550	-0.0003534	0.0000000	0.0000000	15.7872180	-0.0000691	-624.1044681
0.0234375	0.2500000	15.8523067	0.0000062	0.0390153	0.0000000	0.0000000	17.6394161	-0.0000004	-895.2633545
0.0234375	0.5000000	15.8611740	0.0494466	-0.0003569	0.0000000	0.0000000	15.7871634	0.0000691	-625.0323855
0.0234375	0.7500000	15.8721194	0.0000069	-0.0368078	0.0000000	0.0000000	13.9255003	0.0000003	-457.9057013
0.0234375	1.0000000	15.8611747	-0.0494550	-0.0003534	0.0000000	0.0000000	15.7872180	-0.0000691	-624.1044681
0.0312500	0.0000000	15.8611604	-0.0489922	-0.0003597	0.0000000	0.0000000	15.7864727	-0.0000882	-622.0879913
0.0312500	0.2500000	15.8490802	0.0000049	0.0388407	0.0000000	0.0000000	18.2499761	-0.0000001	-893.8467039
0.0312500	0.5000000	15.8611632	0.0489835	-0.0003667	0.0000000	0.0000000	15.7864718	0.0000884	-624.3740508
0.0312500	0.7500000	15.8752934	0.0000078	-0.0360600	0.0000000	0.0000000	13.3109370	0.0000001	-453.9382126
0.0312500	1.0000000	15.8611604	-0.0489922	-0.0003597	0.0000000	0.0000000	15.7864727	-0.0000882	-622.0879913
0.0390625	0.0000000	15.8611465	-0.0483992	-0.0003791	0.0000000	0.0000000	15.7855084	-0.0001074	-619.7234270
0.0390625	0.2500000	15.8458821	0.0000037	0.0385748	0.0000000	0.0000000	18.8539914	0.0000001	-893.1582411
0.0390625	0.5000000	15.8611507	0.0483907	-0.0003891	0.0000000	0.0000000	15.7855250	0.0001075	-619.7720924
0.0390625	0.7500000	15.8784227	0.0000079	-0.0352095	0.0000000	0.0000000	12.7018203	0.0000000	-450.5053954
0.0390625	1.0000000	15.8611465	-0.0483992	-0.0003791	0.0000000	0.0000000	15.7855084	-0.0001074	-619.7234270
0.0468750	0.0000000	15.8611279	-0.0476790	-0.0003951	0.0000000	0.0000000	15.7843405	-0.0001264	-619.4758444
0.0468750	0.2500000	15.8427305	0.0000023	0.0381708	0.0000000	0.0000000	19.4500554	-0.0000003	-891.9220200
0.0468750	0.5000000	15.8611326	0.0476710	-0.0004017	0.0000000	0.0000000	15.7843097	0.0001262	-617.6549147
0.0468750	0.7500000	15.8815060	0.0000079	-0.0342630	0.0000000	0.0000000	12.0995913	0.0000001	-445.1863109
0.0468750	1.0000000	15.8611279	-0.0476790	-0.0003951	0.0000000	0.0000000	15.7843405	-0.0001264	-619.4758444
0.0546875	0.0000000	15.8611050	-0.0468348	-0.0004056	0.0000000	0.0000000	15.7830201	-0.0001451	-618.4772113
0.0546875	0.2500000	15.8396210	0.0000011	0.0376382	0.0000000	0.0000000	20.0368407	-0.0000008	-890.0892180
0.0546875	0.5000000	15.8611161	0.0468273	-0.0004084	0.0000000	0.0000000	15.7829276	0.0001447	-618.0914107
0.0546875	0.7500000	15.8845291	0.0000074	-0.0332306	0.0000000	0.0000000	11.5057628	0.0000002	-440.0963969
0.0546875	1.0000000	15.8611050	-0.0468348	-0.0004056	0.0000000	0.0000000	15.7830201	-0.0001451	-618.4772113
0.0625000	0.0000000	15.8610802	-0.0458704	-0.0004167	0.0000000	0.0000000	15.7815451	-0.0001634	-616.7799651
0.0625000	0.2500000	15.8365725	0.0000001	0.0370135	0.0000000	0.0000000	20.6129386	-0.0000008	-888.3501815
0.0625000	0.5000000	15.8610933	0.0458638	-0.0004267	0.0000000	0.0000000	15.7814646	0.0001632	-619.7194622
0.0625000	0.7500000	15.8874838	0.0000063	-0.0321266	0.0000000	0.0000000	10.9218184	0.0000002	-434.0546357
0.0625000	1.0000000	15.8610802	-0.0458704	-0.0004167	0.0000000	0.0000000	15.7815451	-0.0001634	-616.7799651
0.0703125	0.0000000	15.8610538	-0.0447900	-0.0004179	0.0000000	0.0000000	15.7798902	-0.0001813	-615.1423837
0.0703125	0.2500000	15.8335900	-0.0000007	0.0362699	0.0000000	0.0000000	21.1769107	-0.0000002	-884.0395985
0.0703125	0.5000000	15.8610678	0.0447847	-0.0004470	0.0000000	0.0000000	15.7798809	0.0001816	-620.7789346
0.0703125	0.7500000	15.8903584	0.0000047	-0.0309496	0.0000000	0.0000000	10.3491790	0.0000001	-427.6452218
0.0703125	1.0000000	15.8610538	-0.0447900	-0.0004179	0.0000000	0.0000000	15.7798902	-0.0001813	-615.1423837
0.0781250	0.0000000	15.8610246	-0.0435988	-0.0004371	0.0000000	0.0000000	15.7780675	-0.0001989	-614.4970577
0.0781250	0.2500000	15.8306774	-0.0000014	0.0354216	0.0000000	0.0000000	21.7273761	0.0000004	-880.3285435
0.0781250	0.5000000	15.8610404	0.0435951	-0.0004613	0.0000000	0.0000000	15.7781151	0.0001995	-618.6244208
0.0781250	0.7500000	15.8931440	0.0000031	-0.0296946	0.0000000	0.0000000	9.7892307	-0.0000000	-423.7185295
0.0781250	1.0000000	15.8610246	-0.0435988	-0.0004371	0.0000000	0.0000000	15.7780675	-0.0001989	-614.4970577
0.0859375	0.0000000	15.8609920	-0.0423020	-0.0004395	0.0000000	0.0000000	15.7761461	-0.0002166	-616.1334328
0.0859375	0.2500000	15.8278537	-0.0000015	0.0344531	0.0000000	0.0000000	22.2631352	0.0000004	-875.3416211
0.0859375	0.5000000	15.8610072	0.0422999	-0.0004636	0.0000000	0.0000000	15.7761793	0.0002169	-617.9692572
0.0859375	0.7500000	15.8958385	0.0000009	-0.0283954	0.0000000	0.0000000	9.2433762	-0.0000001	-421.5030989
0.0859375	1.0000000	15.8609920	-0.0423020	-0.0004395	0.0000000	0.0000000	15.7761461	-0.0002166	-616.1334328
0.0937500	0.0000000	15.8609589	-0.0409048	-0.0004501	0.0000000	0.0000000	15.7741706	-0.0002341	-616.8904351
0.0937500	0.2500000	15.8251111	-0.0000014	0.0333929	0.0000000	0.0000000	22.7829813	0.0000001	-871.7909439
0.0937500	0.5000000	15.8609760	0.0409041	-0.0004796	0.0000000	0.0000000	15.7741548	0.0002341	-616.0399529
0.0937500	0.7500000	15.8984361	-0.0000007	-0.0270236	0.0000000	0.0000000	8.7129940	-0.0000000	-421.0596155
0.0937500	1.0000000	15.8609589	-0.0409048	-0.0004501	0.0000000	0.0000000	15.7741706	-0.0002341	-616.8904351
0.1015625	0.0000000	15.8609227	-0.0394126	-0.0004571	0.0000000	0.0000000	15.7721142	-0.0002509	-616.8245398
0.1015625	0.2500000	15.8224703	-0.0000005	0.0322389	0.0000000	0.0000000	23.2857056	0.0000000	-866.5603711
0.1015625	0.5000000	15.8609399	0.0394132	-0.0004929	0.0000000	0.0000000	15.7720842	0.0002510	-616.0025120
0.1015625	0.7500000	15.9009362	-0.0000027	-0.0256099	0.0000000	0.0000000	8.1994107	0.0000000	-420.2491035
0.1015625	1.0000000	15.8609227	-0.0394126	-0.0004571	0.0000000	0.0000000	15.7721142	-0.0002509	-616.8245398
0.1093750	0.0000000	15.8608896	-0.0378301	-0.0004492	0.0000000	0.0000000	15.7699769	-0.0002671	-616.3768891
0.1093750	0.2500000	15.8199350	-0.0000000	0.0309955	0.0000000	0.0000000	23.7700552	0.0000004	-862.9851084
0.1093750	0.5000000	15.8609092	0.0378322	-0.0004989	0.0000000	0.0000000	15.7699854	0.0002675	-614.0355341
0.1093750	0.7500000	15.9033213	-0.0000043	-0.0241831	0.0000000	0.0000000	7.7038928	-0.0000000	-418.9755722
0.1093750	1.0000000	15.8608896	-0.0378301	-0.0004492	0.0000000	0.0000000	15.7699769	-0.0002671	-616.3768891
0.1171875	0.0000000	15.8608560	-0.0361634	-0.0004496	0.0000000	0.0000000	15.7678186	-0.0002830	-616.7328042
0.1171875	0.2500000	15.8175166	0.0000010	0.0296751	0.0000000	0.0000000	24.2349411	0.0000005	-858.3305076
0.1171875	0.5000000	15.8608764	0.0361671	-0.0004998	0.0000000	0.0000000	15.7678442	0.0002833	-614.1684796
0.1171875	0.7500000	15.9056002	-0.0000061	-0.0227249	0.0000000	0.0000000	7.2276610	-0.0000001	-417.2283340
0.1171875	1.0000000	15.8608560	-0.0361634	-0.0004496	0.0000000	0.0000000	15.7678186	-0.0002830	-616.7328042
0.1250000	0.0000000	15.8608289	-0.0344176	-0.0004405	0.0000000	0.0000000	15.7656949	-0.0002987	-618.0997063
0.1250000	0.2500000	15.8152214	0.0000016	0.0282606	0.0000000	0.0000000	24.6792973	-0.0000003	-853.4394325
0.1250000	0.5000000	15.8608468	0.0344229	-0.0004989	0.0000000	0.0000000	15.7656642	0.0002983	-614.1535781
0.1250000	0.7500000	15.9077594	-0.0000074	-0.0212441	0.0000000	0.0000000	6.7718870	-0.0000001	-416.4328768
0.1250000	1.0000000	15.8608289	-0.0344176	-0.0004405	0.0000000	0.0000000	15.7656949	-0.0002987	-618.0997063
0.1328125	0.0000000	15.8608046	-0.0325980	-0.0004339	0.0000000	0.0000000	15.7635755	-0.0003138	-616.4664292
0.1328125	0.2500000	15.8130518	0.0000024	0.0267863	0.0000000	0.0000000	25.1020729	-0.0000012	-847.6952519
0.1328125	0.5000000	15.8608238	0.0326051	-0.0005009	0.0000000	0.0000000	15.7634713	0.0003128	-616.2109318
0.1328125	0.7500000	15.9097980	-0.0000086	-0.0197579	0.0000000	0.0000000	6.3377007	0.0000001	-416.7414642
0.1328125	1.0000000	15.8608046	-0.0325980	-0.0004339	0.0000000	0.0000000	15.7635755	-0.0003138	-616.4664292
0.1406250	0.0000000	15.8607855	-0.0307107	-0.0004260	0.0000000	0.0000000	15.7614231	-0.0003281	-615.3621346
0.1406250	0.2500000	15.8110167	0.0000032	0.0252350	0.0000000	0.0000000	25.5022517	-0.0000013	-841.5019762
0.1406250	0.5000000	15.8608012	0.0307195	-0.0004873	0.0000000	0.0000000	15.7613184	0.0003273	-619.1859984
0.1406250	0.7500000	15.9117148	-0.0000094	-0.0182859	0.0000000	0.0000000	5.9262028	0.0000001	-417.5875788
0.1406250	1.0000000	15.8607855	-0.0307107	-0.0004260	0.0000000	0.0000000	15.7614231	-0.0003281	-615.3621346
0.1484375	0.0000000	15.8607705	-0.0287607	-0.0004187	0.0000000	0.0000000	15.7592699	-0.0003414	-612.8250378
0.1484375	0.2500000	15.8091203	0.0000042	0.0236208	0.0000000	0.0000000	25.8789080	-0.0000000	-834.7112921
0.1484375	0.5000000	15.8607845	0.0287710	-0.0004807	0.0000000	0.0000000	15.7592514	0.0003419	-620.0456346
0.1484375	0.7500000	15.9135010	-0.0000097	-0.0168168	0.0000000	0.0000000	5.5384465	0.0000002	-419.4000863
0.1484375	1.0000000	15.8607705	-0.0287607	-0.0004187	0.0000000	0.0000000	15.7592699	-0.0003414	-612.8250378
0.1562500	0.0000000	15.8607615	-0.0267537	-0.0004154	0.0000000	0.0000000	15.7571901	-0.0003538	-612.6319659
0.1562500	0.2500000	15.8073621	0.0000047	0.0219523	0.0000000	0.0000000	26.2312460	0.0000015	-828.8827921
0.1562500	0.5000000	15.8607734	0.0267654	-0.0004765	0.0000000	0.0000000	15.7572606	0.0003556	-617.1504638
0.1562500	0.7500000	15.9151538	-0.0000093	-0.0153673	0.0000000	0.0000000	5.1753888	0.0000001	-420.8548268
0.1562500	1.0000000	15.8607615	-0.0267537	-0.0004154	0.0000000	0.0000000	15.7571901	-0.0003538	-612.6319659
0.1640625	0.0000000	15.8607514	-0.0246948	-0.0004137	0.0000000	0.0000000	15.7552200	-0.0003653	-613.4004546
0.1640625	0.2500000	15.8057492	0.0000052	0.0202225	0.0000000	0.0000000	26.5584586	0.0000020	-822.3347270
0.1640625	0.5000000	15.8607639	0.0247082	-0.0004703	0.0000000	0.0000000	15.7553006	0.0003669	-612.7053568
0.1640625	0.7500000	15.9166753	-0.0000088	-0.0139399	0.0000000	0.0000000	4.8379075	-0.0000001	-424.1249151
0.1640625	1.0000000	15.8607514	-0.0246948	-0.0004137	0.0000000	0.0000000	15.7552200	-0.0003653	-613.4004546
0.1718750	0.0000000	15.8607425	-0.0225899	-0.0004027	0.0000000	0.0000000	15.7533556	-0.0003763	-615.7475435
0.1718750	0.2500000	15.8042821	0.0000057	0.0184241	0.0000000	0.0000000	26.8597939	0.0000009	-816.4006204
0.1718750	0.5000000	15.8607534	0.0226043	-0.0004572	0.0000000	0.0000000	15.7533721	0.0003765	-609.8654053
0.1718750	0.7500000	15.9180617	-0.0000076	-0.0125507	0.0000000	0.0000000	4.5268455	-0.0000001	-432.5680259
0.1718750	1.0000000	15.8607425	-0.0225899	-0.0004027	0.0000000	0.0000000	15.7533556	-0.0003763	-615.7475435
0.1796875	0.0000000	15.8607392	-0.0204432	-0.0003934	0.0000000	0.0000000	15.7516220	-0.0003875	-617.3133985
0.1796875	0.2500000	15.8029510	0.0000055	0.0165849	0.0000000	0.0000000	27.1345468	-0.0000005	-809.1629733
0.1796875	0.5000000	15.8607497	0.0204594	-0.0004513	0.0000000	0.0000000	15.7515770	0.0003865	-611.9371099
0.1796875	0.7500000	15.9193011	-0.0000066	-0.0111899	0.0000000	0.0000000	4.2430173	-0.0000001	-446.3165816
0.1796875	1.0000000	15.8607392	-0.0204432	-0.0003934	0.0000000	0.0000000	15.7516220	-0.0003875	-617.3133985
0.1875000	0.0000000	15.8607354	-0.0182620	-0.0004011	0.0000000	0.0000000	15.7500464	-0.0003984	-617.7918414
0.1875000	0.2500000	15.8017614	0.0000060	0.0147154	0.0000000	0.0000000	27.3821173	-0.0000010	-801.4233990
0.1875000	0.5000000	15.8607423	0.0182791	-0.0004534	0.0000000	0.0000000	15.7500017	0.0003972	-615.9967620
0.1875000	0.7500000	15.9204065	-0.0000052	-0.0098477	0.0000000	0.0000000	3.9871550	-0.0000000	-459.2161305
0.1875000	1.0000000	15.8607354	-0.0182620	-0.0004011	0.0000000	0.0000000	15.7500464	-0.0003984	-617.7918414
0.1953125	0.0000000	15.8607278	-0.0160508	-0.0004001	0.0000000	0.0000000	15.7486311	-0.0004074	-615.7832979
0.1953125	0.2500000	15.8007157	0.0000059	0.0128055	0.0000000	0.0000000	27.6018943	-0.0000005	-792.9306598
0.1953125	0.5000000	15.8607323	0.0160684	-0.0004562	0.0000000	0.0000000	15.7486167	0.0004071	-618.1035305
0.1953125	0.7500000	15.9213742	-0.0000036	-0.0085402	0.0000000	0.0000000	3.7598746	0.0000000	-467.1943251
0.1953125	1.0000000	15.8607278	-0.0160508	-0.0004001	0.0000000	0.0000000	15.7486311	-0.0004074	-615.7832979
0.2031250	0.0000000	15.8607195	-0.0138144	-0.0003890	0.0000000	0.0000000	15.7473461	-0.0004138	-614.0978920
0.2031250	0.2500000	15.7998092	0.0000059	0.0108572	0.0000000	0.0000000	27.7933838	0.0000002	-785.8011650
0.2031250	0.5000000	15.8607222	0.0138327	-0.0004483	0.0000000	0.0000000	15.7473482	0.0004142	-616.7836649
0.2031250	0.7500000	15.9222008	-0.0000023	-0.0072729	0.0000000	0.0000000	3.5617107	0.0000001	-474.0145391
0.2031250	1.0000000	15.8607195	-0.0138144	-0.0003890	0.0000000	0.0000000	15.7473461	-0.0004138	-614.0978920
0.2109375	0.0000000	15.8607096	-0.0115584	-0.0003712	0.0000000	0.0000000	15.7462121	-0.0004185	-614.7930577
0.2109375	0.2500000	15.7990416	0.0000059	0.0088711	0.0000000	0.0000000	27.9562292	0.0000007	-778.0244618
0.2109375	0.5000000	15.8607068	0.0115767	-0.0004262	0.0000000	0.0000000	15.7462171	0.0004193	-616.6682299
0.2109375	0.7500000	15.9228934	-0.0000012	-0.0060329	0.0000000	0.0000000	3.3931625	0.0000000	-485.0725989
0.2109375	1.0000000	15.8607096	-0.0115584	-0.0003712	0.0000000	0.0000000	15.7462121	-0.0004185	-614.7930577
0.2187500	0.0000000	15.8606963	-0.0092867	-0.0003605	0.0000000	0.0000000	15.7452867	-0.0004235	-617.9875928
0.2187500	0.2500000	15.7984120	0.0000059	0.0068772	0.0000000	0.0000000	28.0900961	0.0000007	-770.6604498
0.2187500	0.5000000	15.8606907	0.0093049	-0.0004099	0.0000000	0.0000000	15.7453023	0.0004241	-617.5391290
0.2187500	0.7500000	15.9234505	-0.0000004	-0.0048006	0.0000000	0.0000000	3.2546823	0.0000000	-501.7096661
0.2187500	1.0000000	15.8606963	-0.0092867	-0.0003605	0.0000000	0.0000000	15.7452867	-0.0004235	-617.9875928
0.2265625	0.0000000	15.8606834	-0.0070028	-0.0003383	0.0000000	0.0000000	15.7445846	-0.0004286	-620.8373662
0.2265625	0.2500000	15.7979195	0.0000057	0.0048750	0.0000000	0.0000000	28.1945794	0.0000008	-763.1247016
0.2265625	0.5000000	15.8606750	0.0070215	-0.0003908	0.0000000	0.0000000	15.7446432	0.0004291	-618.7244236
0.2265625	0.7500000	15.9238714	-0.0000003	-0.0035895	0.0000000	0.0000000	3.1466319	-0.0000000	-519.2153964
0.2265625	1.0000000	15.8606834	-0.0070028	-0.0003383	0.0000000	0.0000000	15.7445846	-0.0004286	-620.8373662
0.2343750	0.0000000	15.8606677	-0.0047108	-0.0003065	0.0000000	0.0000000	15.7440936	-0.0004323	-622.0960796
0.2343750	0.2500000	15.7975691	0.0000059	0.0028509	0.0000000	0.0000000	28.2693729	0.0000006	-753.9445720
0.2343750	0.5000000	15.8606565	0.0047287	-0.0003575	0.0000000	0.0000000	15.7441654	0.0004325	-618.5660170
0.2343750	0.7500000	15.9241591	-0.0000001	-0.0023876	0.0000000	0.0000000	3.0692650	-0.0000001	-533.2318058
0.2343750	1.0000000	15.8606677	-0.0047108	-0.0003065	0.0000000	0.0000000	15.7440936	-0.0004323	-622.0960796
0.2421875	0.0000000	15.8606535	-0.0024131	-0.0002787	0.0000000	0.0000000	15.7437986	-0.0004335	-622.1918635
0.2421875	0.2500000	15.7973566	0.0000061	0.0008262	0.0000000	0.0000000	28.3143349	-0.0000002	-745.6955762
0.2421875	0.5000000	15.8606403	0.0024296	-0.0003247	0.0000000	0.0000000	15.7438204	0.0004331	-617.7300771
0.2421875	0.7500000	15.9243118	-0.0000001	-0.0011750	0.0000000	0.0000000	3.0227566	-0.0000000	-545.8859132
0.2421875	1.0000000	15.8606535	-0.0024131	-0.0002787	0.0000000	0.0000000	15.7437986	-0.0004335	-622.1918635
0.2500000	0.0000000	15.8606402	-0.0001121	-0.0002440	0.0000000	0.0000000	15.7437319	-0.0004330	-621.3659140
0.2500000	0.2500000	15.7972837	0.0000056	-0.0011937	0.0000000	0.0000000	28.3294647	-0.0000009	-737.5035604
0.2500000	0.5000000	15.8606257	0.0001274	-0.0002972	0.0000000	0.0000000	15.7436877	0.0004322	-619.3146423
0.2500000	0.7500000	15.9243354	-0.0000004	0.0000459	0.0000000	0.0000000	3.0072302	-0.0000000	-561.1800572
0.2500000	1.0000000	15.8606402	-0.0001121	-0.0002440	0.0000000	0.0000000	15.7437319	-0.0004330	-621.3659140
0.2578125	0.0000000	15.8606285	0.0021888	-0.0001964	0.0000000	0.0000000	15.7438975	-0.0004318	-623.6173525
0.2578125	0.2500000	15.7973543	0.0000056	-0.0032196	0.0000000	0.0000000	28.3147897	-0.0000009	-728.1194300
0.2578125	0.5000000	15.8606114	-0.0021759	-0.0002554	0.0000000	0.0000000	15.7438401	0.0004311	-622.6845544
0.2578125	0.7500000	15.9242288	-0.0000006	0.0012671	0.0000000	0.0000000	3.0227402	0.0000000	-577.5931894
0.2578125	1.0000000	15.8606285	0.0021888	-0.0001964	0.0000000	0.0000000	15.7438975	-0.0004318	-623.6173525
0.2656250	0.0000000	15.8606226	0.0044881	-0.0001561	0.0000000	0.0000000	15.7442605	-0.0004299	-622.8001077
0.2656250	0.2500000	15.7975649	0.0000051	-0.0052249	0.0000000	0.0000000	28.2702052	-0.0000002	-719.3896469
0.2656250	0.5000000	15.8606016	-0.0044770	-0.0002125	0.0000000	0.0000000	15.7442633	0.0004299	-623.4409334
0.2656250	0.7500000	15.9239898	-0.0000013	0.0025039	0.0000000	0.0000000	3.0692532	0.0000000	-596.1455336
0.2656250	1.0000000	15.8606226	0.0044881	-0.0001561	0.0000000	0.0000000	15.7442605	-0.0004299	-622.8001077
0.2734375	0.0000000	15.8606211	0.0067824	-0.0001124	0.0000000	0.0000000	15.7448001	-0.0004267	-624.5106066
0.2734375	0.2500000	15.7979171	0.0000048	-0.0072201	0.0000000	0.0000000	28.1957425	0.0000002	-708.8613535
0.2734375	0.5000000	15.8605953	-0.0067740	-0.0001749	0.0000000	0.0000000	15.7448552	0.0004270	-623.6861582
0.2734375	0.7500000	15.9236232	-0.0000014	0.0037656	0.0000000	0.0000000	3.1466400	-0.0000000	-610.2499971
0.2734375	1.0000000	15.8606211	0.0067824	-0.0001124	0.0000000	0.0000000	15.7448001	-0.0004267	-624.5106066
0.2812500	0.0000000	15.8606247	0.0090694	-0.0000687	0.0000000	0.0000000	15.7455449	-0.0004219	-623.9083934
0.2812500	0.2500000	15.7984107	0.0000044	-0.0091935	0.0000000	0.0000000	28.0916199	-0.0000002	-701.0054661
0.2812500	0.5000000	15.8605933	-0.0090631	-0.0001338	0.0000000	0.0000000	15.7455776	0.0004215	-622.1711800
0.2812500	0.7500000	15.9231302	-0.0000021	0.0050422	0.0000000	0.0000000	3.2546950	-0.0000000	-624.1455969
0.2812500	1.0000000	15.8606247	0.0090694	-0.0000687	0.0000000	0.0000000	15.7455449	-0.0004219	-623.9083934
0.2890625	0.0000000	15.8606324	0.0113453	-0.0000414	0.0000000	0.0000000	15.7465143	-0.0004154	-624.2660273
0.2890625	0.2500000	15.7990471	0.0000044	-0.0111377	0.0000000	0.0000000	27.9582059	-0.0000012	-693.6155822
0.2890625	0.5000000	15.8605953	-0.0113416	-0.0000947	0.0000000	0.0000000	15.7464718	0.0004141	-624.0615522
0.2890625	0.7500000	15.9225140	-0.0000022	0.0063546	0.0000000	0.0000000	3.3931457	-0.0000000	-638.5137971
0.2890625	1.0000000	15.8606324	0.0113453	-0.0000414	0.0000000	0.0000000	15.7465143	-0.0004154	-624.2660273
0.2968750	0.0000000	15.8606450	0.0136069	-0.0000022	0.0000000	0.0000000	15.7476709	-0.0004075	-623.3916941
0.2968750	0.2500000	15.7998274	0.0000040	-0.0130672	0.0000000	0.0000000	27.7958092	-0.0000014	-686.5760028
0.2968750	0.5000000	15.8606043	-0.0136046	-0.0000487	0.0000000	0.0000000	15.7476003	0.0004061	-626.4161553
0.2968750	0.7500000	15.9217691	-0.0000023	0.0076839	0.0000000	0.0000000	3.5616526	-0.0000000	-656.3729774
0.2968750	1.0000000	15.8606450	0.0136069	-0.0000022	0.0000000	0.0000000	15.7476709	-0.0004075	-623.3916941
0.3046875	0.0000000	15.8606573	0.0158497	0.0000110	0.0000000	0.0000000	15.7489676	-0.0003985	-624.4452728
0.3046875	0.2500000	15.8007593	0.0000034	-0.0149507	0.0000000	0.0000000	27.6046796	-0.0000002	-677.3191549
0.3046875	0.5000000	15.8606126	-0.0158486	-0.0000160	0.0000000	0.0000000	15.7489732	0.0003982	-630.5502644
0.3046875	0.7500000	15.9209042	-0.0000019	0.0090606	0.0000000	0.0000000	3.7598029	-0.0000000	-674.3509884
0.3046875	1.0000000	15.8606573	0.0158497	0.0000110	0.0000000	0.0000000	15.7489676	-0.0003985	-624.4452728
0.3125000	0.0000000	15.8606769	0.0180684	0.0000207	0.0000000	0.0000000	15.7504205	-0.0003889	-624.9064868
0.3125000	0.2500000	15.8018316	0.0000028	-0.0167951	0.0000000	0.0000000	27.3852168	0.0000015	-667.4169517
0.3125000	0.5000000	15.8606319	-0.0180686	0.0000082	0.0000000	0.0000000	15.7505428	0.0003900	-630.7479538
0.3125000	0.7500000	15.9199099	-0.0000007	0.0104682	0.0000000	0.0000000	3.9871037	-0.0000001	-692.9327720
0.3125000	1.0000000	15.8606769	0.0180684	0.0000207	0.0000000	0.0000000	15.7504205	-0.0003889	-624.9064868
0.3203125	0.0000000	15.8606998	0.0202586	0.0000381	0.0000000	0.0000000	15.7520680	-0.0003788	-626.3982531
0.3203125	0.2500000	15.8030472	0.0000020	-0.0186169	0.0000000	0.0000000	27.1379520	0.0000021	-657.8420624
0.3203125	0.5000000	15.8606580	-0.0202591	0.0000320	0.0000000	0.0000000	15.7522329	0.0003804	-628.9811894
0.3203125	0.7500000	15.9187870	0.0000003	0.0118992	0.0000000	0.0000000	4.2429740	-0.0000001	-706.6852170
0.3203125	1.0000000	15.8606998	0.0202586	0.0000381	0.0000000	0.0000000	15.7520680	-0.0003788	-626.3982531
0.3281250	0.0000000	15.8607231	0.0224136	0.0000448	0.0000000	0.0000000	15.7538894	-0.0003675	-627.8111205
0.3281250	0.2500000	15.8044154	0.0000015	-0.0203967	0.0000000	0.0000000	26.8635060	0.0000014	-648.5344432
0.3281250	0.5000000	15.8606833	-0.0224147	0.0000533	0.0000000	0.0000000	15.7539935	0.0003686	-625.3965256
0.3281250	0.7500000	15.9175399	0.0000017	0.0133591	0.0000000	0.0000000	4.5267532	-0.0000001	-719.3969613
0.3281250	1.0000000	15.8607231	0.0224136	0.0000448	0.0000000	0.0000000	15.7538894	-0.0003675	-627.8111205
0.3359375	0.0000000	15.8607475	0.0245287	0.0000412	0.0000000	0.0000000	15.7558110	-0.0003548	-628.0427065
0.3359375	0.2500000	15.8059267	0.0000009	-0.0221205	0.0000000	0.0000000	26.5624685	0.0000002	-639.8161695
0.3359375	0.5000000	15.8607133	-0.0245297	0.0000588	0.0000000	0.0000000	15.7558226	0.0003548	-624.0076776
0.3359375	0.7500000	15.9161655	0.0000026	0.0148442	0.0000000	0.0000000	4.8377261	-0.0000000	-732.9824988
0.3359375	1.0000000	15.8607475	0.0245287	0.0000412	0.0000000	0.0000000	15.7558110	-0.0003548	-628.0427065
0.3437500	0.0000000	15.8607761	0.0265975	0.0000226	0.0000000	0.0000000	15.7577791	-0.0003411	-628.2753911
0.3437500	0.2500000	15.8075779	0.0000004	-0.0237800	0.0000000	0.0000000	26.2354813	-0.0000003	-632.1771816
0.3437500	0.5000000	15.8607458	-0.0265984	0.0000528	0.0000000	0.0000000	15.7577718	0.0003407	-624.8826956
0.3437500	0.7500000	15.9146588	0.0000037	0.0163525	0.0000000	0.0000000	5.1751393	0.0000000	-750.1893398
0.3437500	1.0000000	15.8607761	0.0265975	0.0000226	0.0000000	0.0000000	15.7577791	-0.0003411	-628.2753911
0.3515625	0.0000000	15.8608058	0.0286146	0.0000055	0.0000000	0.0000000	15.7598342	-0.0003275	-628.7023250
0.3515625	0.2500000	15.8093720	-0.0000002	-0.0253858	0.0000000	0.0000000	25.8833192	-0.0000003	-624.9663747
0.3515625	0.5000000	15.8607785	-0.0286155	0.0000444	0.0000000	0.0000000	15.7598556	0.0003270	-627.6424186
0.3515625	0.7500000	15.9130211	0.0000048	0.0178610	0.0000000	0.0000000	5.5381729	-0.0000000	-767.0866200
0.3515625	1.0000000	15.8608058	0.0286146	0.0000055	0.0000000	0.0000000	15.7598342	-0.0003275	-628.7023250
0.3593750	0.0000000	15.8608317	0.0305742	-0.0000074	0.0000000	0.0000000	15.7619772	-0.0003139	-629.9959057
0.3593750	0.2500000	15.8113071	-0.0000005	-0.0269431	0.0000000	0.0000000	25.5068082	-0.0000002	-616.5208968
0.3593750	0.5000000	15.8608080	-0.0305751	0.0000359	0.0000000	0.0000000	15.7620153	0.0003135	-630.4308993
0.3593750	0.7500000	15.9112578	0.0000057	0.0193708	0.0000000	0.0000000	5.9259040	-0.0000001	-779.1398363
0.3593750	1.0000000	15.8608317	0.0305742	-0.0000074	0.0000000	0.0000000	15.7619772	-0.0003139	-629.9959057
0.3671875	0.0000000	15.8608620	0.0324714	-0.0000163	0.0000000	0.0000000	15.7641641	-0.0002993	-627.9010996
0.3671875	0.2500000	15.8133649	-0.0000009	-0.0284490	0.0000000	0.0000000	25.1067946	-0.0000001	-609.4467226
0.3671875	0.5000000	15.8608419	-0.0324720	0.0000284	0.0000000	0.0000000	15.7641693	0.0002989	-630.9197288
0.3671875	0.7500000	15.9093616	0.0000065	0.0208734	0.0000000	0.0000000	6.3373152	-0.0000001	-788.1960654
0.3671875	1.0000000	15.8608620	0.0324714	-0.0000163	0.0000000	0.0000000	15.7641641	-0.0002993	-627.9010996
0.3750000	0.0000000	15.8608892	0.0342999	-0.0000399	0.0000000	0.0000000	15.7663214	-0.0002828	-627.5464681
0.3750000	0.2500000	15.8155521	-0.0000008	-0.0298530	0.0000000	0.0000000	24.6841889	0.0000002	-599.3091857
0.3750000	0.5000000	15.8608741	-0.0343004	0.0000146	0.0000000	0.0000000	15.7663061	0.0002829	-630.8902697
0.3750000	0.7500000	15.9073383	0.0000070	0.0223582	0.0000000	0.0000000	6.7713593	-0.0000000	-795.4154953
0.3750000	1.0000000	15.8608892	0.0342999	-0.0000399	0.0000000	0.0000000	15.7663214	-0.0002828	-627.5464681
0.3828125	0.0000000	15.8609169	0.0360547	-0.0000671	0.0000000	0.0000000	15.7684470	-0.0002656	-627.5637202
0.3828125	0.2500000	15.8178611	-0.0000009	-0.0311788	0.0000000	0.0000000	24.2399599	0.0000008	-590.4418133
0.3828125	0.5000000	15.8609039	-0.0360549	-0.0000091	0.0000000	0.0000000	15.7684694	0.0002663	-630.7400675
0.3828125	0.7500000	15.9051888	0.0000074	0.0238405	0.0000000	0.0000000	7.2269958	-0.0000001	-806.0679250
0.3828125	1.0000000	15.8609169	0.0360547	-0.0000671	0.0000000	0.0000000	15.7684470	-0.0002656	-627.5637202
0.3906250	0.0000000	15.8609424	0.0377303	-0.0000975	0.0000000	0.0000000	15.7705786	-0.0002487	-630.4219542
0.3906250	0.2500000	15.8202837	-0.0000010	-0.0324240	0.0000000	0.0000000	23.7751488	0.0000011	-580.8078482
0.3906250	0.5000000	15.8609336	-0.0377302	-0.0000344	0.0000000	0.0000000	15.7706644	0.0002498	-629.5280860
0.3906250	0.7500000	15.9029180	0.0000076	0.0253070	0.0000000	0.0000000	7.7031365	-0.0000001	-818.0581945
0.3906250	1.0000000	15.8609424	0.0377303	-0.0000975	0.0000000	0.0000000	15.7705786	-0.0002487	-630.4219542
0.3984375	0.0000000	15.8609691	0.0393209	-0.0001267	0.0000000	0.0000000	15.7727142	-0.0002324	-632.8813104
0.3984375	0.2500000	15.8228132	-0.0000008	-0.0335711	0.0000000	0.0000000	23.2908026	0.0000006	-572.3307732
0.3984375	0.5000000	15.8609635	-0.0393207	-0.0000658	0.0000000	0.0000000	15.7727983	0.0002330	-629.1721940
0.3984375	0.7500000	15.9005274	0.0000078	0.0267404	0.0000000	0.0000000	8.1985796	-0.0000001	-827.7206191
0.3984375	1.0000000	15.8609691	0.0393209	-0.0001267	0.0000000	0.0000000	15.7727142	-0.0002324	-632.8813104
0.4062500	0.0000000	15.8609936	0.0408213	-0.0001488	0.0000000	0.0000000	15.7747998	-0.0002157	-633.6156005
0.4062500	0.2500000	15.8254424	-0.0000005	-0.0346362	0.0000000	0.0000000	22.7880597	-0.0000004	-565.4730459
0.4062500	0.5000000	15.8609928	-0.0408207	-0.0000877	0.0000000	0.0000000	15.7747951	0.0002153	-627.9823137
0.4062500	0.7500000	15.8980289	0.0000076	0.0281294	0.0000000	0.0000000	8.7120344	0.0000000	-835.9458957
0.4062500	1.0000000	15.8609936	0.0408213	-0.0001488	0.0000000	0.0000000	15.7747998	-0.0002157	-633.6156005
0.4140625	0.0000000	15.8610169	0.0422259	-0.0001643	0.0000000	0.0000000	15.7767902	-0.0001980	-631.1492474
0.4140625	0.2500000	15.8281753	-0.0000002	-0.0355938	0.0000000	0.0000000	22.2681710	-0.0000010	-560.1028906
0.4140625	0.5000000	15.8610189	-0.0422251	-0.0001043	0.0000000	0.0000000	15.7766929	0.0001971	-629.1397767
0.4140625	0.7500000	15.8954248	0.0000074	0.0294488	0.0000000	0.0000000	9.2422064	0.0000002	-843.4340683
0.4140625	1.0000000	15.8610169	0.0422259	-0.0001643	0.0000000	0.0000000	15.7767902	-0.0001980	-631.1492474
0.4218750	0.0000000	15.8610383	0.0435304	-0.0001843	0.0000000	0.0000000	15.7786581	-0.0001793	-629.0784221
0.4218750	0.2500000	15.8309992	0.0000001	-0.0364392	0.0000000	0.0000000	21.7323783	-0.0000007	-552.5407401
0.4218750	0.5000000	15.8610412	-0.0435292	-0.0001261	0.0000000	0.0000000	15.7785622	0.0001788	-631.4727413
0.4218750	0.7500000	15.8927303	0.0000070	0.0307222	0.0000000	0.0000000	9.7878303	0.0000002	-850.9478450
0.4218750	1.0000000	15.8610383	0.0435304	-0.0001843	0.0000000	0.0000000	15.7786581	-0.0001793	-629.0784221
0.4296875	0.0000000	15.8610604	0.0447294	-0.0002003	0.0000000	0.0000000	15.7803884	-0.0001604	-626.1278875
0.4296875	0.2500000	15.8339031	0.0000002	-0.0371899	0.0000000	0.0000000	21.1818683	0.0000002	-544.3085950
0.4296875	0.5000000	15.8610676	-0.0447274	-0.0001464	0.0000000	0.0000000	15.7803843	0.0001606	-631.6008656
0.4296875	0.7500000	15.8899387	0.0000062	0.0319405	0.0000000	0.0000000	10.3475891	-0.0000000	-859.6347051
0.4296875	1.0000000	15.8610604	0.0447294	-0.0002003	0.0000000	0.0000000	15.7803884	-0.0001604	-626.1278875
0.4375000	0.0000000	15.8610819	0.0458179	-0.0002271	0.0000000	0.0000000	15.7819716	-0.0001417	-627.1111418
0.4375000	0.2500000	15.8368896	0.0000004	-0.0378011	0.0000000	0.0000000	20.6178353	0.0000006	-533.0567703
0.4375000	0.5000000	15.8610882	-0.0458151	-0.0001751	0.0000000	0.0000000	15.7820395	0.0001422	-630.1430726
0.4375000	0.7500000	15.8870660	0.0000054	0.0330893	0.0000000	0.0000000	10.9200793	-0.0000002	-866.2612361
0.4375000	1.0000000	15.8610819	0.0458179	-0.0002271	0.0000000	0.0000000	15.7819716	-0.0001417	-627.1111418
0.4453125	0.0000000	15.8611022	0.0467905	-0.0002493	0.0000000	0.0000000	15.7834076	-0.0001231	-627.3486843
0.4453125	0.2500000	15.8399373	0.0000005	-0.0383066	0.0000000	0.0000000	20.0416020	0.0000004	-525.3205681
0.4453125	0.5000000	15.8611106	-0.0467870	-0.0002000	0.0000000	0.0000000	15.7834586	0.0001234	-627.1892408
0.4453125	0.7500000	15.8841184	0.0000046	0.0341603	0.0000000	0.0000000	11.5038385	-0.0000002	-872.0508428
0.4453125	1.0000000	15.8611022	0.0467905	-0.0002493	0.0000000	0.0000000	15.7834076	-0.0001231	-627.3486843
0.4531250	0.0000000	15.8611163	0.0476429	-0.0002575	0.0000000	0.0000000	15.7847050	-0.0001042	-629.0244051
0.4531250	0.2500000	15.8430471	0.0000007	-0.0387065	0.0000000	0.0000000	19.4546682	-0.0000001	-518.4578034
0.4531250	0.5000000	15.8611288	-0.0476387	-0.0002049	0.0000000	0.0000000	15.7846788	0.0001042	-627.0192773
0.4531250	0.7500000	15.8811073	0.0000036	0.0351119	0.0000000	0.0000000	12.0974162	0.0000000	-875.8474575
0.4531250	1.0000000	15.8611163	0.0476429	-0.0002575	0.0000000	0.0000000	15.7847050	-0.0001042	-629.0244051
0.4609375	0.0000000	15.8611289	0.0483714	-0.0002656	0.0000000	0.0000000	15.7858272	-0.0000848	-627.8568665
0.4609375	0.2500000	15.8462052	0.0000005	-0.0389861	0.0000000	0.0000000	18.8584781	-0.0000002	-512.7536151
0.4609375	0.5000000	15.8611442	-0.0483659	-0.0002194	0.0000000	0.0000000	15.7857734	0.0000847	-627.8923240
0.4609375	0.7500000	15.8780368	0.0000022	0.0359830	0.0000000	0.0000000	12.6994029	0.0000001	-880.3186627
0.4609375	1.0000000	15.8611289	0.0483714	-0.0002656	0.0000000	0.0000000	15.7858272	-0.0000848	-627.8568665
0.4687500	0.0000000	15.8611425	0.0489724	-0.0002897	0.0000000	0.0000000	15.7867378	-0.0000653	-627.2783887
0.4687500	0.2500000	15.8493983	-0.0000001	-0.0391292	0.0000000	0.0000000	18.2543415	0.0000000	-506.4319767
0.4687500	0.5000000	15.8611613	-0.0489655	-0.0002478	0.0000000	0.0000000	15.7867390	0.0000654	-626.4314788
0.4687500	0.7500000	15.8749067	0.0000009	0.0367760	0.0000000	0.0000000	13.3083651	-0.0000000	-885.6668034
0.4687500	1.0000000	15.8611425	0.0489724	-0.0002897	0.0000000	0.0000000	15.7867378	-0.0000653	-627.2783887
0.4765625	0.0000000	15.8611512	0.0494431	-0.0003168	0.0000000	0.0000000	15.7874317	-0.0000461	-627.0836369
0.4765625	0.2500000	15.8526219	-0.0000006	-0.0391460	0.0000000	0.0000000	17.6436377	0.0000002	-497.5361042
0.4765625	0.5000000	15.8611713	-0.0494352	-0.0002747	0.0000000	0.0000000	15.7874873	0.0000463	-625.9912258
0.4765625	0.7500000	15.8717375	-0.0000003	0.0374607	0.0000000	0.0000000	13.9228220	-0.0000002	-890.7136573
0.4765625	1.0000000	15.8611512	0.0494431	-0.0003168	0.0000000	0.0000000	15.7874317	-0.0000461	-627.0836369
0.4843750	0.0000000	15.8611546	0.0497817	-0.0003319	0.0000000	0.0000000	15.7879452	-0.0000272	-628.4384998
0.4843750	0.2500000	15.8558696	-0.0000014	-0.0390424	0.0000000	0.0000000	17.0278473	-0.0000000	-490.2568983
0.4843750	0.5000000	15.8611766	-0.0497725	-0.0002994	0.0000000	0.0000000	15.7879641	0.0000273	-624.3357205
0.4843750	0.7500000	15.8685339	-0.0000015	0.0380190	0.0000000	0.0000000	14.5412324	-0.0000000	-892.1812403
0.4843750	1.0000000	15.8611546	0.0497817	-0.0003319	0.0000000	0.0000000	15.7879452	-0.0000272	-628.4384998
0.4921875	0.0000000	15.8611543	0.0499863	-0.0003337	0.0000000	0.0000000	15.7882807	-0.0000081	-626.8140739
0.4921875	0.2500000	15.8591273	-0.0000021	-0.0388355	0.0000000	0.0000000	16.4085248	-0.0000004	-483.8964410
0.4921875	0.5000000	15.8611808	-0.0499762	-0.0003120	0.0000000	0.0000000	15.7881980	0.0000081	-623.6148355
0.4921875	0.7500000	15.8653034	-0.0000024	0.0384445	0.0000000	0.0000000	15.1620280	0.0000004	-893.6263579
0.4921875	1.0000000	15.8611543	0.0499863	-0.0003337	0.0000000	0.0000000	15.7882807	-0.0000081	-626.8140739
0.5000000	0.0000000	15.8611546	0.0500561	-0.0003430	0.0000000	0.0000000	15.7883812	0.0000114	-624.8771306
0.5000000	0.2500000	15.8623824	-0.0000029	-0.0385142	0.0000000	0.0000000	15.7871825	-0.0000006	-477.8146052
0.5000000	0.5000000	15.8611820	-0.0500451	-0.0003273	0.0000000	0.0000000	15.7882400	-0.0000114	-623.1584610
0.5000000	0.7500000	15.8620535	-0.0000029	0.0387694	0.0000000	0.0000000	15.7836930	0.0000007	-892.4472777
0.5000000	1.0000000	15.8611546	0.0500561	-0.0003430	0.0000000	0.0000000	15.7883812	0.0000114	-624.8771306
0.5078125	0.0000000	15.8611514	0.0499910	-0.0003596	0.0000000	0.0000000	15.7882056	0.0000309	-623.1507508
0.5078125	0.2500000	15.8656327	-0.0000037	-0.0380615	0.0000000	0.0000000	15.1652519	-0.0000004	-469.8611754
0.5078125	0.5000000	15.8611778	-0.0499791	-0.0003574	0.0000000	0.0000000	15.7881205	-0.0000309	-623.9046816
0.5078125	0.7500000	15.8587970	-0.0000033	0.0389844	0.0000000	0.0000000	16.4047980	0.0000005	-892.5791035
0.5078125	1.0000000	15.8611514	0.0499910	-0.0003596	0.0000000	0.0000000	15.7882056	0.0000309	-623.1507508
0.5156250	0.0000000	15.8611440	0.0497911	-0.0003639	0.0000000	0.0000000	15.7878075	0.0000500	-621.6800151
0.5156250	0.2500000	15.8688678	-0.0000041	-0.0375102	0.0000000	0.0000000	14.5442015	-0.0000001	-464.5502128
0.5156250	0.5000000	15.8611686	-0.0497788	-0.0003784	0.0000000	0.0000000	15.7878154	-0.0000500	-622.3443219
0.5156250	0.7500000	15.8555451	-0.0000031	0.0390639	0.0000000	0.0000000	17.0238945	0.0000001	-894.6372256
0.5156250	1.0000000	15.8611440	0.0497911	-0.0003639	0.0000000	0.0000000	15.7878075	0.0000500	-621.6800151
0.5234375	0.0000000	15.8611368	0.0494575	-0.0003655	0.0000000	0.0000000	15.7872432	0.0000691	-624.0796976
0.5234375	0.2500000	15.8720780	-0.0000043	-0.0368555	0.0000000	0.0000000	13.9255883	-0.0000000	-459.1005032
0.5234375	0.5000000	15.8611584	-0.0494452	-0.0003934	0.0000000	0.0000000	15.7872644	-0.0000690	-622.6512579
0.5234375	0.7500000	15.8522959	-0.0000024	0.0390170	0.0000000	0.0000000	17.6394810	0.0000001	-894.8105266
0.5234375	1.0000000	15.8611368	0.0494575	-0.0003655	0.0000000	0.0000000	15.7872432	0.0000691	-624.0796976
0.5312500	0.0000000	15.8611288	0.0489922	-0.0003912	0.0000000	0.0000000	15.7865088	0.0000884	-623.5561590
0.5312500	0.2500000	15.8752458	-0.0000044	-0.0360717	0.0000000	0.0000000	13.3109599	-0.0000002	-456.1925173
0.5312500	0.5000000	15.8611450	-0.0489798	-0.0004192	0.0000000	0.0000000	15.7864537	-0.0000882	-622.6643855
0.5312500	0.7500000	15.8490724	-0.0000018	0.0388669	0.0000000	0.0000000	18.2499950	0.0000005	-893.4390733
0.5312500	1.0000000	15.8611288	0.0489922	-0.0003912	0.0000000	0.0000000	15.7865088	0.0000884	-623.5561590
0.5390625	0.0000000	15.8611131	0.0483968	-0.0003893	0.0000000	0.0000000	15.7855442	0.0001077	-620.8752075
0.5390625	0.2500000	15.8783797	-0.0000042	-0.0352165	0.0000000	0.0000000	12.7018160	-0.0000003	-452.6157661
0.5390625	0.5000000	15.8611243	-0.0483848	-0.0004325	0.0000000	0.0000000	15.7854362	-0.0001075	-623.1275526
0.5390625	0.7500000	15.8458817	-0.0000006	0.0385721	0.0000000	0.0000000	18.8539603	0.0000008	-892.3987130
0.5390625	1.0000000	15.8611131	0.0483968	-0.0003893	0.0000000	0.0000000	15.7855442	0.0001077	-620.8752075
0.5468750	0.0000000	15.8610950	0.0476746	-0.0003888	0.0000000	0.0000000	15.7843502	0.0001267	-617.6997291
0.5468750	0.2500000	15.8814612	-0.0000038	-0.0342860	0.0000000	0.0000000	12.0996223	-0.0000002	-447.8056027
0.5468750	0.5000000	15.8611039	-0.0476633	-0.0004312	0.0000000	0.0000000	15.7842894	-0.0001268	-623.4037496
0.5468750	0.7500000	15.8427260	0.0000007	0.0381614	0.0000000	0.0000000	19.4500122	0.0000004	-889.9180116
0.5468750	1.0000000	15.8610950	0.0476746	-0.0003888	0.0000000	0.0000000	15.7843502	0.0001267	-617.6997291
0.5546875	0.0000000	15.8610766	0.0468285	-0.0004037	0.0000000	0.0000000	15.7829728	0.0001451	-617.6413446
0.5546875	0.2500000	15.8844804	-0.0000031	-0.0332447	0.0000000	0.0000000	11.5058254	0.0000001	-440.4460547
0.5546875	0.5000000	15.8610767	-0.0468180	-0.0004417	0.0000000	0.0000000	15.7830301	-0.0001457	-621.5671613
0.5546875	0.7500000	15.8396217	0.0000019	0.0376477	0.0000000	0.0000000	20.0368023	-0.0000005	-889.3864180
0.5546875	1.0000000	15.8610766	0.0468285	-0.0004037	0.0000000	0.0000000	15.7829728	0.0001451	-617.6413446
0.5625000	0.0000000	15.8610561	0.0458627	-0.0004184	0.0000000	0.0000000	15.7814732	0.0001633	-619.1769696
0.5625000	0.2500000	15.8874303	-0.0000023	-0.0321169	0.0000000	0.0000000	10.9218586	0.0000002	-433.8000180
0.5625000	0.5000000	15.8610498	-0.0458536	-0.0004531	0.0000000	0.0000000	15.7815790	-0.0001638	-618.8171228
0.5625000	0.7500000	15.8365692	0.0000033	0.0370198	0.0000000	0.0000000	20.6128978	-0.0000009	-886.7620913
0.5625000	1.0000000	15.8610561	0.0458627	-0.0004184	0.0000000	0.0000000	15.7814732	0.0001633	-619.1769696
0.5703125	0.0000000	15.8610322	0.0447815	-0.0004334	0.0000000	0.0000000	15.7798503	0.0001817	-621.5185532
0.5703125	0.2500000	15.8903008	-0.0000016	-0.0309233	0.0000000	0.0000000	10.3491773	0.0000002	-428.5342605
0.5703125	0.5000000	15.8610239	-0.0447733	-0.0004551	0.0000000	0.0000000	15.7798862	-0.0001815	-616.9061021
0.5703125	0.7500000	15.8335842	0.0000042	0.0362751	0.0000000	0.0000000	21.1768357	-0.0000003	-883.8112294
0.5703125	1.0000000	15.8610322	0.0447815	-0.0004334	0.0000000	0.0000000	15.7798503	0.0001817	-621.5185532
0.5781250	0.0000000	15.8610032	0.0435897	-0.0004285	0.0000000	0.0000000	15.7780904	0.0002000	-620.2871676
0.5781250	0.2500000	15.8930943	-0.0000005	-0.0296765	0.0000000	0.0000000	9.7892342	0.0000000	-426.0267712
0.5781250	0.5000000	15.8609940	-0.0435831	-0.0004471	0.0000000	0.0000000	15.7780263	-0.0001993	-617.7442054
0.5781250	0.7500000	15.8306740	0.0000050	0.0354015	0.0000000	0.0000000	21.7273036	0.0000007	-880.2154594
0.5781250	1.0000000	15.8610032	0.0435897	-0.0004285	0.0000000	0.0000000	15.7780904	0.0002000	-620.2871676
0.5859375	0.0000000	15.8609777	0.0422929	-0.0004334	0.0000000	0.0000000	15.7762101	0.0002178	-617.9969762
0.5859375	0.2500000	15.8957943	0.0000007	-0.0283629	0.0000000	0.0000000	9.2434252	-0.0000001	-422.1102395
0.5859375	0.5000000	15.8609651	-0.0422877	-0.0004497	0.0000000	0.0000000	15.7761346	-0.0002173	-620.5988397
0.5859375	0.7500000	15.8278425	0.0000056	0.0344454	0.0000000	0.0000000	22.2630897	0.0000009	-876.7719179
0.5859375	1.0000000	15.8609777	0.0422929	-0.0004334	0.0000000	0.0000000	15.7762101	0.0002178	-617.9969762
0.5937500	0.0000000	15.8609514	0.0408960	-0.0004426	0.0000000	0.0000000	15.7742175	0.0002345	-615.0011115
0.5937500	0.2500000	15.8983963	0.0000015	-0.0269968	0.0000000	0.0000000	8.7130729	-0.0000001	-418.4073082
0.5937500	0.5000000	15.8609372	-0.0408920	-0.0004561	0.0000000	0.0000000	15.7742372	-0.0002349	-621.1342973
0.5937500	0.7500000	15.8251049	0.0000058	0.0333978	0.0000000	0.0000000	22.7830209	-0.0000000	-872.3836431
0.5937500	1.0000000	15.8609514	0.0408960	-0.0004426	0.0000000	0.0000000	15.7742175	0.0002345	-615.0011115
0.6015625	0.0000000	15.8609225	0.0394037	-0.0004374	0.0000000	0.0000000	15.7721342	0.0002504	-614.3314964
0.6015625	0.2500000	15.9009005	0.0000025	-0.0256037	0.0000000	0.0000000	8.1994590	0.0000000	-414.3645858
0.6015625	0.5000000	15.8609076	-0.0394013	-0.0004470	0.0000000	0.0000000	15.7722328	-0.0002514	-618.2359269
0.6015625	0.7500000	15.8224689	0.0000061	0.0322323	0.0000000	0.0000000	23.2858001	-0.0000010	-868.0293607
0.6015625	1.0000000	15.8609225	0.0394037	-0.0004374	0.0000000	0.0000000	15.7721342	0.0002504	-614.3314964
0.6093750	0.0000000	15.8608961	0.0378212	-0.0004425	0.0000000	0.0000000	15.7699823	0.0002664	-614.5887961
0.6093750	0.2500000	15.9032932	0.0000032	-0.0241594	0.0000000	0.0000000	7.7038781	0.0000001	-413.6752927
0.6093750	0.5000000	15.8608778	-0.0378204	-0.0004491	0.0000000	0.0000000	15.7700641	-0.0002672	-615.0476486
0.6093750	0.7500000	15.8199433	0.0000062	0.0309885	0.0000000	0.0000000	23.7701306	-0.0000011	-862.7046550
0.6093750	1.0000000	15.8608961	0.0378212	-0.0004425	0.0000000	0.0000000	15.7699823	0.0002664	-614.5887961
0.6171875	0.0000000	15.8608682	0.0361541	-0.0004390	0.0000000	0.0000000	15.7677962	0.0002828	-617.4943015
0.6171875	0.2500000	15.9055754	0.0000035	-0.0227006	0.0000000	0.0000000	7.2276065	0.0000002	-413.1890395
0.6171875	0.5000000	15.8608503	-0.0361545	-0.0004411	0.0000000	0.0000000	15.7678147	-0.0002827	-614.6841420
0.6171875	0.7500000	15.8175310	0.0000062	0.0296473	0.0000000	0.0000000	24.2349246	-0.0000004	-856.1980835
0.6171875	1.0000000	15.8608682	0.0361541	-0.0004390	0.0000000	0.0000000	15.7677962	0.0002828	-617.4943015
0.6250000	0.0000000	15.8608440	0.0344077	-0.0004528	0.0000000	0.0000000	15.7656150	0.0002987	-616.1146806
0.6250000	0.2500000	15.9077369	0.0000035	-0.0212124	0.0000000	0.0000000	6.7718371	0.0000001	-415.1976380
0.6250000	0.5000000	15.8608247	-0.0344093	-0.0004357	0.0000000	0.0000000	15.7656192	-0.0002983	-614.2526660
0.6250000	0.7500000	15.8152374	0.0000059	0.0282384	0.0000000	0.0000000	24.6791881	-0.0000000	-852.2734597
0.6250000	1.0000000	15.8608440	0.0344077	-0.0004528	0.0000000	0.0000000	15.7656150	0.0002987	-616.1146806
0.6328125	0.0000000	15.8608202	0.0325871	-0.0004578	0.0000000	0.0000000	15.7634581	0.0003134	-615.5013954
0.6328125	0.2500000	15.9097722	0.0000032	-0.0197320	0.0000000	0.0000000	6.3376767	0.0000001	-415.7173221
0.6328125	0.5000000	15.8608041	-0.0325901	-0.0004252	0.0000000	0.0000000	15.7635024	-0.0003136	-614.7235739
0.6328125	0.7500000	15.8130707	0.0000059	0.0267500	0.0000000	0.0000000	25.1019543	-0.0000004	-846.8682919
0.6328125	1.0000000	15.8608202	0.0325871	-0.0004578	0.0000000	0.0000000	15.7634581	0.0003134	-615.5013954
0.6406250	0.0000000	15.8607986	0.0306989	-0.0004525	0.0000000	0.0000000	15.7613230	0.0003271	-614.9492746
0.6406250	0.2500000	15.9116851	0.0000027	-0.0182589	0.0000000	0.0000000	5.9261882	0.0000001	-418.1384394
0.6406250	0.5000000	15.8607835	-0.0307025	-0.0004169	0.0000000	0.0000000	15.7613946	-0.0003278	-613.7947967
0.6406250	0.7500000	15.8110313	0.0000055	0.0251855	0.0000000	0.0000000	25.5021900	-0.0000008	-841.1342580
0.6406250	1.0000000	15.8607986	0.0306989	-0.0004525	0.0000000	0.0000000	15.7613230	0.0003271	-614.9492746
0.6484375	0.0000000	15.8607823	0.0287477	-0.0004534	0.0000000	0.0000000	15.7592330	0.0003407	-615.2184813
0.6484375	0.2500000	15.9134615	0.0000024	-0.0167893	0.0000000	0.0000000	5.5384179	0.0000001	-423.7796016
0.6484375	0.5000000	15.8607669	-0.0287522	-0.0004179	0.0000000	0.0000000	15.7592556	-0.0003408	-612.8574941
0.6484375	0.7500000	15.8091266	0.0000053	0.0235727	0.0000000	0.0000000	25.8789151	-0.0000003	-835.2594556
0.6484375	1.0000000	15.8607823	0.0287477	-0.0004534	0.0000000	0.0000000	15.7592330	0.0003407	-615.2184813
0.6562500	0.0000000	15.8607645	0.0267393	-0.0004444	0.0000000	0.0000000	15.7572137	0.0003543	-613.9661300
0.6562500	0.2500000	15.9151049	0.0000014	-0.0153405	0.0000000	0.0000000	5.1753568	0.0000000	-432.1138178
0.6562500	0.5000000	15.8607536	-0.0267447	-0.0004131	0.0000000	0.0000000	15.7571527	-0.0003535	-612.9342179
0.6562500	0.7500000	15.8073642	0.0000057	0.0218822	0.0000000	0.0000000	26.2312412	0.0000007	-829.7851431
0.6562500	1.0000000	15.8607645	0.0267393	-0.0004444	0.0000000	0.0000000	15.7572137	0.0003543	-613.9661300
0.6640625	0.0000000	15.8607512	0.0246790	-0.0004434	0.0000000	0.0000000	15.7552488	0.0003669	-613.9870467
0.6640625	0.2500000	15.9166151	0.0000007	-0.0139070	0.0000000	0.0000000	4.8379056	-0.0000000	-436.7351566
0.6640625	0.5000000	15.8607398	-0.0246856	-0.0004085	0.0000000	0.0000000	15.7551912	-0.0003662	-616.4644625
0.6640625	0.7500000	15.8057442	0.0000061	0.0201435	0.0000000	0.0000000	26.5584399	0.0000008	-822.7702602
0.6640625	1.0000000	15.8607512	0.0246790	-0.0004434	0.0000000	0.0000000	15.7552488	0.0003669	-613.9870467
0.6718750	0.0000000	15.8607418	0.0225733	-0.0004443	0.0000000	0.0000000	15.7533625	0.0003777	-613.6301345
0.6718750	0.2500000	15.9179882	-0.0000007	-0.0125005	0.0000000	0.0000000	4.5268870	-0.0000000	-441.2913972
0.6718750	0.5000000	15.8607293	-0.0225805	-0.0004079	0.0000000	0.0000000	15.7534043	-0.0003783	-617.4099930
0.6718750	0.7500000	15.8042626	0.0000064	0.0183662	0.0000000	0.0000000	26.8598237	-0.0000004	-816.5551237
0.6718750	1.0000000	15.8607418	0.0225733	-0.0004443	0.0000000	0.0000000	15.7533625	0.0003777	-613.6301345
0.6796875	0.0000000	15.8607308	0.0204266	-0.0004383	0.0000000	0.0000000	15.7516178	0.0003874	-614.6504088
0.6796875	0.2500000	15.9192281	-0.0000019	-0.0111303	0.0000000	0.0000000	4.2430748	0.0000000	-445.2832550
0.6796875	0.5000000	15.8607162	-0.0204354	-0.0003958	0.0000000	0.0000000	15.7517387	-0.0003891	-617.8671805
0.6796875	0.7500000	15.8029286	0.0000070	0.0165331	0.0000000	0.0000000	27.1346561	-0.0000018	-808.8329081
0.6796875	1.0000000	15.8607308	0.0204266	-0.0004383	0.0000000	0.0000000	15.7516178	0.0003874	-614.6504088
0.6875000	0.0000000	15.8607209	0.0182454	-0.0004384	0.0000000	0.0000000	15.7500500	0.0003971	-617.8578147
0.6875000	0.2500000	15.9203304	-0.0000041	-0.0097825	0.0000000	0.0000000	3.9871901	0.0000001	-453.5939613
0.6875000	0.5000000	15.8607040	-0.0182549	-0.0003891	0.0000000	0.0000000	15.7501432	-0.0003981	-616.0017707
0.6875000	0.7500000	15.8017396	0.0000075	0.0146691	0.0000000	0.0000000	27.3822428	-0.0000015	-800.1343855
0.6875000	1.0000000	15.8607209	0.0182454	-0.0004384	0.0000000	0.0000000	15.7500500	0.0003971	-617.8578147
0.6953125	0.0000000	15.8607103	0.0160343	-0.0004338	0.0000000	0.0000000	15.7486519	0.0004065	-618.7071693
0.6953125	0.2500000	15.9212961	-0.0000060	-0.0084653	0.0000000	0.0000000	3.7598823	0.0000001	-463.9981634
0.6953125	0.5000000	15.8606924	-0.0160450	-0.0003739	0.0000000	0.0000000	15.7486519	-0.0004060	-615.7441922
0.6953125	0.7500000	15.8006944	0.0000080	0.0127623	0.0000000	0.0000000	27.6019911	-0.0000001	-792.1604859
0.6953125	1.0000000	15.8607103	0.0160343	-0.0004338	0.0000000	0.0000000	15.7486519	0.0004065	-618.7071693
0.7031250	0.0000000	15.8607003	0.0137983	-0.0004238	0.0000000	0.0000000	15.7473832	0.0004145	-618.8105019
0.7031250	0.2500000	15.9221235	-0.0000076	-0.0071740	0.0000000	0.0000000	3.5617186	0.0000000	-475.0128899
0.7031250	0.5000000	15.8606834	-0.0138104	-0.0003573	0.0000000	0.0000000	15.7473446	-0.0004135	-618.3831328
0.7031250	0.7500000	15.7997886	0.0000087	0.0108205	0.0000000	0.0000000	27.7934432	0.0000007	-784.1913066
0.7031250	1.0000000	15.8607003	0.0137983	-0.0004238	0.0000000	0.0000000	15.7473832	0.0004145	-618.8105019
0.7109375	0.0000000	15.8606861	0.0115424	-0.0004155	0.0000000	0.0000000	15.7462606	0.0004206	-617.6915975
0.7109375	0.2500000	15.9228203	-0.0000093	-0.0059044	0.0000000	0.0000000	3.3931914	-0.0000000	-486.3333052
0.7109375	0.5000000	15.8606717	-0.0115555	-0.0003344	0.0000000	0.0000000	15.7462857	-0.0004207	-619.9944459
0.7109375	0.7500000	15.7990237	0.0000091	0.0088529	0.0000000	0.0000000	27.9562685	-0.0000001	-777.8375532
0.7109375	1.0000000	15.8606861	0.0115424	-0.0004155	0.0000000	0.0000000	15.7462606	0.0004206	-617.6915975
0.7187500	0.0000000	15.8606691	0.0092711	-0.0003923	0.0000000	0.0000000	15.7453423	0.0004249	-617.7532657
0.7187500	0.2500000	15.9233850	-0.0000106	-0.0046691	0.0000000	0.0000000	3.2547192	-0.0000000	-498.5485799
0.7187500	0.5000000	15.8606579	-0.0092846	-0.0002978	0.0000000	0.0000000	15.7454378	-0.0004265	-619.1984713
0.7187500	0.7500000	15.7983994	0.0000091	0.0068549	0.0000000	0.0000000	28.0901526	-0.0000015	-770.6199417
0.7187500	1.0000000	15.8606691	0.0092711	-0.0003923	0.0000000	0.0000000	15.7453423	0.0004249	-617.7532657
0.7265625	0.0000000	15.8606546	0.0069872	-0.0003638	0.0000000	0.0000000	15.7446474	0.0004285	-619.1916018
0.7265625	0.2500000	15.9238122	-0.0000107	-0.0034420	0.0000000	0.0000000	3.1466512	-0.0000000	-511.6811032
0.7265625	0.5000000	15.8606458	-0.0070017	-0.0002686	0.0000000	0.0000000	15.7447260	-0.0004301	-616.0892487
0.7265625	0.7500000	15.7979117	0.0000095	0.0048458	0.0000000	0.0000000	28.1946438	-0.0000017	-763.1820827
0.7265625	1.0000000	15.8606546	0.0069872	-0.0003638	0.0000000	0.0000000	15.7446474	0.0004285	-619.1916018
0.7343750	0.0000000	15.8606394	0.0046950	-0.0003193	0.0000000	0.0000000	15.7441564	0.0004314	-620.4362089
0.7343750	0.2500000	15.9241042	-0.0000114	-0.0022293	0.0000000	0.0000000	3.0692607	0.0000000	-526.1978845
0.7343750	0.5000000	15.8606361	-0.0047088	-0.0002295	0.0000000	0.0000000	15.7441321	-0.0004313	-615.6828996
0.7343750	0.7500000	15.7975605	0.0000092	0.0028122	0.0000000	0.0000000	28.2694411	-0.0000000	-753.6578861
0.7343750	1.0000000	15.8606394	0.0046950	-0.0003193	0.0000000	0.0000000	15.7441564	0.0004314	-620.4362089
0.7421875	0.0000000	15.8606234	0.0023967	-0.0002794	0.0000000	0.0000000	15.7438664	0.0004334	-622.2072281
0.7421875	0.2500000	15.9242638	-0.0000113	-0.0010138	0.0000000	0.0000000	3.0227489	0.0000000	-541.9680006
0.7421875	0.5000000	15.8606263	-0.0024097	-0.0001888	0.0000000	0.0000000	15.7437636	-0.0004316	-617.1477317
0.7421875	0.7500000	15.7973477	0.0000087	0.0007790	0.0000000	0.0000000	28.3144220	0.0000017	-745.1821825
0.7421875	1.0000000	15.8606234	0.0023967	-0.0002794	0.0000000	0.0000000	15.7438664	0.0004334	-622.2072281
0.7500000	0.0000000	15.8606101	0.0000947	-0.0002482	0.0000000	0.0000000	15.7437937	0.0004338	-620.8183742
0.7500000	0.2500000	15.9242922	-0.0000106	0.0002164	0.0000000	0.0000000	3.0072344	0.0000000	-559.2015911
0.7500000	0.5000000	15.8606170	-0.0001070	-0.0001482	0.0000000	0.0000000	15.7437075	-0.0004321	-620.7591644
0.7500000	0.7500000	15.7972715	0.0000083	-0.0012505	0.0000000	0.0000000	28.3295861	0.0000018	-737.1562334
0.7500000	1.0000000	15.8606101	0.0000947	-0.0002482	0.0000000	0.0000000	15.7437937	0.0004338	-620.8183742
0.7578125	0.0000000	15.8605991	-0.0022073	-0.0002086	0.0000000	0.0000000	15.7439299	0.0004321	-621.0681525
0.7578125	0.2500000	15.9241877	-0.0000100	0.0014454	0.0000000	0.0000000	3.0227490	-0.0000000	-574.7647280
0.7578125	0.5000000	15.8606104	0.0021964	-0.0001090	0.0000000	0.0000000	15.7439140	-0.0004321	-623.8094580
0.7578125	0.7500000	15.7973350	0.0000079	-0.0032627	0.0000000	0.0000000	28.3148893	0.0000004	-728.3292200
0.7578125	1.0000000	15.8605991	-0.0022073	-0.0002086	0.0000000	0.0000000	15.7439299	0.0004321	-621.0681525
0.7656250	0.0000000	15.8605911	-0.0045075	-0.0001652	0.0000000	0.0000000	15.7442703	0.0004291	-621.5482508
0.7656250	0.2500000	15.9239546	-0.0000087	0.0026969	0.0000000	0.0000000	3.0692478	-0.0000001	-593.4259655
0.7656250	0.5000000	15.8606043	0.0044980	-0.0000825	0.0000000	0.0000000	15.7442744	-0.0004299	-623.7127371
0.7656250	0.7500000	15.7975392	0.0000075	-0.0052609	0.0000000	0.0000000	28.2702426	-0.0000004	-718.6745117
0.7656250	1.0000000	15.8605911	-0.0045075	-0.0001652	0.0000000	0.0000000	15.7442703	0.0004291	-621.5482508
0.7734375	0.0000000	15.8605854	-0.0068025	-0.0001102	0.0000000	0.0000000	15.7448060	0.0004254	-623.3217423
0.7734375	0.2500000	15.9235925	-0.0000073	0.0039529	0.0000000	0.0000000	3.1466174	-0.0000000	-613.1625531
0.7734375	0.5000000	15.8606019	0.0067946	-0.0000429	0.0000000	0.0000000	15.7447716	-0.0004256	-622.5902337
0.7734375	0.7500000	15.7978877	0.0000069	-0.0072528	0.0000000	0.0000000	28.1957188	0.0000000	-709.8455635
0.7734375	1.0000000	15.8605854	-0.0068025	-0.0001102	0.0000000	0.0000000	15.7448060	0.0004254	-623.3217423
0.7812500	0.0000000	15.8605802	-0.0090896	-0.0000678	0.0000000	0.0000000	15.7455652	0.0004210	-625.4701066
0.7812500	0.2500000	15.9231081	-0.0000060	0.0052337	0.0000000	0.0000000	3.2546732	-0.0000000	-631.7500687
0.7812500	0.5000000	15.8605996	0.0090838	-0.0000024	0.0000000	0.0000000	15.7454906	-0.0004203	-624.0279083
0.7812500	0.7500000	15.7983849	0.0000061	-0.0092160	0.0000000	0.0000000	28.0916354	0.0000008	-701.7469144
0.7812500	1.0000000	15.8605802	-0.0090896	-0.0000678	0.0000000	0.0000000	15.7455652	0.0004210	-625.4701066
0.7890625	0.0000000	15.8605839	-0.0113652	-0.0000188	0.0000000	0.0000000	15.7465519	0.0004154	-625.7297061
0.7890625	0.2500000	15.9224956	-0.0000040	0.0065439	0.0000000	0.0000000	3.3931442	-0.0000000	-647.8693987
0.7890625	0.5000000	15.8606058	0.0113615	0.0000312	0.0000000	0.0000000	15.7464864	-0.0004145	-625.2305074
0.7890625	0.7500000	15.7990195	0.0000051	-0.0111627	0.0000000	0.0000000	27.9583153	0.0000011	-694.9135807
0.7890625	1.0000000	15.8605839	-0.0113652	-0.0000188	0.0000000	0.0000000	15.7465519	0.0004154	-625.7297061
0.7968750	0.0000000	15.8605952	-0.0136260	0.0000240	0.0000000	0.0000000	15.7477201	0.0004080	-625.7392865
0.7968750	0.2500000	15.9217568	-0.0000020	0.0078843	0.0000000	0.0000000	3.5616686	-0.0000000	-660.9974879
0.7968750	0.5000000	15.8606163	0.0136237	0.0000546	0.0000000	0.0000000	15.7476989	-0.0004076	-626.2972227
0.7968750	0.7500000	15.7997984	0.0000043	-0.0130745	0.0000000	0.0000000	27.7959832	0.0000006	-686.5399442
0.7968750	1.0000000	15.8605952	-0.0136260	0.0000240	0.0000000	0.0000000	15.7477201	0.0004080	-625.7392865
0.8046875	0.0000000	15.8606093	-0.0158669	0.0000626	0.0000000	0.0000000	15.7490367	0.0003988	-624.5775356
0.8046875	0.2500000	15.9208971	-0.0000004	0.0092472	0.0000000	0.0000000	3.7598160	-0.0000000	-675.4495321
0.8046875	0.5000000	15.8606293	0.0158664	0.0000844	0.0000000	0.0000000	15.7490203	-0.0003988	-625.5310838
0.8046875	0.7500000	15.8007258	0.0000035	-0.0149587	0.0000000	0.0000000	27.6048314	0.0000003	-677.1272667
0.8046875	1.0000000	15.8606093	-0.0158669	0.0000626	0.0000000	0.0000000	15.7490367	0.0003988	-624.5775356
0.8125000	0.0000000	15.8606311	-0.0180831	0.0000930	0.0000000	0.0000000	15.7505135	0.0003889	-625.7892186
0.8125000	0.2500000	15.9199070	0.0000004	0.0106370	0.0000000	0.0000000	3.9870989	-0.0000000	-691.1618431
0.8125000	0.5000000	15.8606495	0.0180845	0.0001119	0.0000000	0.0000000	15.7504586	-0.0003886	-625.9703637
0.8125000	0.7500000	15.8017967	0.0000025	-0.0168054	0.0000000	0.0000000	27.3853120	0.0000005	-667.3446969
0.8125000	1.0000000	15.8606311	-0.0180831	0.0000930	0.0000000	0.0000000	15.7505135	0.0003889	-625.7892186
0.8203125	0.0000000	15.8606566	-0.0202702	0.0001188	0.0000000	0.0000000	15.7521648	0.0003785	-627.8059788
0.8203125	0.2500000	15.9187916	0.0000012	0.0120601	0.0000000	0.0000000	4.2429603	-0.0000000	-705.8409569
0.8203125	0.5000000	15.8606739	0.0202728	0.0001260	0.0000000	0.0000000	15.7520944	-0.0003780	-628.3898456
0.8203125	0.7500000	15.8030133	0.0000019	-0.0186147	0.0000000	0.0000000	27.1380319	0.0000007	-658.1079889
0.8203125	1.0000000	15.8606566	-0.0202702	0.0001188	0.0000000	0.0000000	15.7521648	0.0003785	-627.8059788
0.8281250	0.0000000	15.8606846	-0.0224221	0.0001330	0.0000000	0.0000000	15.7539683	0.0003673	-628.8766108
0.8281250	0.2500000	15.9175496	0.0000019	0.0135115	0.0000000	0.0000000	4.5267521	-0.0000000	-719.1379921
0.8281250	0.5000000	15.8607010	0.0224255	0.0001299	0.0000000	0.0000000	15.7539318	-0.0003669	-631.1484399
0.8281250	0.7500000	15.8043755	0.0000015	-0.0203758	0.0000000	0.0000000	26.8636164	0.0000004	-650.5793135
0.8281250	1.0000000	15.8606846	-0.0224221	0.0001330	0.0000000	0.0000000	15.7539683	0.0003673	-628.8766108
0.8359375	0.0000000	15.8607132	-0.0245330	0.0001358	0.0000000	0.0000000	15.7558650	0.0003549	-628.5935790
0.8359375	0.2500000	15.9161777	0.0000017	0.0149859	0.0000000	0.0000000	4.8377422	0.0000000	-732.8671102
0.8359375	0.5000000	15.8607287	0.0245378	0.0001247	0.0000000	0.0000000	15.7558820	-0.0003550	-630.0972970
0.8359375	0.7500000	15.8058876	0.0000006	-0.0220822	0.0000000	0.0000000	26.5626249	-0.0000001	-642.5067284
0.8359375	1.0000000	15.8607132	-0.0245330	0.0001358	0.0000000	0.0000000	15.7558650	0.0003549	-628.5935790
0.8437500	0.0000000	15.8607474	-0.0265984	0.0001453	0.0000000	0.0000000	15.7578356	0.0003414	-627.8234291
0.8437500	0.2500000	15.9146718	0.0000021	0.0164566	0.0000000	0.0000000	5.1751494	0.0000000	-746.7394296
0.8437500	0.5000000	15.8607611	0.0266033	0.0001297	0.0000000	0.0000000	15.7578590	-0.0003417	-629.1279390
0.8437500	0.7500000	15.8075366	0.0000002	-0.0237519	0.0000000	0.0000000	26.2356561	-0.0000004	-633.9923738
0.8437500	1.0000000	15.8607474	-0.0265984	0.0001453	0.0000000	0.0000000	15.7578356	0.0003414	-627.8234291
0.8515625	0.0000000	15.8607803	-0.0286116	0.0001324	0.0000000	0.0000000	15.7598882	0.0003273	-628.0296513
0.8515625	0.2500000	15.9130354	0.0000016	0.0179585	0.0000000	0.0000000	5.5381502	-0.0000000	-760.7592875
0.8515625	0.5000000	15.8607914	0.0286175	0.0001136	0.0000000	0.0000000	15.7598581	-0.0003274	-627.8744235
0.8515625	0.7500000	15.8093277	-0.0000005	-0.0253482	0.0000000	0.0000000	25.8834913	0.0000000	-623.6737736
0.8515625	1.0000000	15.8607803	-0.0286116	0.0001324	0.0000000	0.0000000	15.7598882	0.0003273	-628.0296513
0.8593750	0.0000000	15.8608078	-0.0305680	0.0001165	0.0000000	0.0000000	15.7620022	0.0003128	-627.3799787
0.8593750	0.2500000	15.9112744	0.0000016	0.0194592	0.0000000	0.0000000	5.9258499	-0.0000001	-774.7798554
0.8593750	0.5000000	15.8608200	0.0305741	0.0000933	0.0000000	0.0000000	15.7619454	-0.0003127	-627.1040679
0.8593750	0.7500000	15.8112593	-0.0000012	-0.0268765	0.0000000	0.0000000	25.5069349	0.0000003	-614.7813829
0.8593750	1.0000000	15.8608078	-0.0305680	0.0001165	0.0000000	0.0000000	15.7620022	0.0003128	-627.3799787
0.8671875	0.0000000	15.8608416	-0.0324622	0.0001058	0.0000000	0.0000000	15.7641437	0.0002977	-628.7991063
0.8671875	0.2500000	15.9093749	0.0000017	0.0209377	0.0000000	0.0000000	6.3372626	-0.0000000	-784.8248351
0.8671875	0.5000000	15.8608512	0.0324680	0.0000839	0.0000000	0.0000000	15.7641210	-0.0002977	-628.8889095
0.8671875	0.7500000	15.8133176	-0.0000017	-0.0283436	0.0000000	0.0000000	25.1068859	0.0000000	-605.7799146
0.8671875	1.0000000	15.8608416	-0.0324622	0.0001058	0.0000000	0.0000000	15.7641437	0.0002977	-628.7991063
0.8750000	0.0000000	15.8608738	-0.0342879	0.0000892	0.0000000	0.0000000	15.7663025	0.0002819	-629.6808654
0.8750000	0.2500000	15.9073447	0.0000014	0.0224269	0.0000000	0.0000000	6.7713396	0.0000000	-794.4309068
0.8750000	0.5000000	15.8608817	0.0342940	0.0000674	0.0000000	0.0000000	15.7663366	-0.0002822	-629.2981170
0.8750000	0.7500000	15.8155038	-0.0000024	-0.0297461	0.0000000	0.0000000	24.6842728	-0.0000004	-598.8414088
0.8750000	1.0000000	15.8608738	-0.0342879	0.0000892	0.0000000	0.0000000	15.7663025	0.0002819	-629.6808654
0.8828125	0.0000000	15.8609010	-0.0360401	0.0000693	0.0000000	0.0000000	15.7684890	0.0002656	-631.3618991
0.8828125	0.2500000	15.9051961	0.0000015	0.0239038	0.0000000	0.0000000	7.2269995	0.0000000	-804.9947659
0.8828125	0.5000000	15.8609095	0.0360464	0.0000426	0.0000000	0.0000000	15.7685291	-0.0002660	-630.0334940
0.8828125	0.7500000	15.8178131	-0.0000031	-0.0310558	0.0000000	0.0000000	24.2400774	-0.0000004	-590.6704605
0.8828125	1.0000000	15.8609010	-0.0360401	0.0000693	0.0000000	0.0000000	15.7684890	0.0002656	-631.3618991
0.8906250	0.0000000	15.8609291	-0.0377135	0.0000426	0.0000000	0.0000000	15.7706938	0.0002492	-631.8823657
0.8906250	0.2500000	15.9029233	0.0000017	0.0253591	0.0000000	0.0000000	7.7031244	-0.0000001	-816.9115299
0.8906250	0.5000000	15.8609347	0.0377193	0.0000254	0.0000000	0.0000000	15.7706679	-0.0002491	-629.6492545
0.8906250	0.7500000	15.8202443	-0.0000034	-0.0322787	0.0000000	0.0000000	23.7752872	0.0000002	-581.0454687
0.8906250	1.0000000	15.8609291	-0.0377135	0.0000426	0.0000000	0.0000000	15.7706938	0.0002492	-631.8823657
0.8984375	0.0000000	15.8609565	-0.0393021	0.0000210	0.0000000	0.0000000	15.7728427	0.0002324	-631.0835120
0.8984375	0.2500000	15.9005339	0.0000017	0.0267855	0.0000000	0.0000000	8.1985347	-0.0000002	-828.5172364
0.8984375	0.5000000	15.8609618	0.0393079	0.0000039	0.0000000	0.0000000	15.7727528	-0.0002319	-630.3742833
0.8984375	0.7500000	15.8227838	-0.0000039	-0.0334103	0.0000000	0.0000000	23.2909253	0.0000007	-571.6497959
0.8984375	1.0000000	15.8609565	-0.0393021	0.0000210	0.0000000	0.0000000	15.7728427	0.0002324	-631.0835120
0.9062500	0.0000000	15.8609846	-0.0408010	0.0000063	0.0000000	0.0000000	15.7748733	0.0002151	-629.8752409
0.9062500	0.2500000	15.8980371	0.0000020	0.0281716	0.0000000	0.0000000	8.7119924	-0.0000001	-838.2556907
0.9062500	0.5000000	15.8609899	0.0408067	-0.0000178	0.0000000	0.0000000	15.7747946	-0.0002145	-631.4471758
0.9062500	0.7500000	15.8254263	-0.0000047	-0.0344483	0.0000000	0.0000000	22.7881784	0.0000006	-563.7991416
0.9062500	1.0000000	15.8609846	-0.0408010	0.0000063	0.0000000	0.0000000	15.7748733	0.0002151	-629.8752409
0.9140625	0.0000000	15.8610149	-0.0422052	-0.0000213	0.0000000	0.0000000	15.7768038	0.0001973	-628.0697402
0.9140625	0.2500000	15.8954344	0.0000025	0.0295154	0.0000000	0.0000000	9.2422103	0.0000000	-847.1536366
0.9140625	0.5000000	15.8610169	0.0422100	-0.0000376	0.0000000	0.0000000	15.7767975	-0.0001971	-631.9078026
0.9140625	0.7500000	15.8281684	-0.0000049	-0.0353777	0.0000000	0.0000000	22.2682839	0.0000001	-558.1423363
0.9140625	1.0000000	15.8610149	-0.0422052	-0.0000213	0.0000000	0.0000000	15.7768038	0.0001973	-628.0697402
0.9218750	0.0000000	15.8610407	-0.0435091	-0.0000388	0.0000000	0.0000000	15.7786473	0.0001791	-627.2007451
0.9218750	0.2500000	15.8927394	0.0000029	0.0308050	0.0000000	0.0000000	9.7878711	0.0000002	-854.7934284
0.9218750	0.5000000	15.8610401	0.0435133	-0.0000638	0.0000000	0.0000000	15.7787087	-0.0001793	-630.2381404
0.9218750	0.7500000	15.8310074	-0.0000052	-0.0362122	0.0000000	0.0000000	21.7324666	-0.0000005	-551.4143377
0.9218750	1.0000000	15.8610407	-0.0435091	-0.0000388	0.0000000	0.0000000	15.7786473	0.0001791	-627.2007451
0.9296875	0.0000000	15.8610658	-0.0447080	-0.0000546	0.0000000	0.0000000	15.7803804	0.0001605	-626.0474890
0.9296875	0.2500000	15.8899579	0.0000036	0.0320247	0.0000000	0.0000000	10.3476165	0.0000002	-861.4674442
0.9296875	0.5000000	15.8610645	0.0447115	-0.0000812	0.0000000	0.0000000	15.7804461	-0.0001609	-628.4173506
0.9296875	0.7500000	15.8339281	-0.0000055	-0.0369520	0.0000000	0.0000000	21.1818757	-0.0000006	-543.2536139
0.9296875	1.0000000	15.8610658	-0.0447080	-0.0000546	0.0000000	0.0000000	15.7803804	0.0001605	-626.0474890
0.9375000	0.0000000	15.8610957	-0.0457964	-0.0000743	0.0000000	0.0000000	15.7819480	0.0001417	-627.0273231
0.9375000	0.2500000	15.8870927	0.0000041	0.0331672	0.0000000	0.0000000	10.9200675	0.0000002	-867.4826436
0.9375000	0.5000000	15.8610875	0.0457993	-0.0001000	0.0000000	0.0000000	15.7819859	-0.0001422	-626.8905213
0.9375000	0.7500000	15.8369162	-0.0000056	-0.0375819	0.0000000	0.0000000	20.6177516	-0.0000005	-534.2423960
0.9375000	1.0000000	15.8610957	-0.0457964	-0.0000743	0.0000000	0.0000000	15.7819480	0.0001417	-627.0273231
0.9453125	0.0000000	15.8611178	-0.0467693	-0.0001000	0.0000000	0.0000000	15.7833534	0.0001230	-628.7497764
0.9453125	0.2500000	15.8841543	0.0000048	0.0342201	0.0000000	0.0000000	11.5038180	0.0000001	-873.3599550
0.9453125	0.5000000	15.8611094	0.0467713	-0.0001152	0.0000000	0.0000000	15.7833849	-0.0001233	-626.2849754
0.9453125	0.7500000	15.8399744	-0.0000054	-0.0381000	0.0000000	0.0000000	20.0414900	-0.0000003	-527.7778636
0.9453125	1.0000000	15.8611178	-0.0467693	-0.0001000	0.0000000	0.0000000	15.7833534	0.0001230	-628.7497764
0.9531250	0.0000000	15.8611413	-0.0476222	-0.0001158	0.0000000	0.0000000	15.7846342	0.0001042	-631.1391560
0.9531250	0.2500000	15.8811420	0.0000056	0.0351617	0.0000000	0.0000000	12.0974382	0.0000001	-876.4120862
0.9531250	0.5000000	15.8611356	0.0476233	-0.0001323	0.0000000	0.0000000	15.7846764	-0.0001044	-627.4857486
0.9531250	0.7500000	15.8430843	-0.0000052	-0.0385016	0.0000000	0.0000000	19.4545921	-0.0000002	-522.2057120
0.9531250	1.0000000	15.8611413	-0.0476222	-0.0001158	0.0000000	0.0000000	15.7846342	0.0001042	-631.1391560
0.9609375	0.0000000	15.8611670	-0.0483516	-0.0001288	0.0000000	0.0000000	15.7857753	0.0000852	-630.0497973
0.9609375	0.2500000	15.8780608	0.0000065	0.0360105	0.0000000	0.0000000	12.6994533	0.0000001	-879.4074560
0.9609375	0.5000000	15.8611580	0.0483512	-0.0001447	0.0000000	0.0000000	15.7858065	-0.0000852	-626.2241908
0.9609375	0.7500000	15.8462392	-0.0000042	-0.0388068	0.0000000	0.0000000	18.8584187	0.0000000	-517.0406706
0.9609375	1.0000000	15.8611670	-0.0483516	-0.0001288	0.0000000	0.0000000	15.7857753	0.0000852	-630.0497973
0.9687500	0.0000000	15.8611844	-0.0489537	-0.0001708	0.0000000	0.0000000	15.7866983	0.0000659	-627.6592815
0.9687500	0.2500000	15.8749319	0.0000072	0.0367981	0.0000000	0.0000000	13.3083756	-0.0000001	-881.9181590
0.9687500	0.5000000	15.8611746	0.0489523	-0.0001906	0.0000000	0.0000000	15.7866866	-0.0000657	-625.8946078
0.9687500	0.7500000	15.8494363	-0.0000034	-0.0389639	0.0000000	0.0000000	18.2542625	0.0000002	-507.6735640
0.9687500	1.0000000	15.8611844	-0.0489537	-0.0001708	0.0000000	0.0000000	15.7866983	0.0000659	-627.6592815
0.9765625	0.0000000	15.8612000	-0.0494260	-0.0002141	0.0000000	0.0000000	15.7873684	0.0000463	-624.3153634
0.9765625	0.2500000	15.8717594	0.0000077	0.0374726	0.0000000	0.0000000	13.9227380	-0.0000002	-886.2913670
0.9765625	0.5000000	15.8611878	0.0494234	-0.0002300	0.0000000	0.0000000	15.7873269	-0.0000462	-624.9745998
0.9765625	0.7500000	15.8526599	-0.0000022	-0.0389987	0.0000000	0.0000000	17.6435299	0.0000002	-499.1598649
0.9765625	1.0000000	15.8612000	-0.0494260	-0.0002141	0.0000000	0.0000000	15.7873684	0.0000463	-624.3153634
0.9843750	0.0000000	15.8612010	-0.0497665	-0.0002383	0.0000000	0.0000000	15.7878271	0.0000269	-624.7124742
0.9843750	0.2500000	15.8685600	0.0000083	0.0380068	0.0000000	0.0000000	14.5410827	-0.0000000	-889.1665212
0.9843750	0.5000000	15.8611906	0.0497626	-0.0002481	0.0000000	0.0000000	15.7878115	-0.0000269	-626.8299334
0.9843750	0.7500000	15.8559127	-0.0000007	-0.0389320	0.0000000	0.0000000	17.0277594	0.0000000	-491.0213426
0.9843750	1.0000000	15.8612010	-0.0497665	-0.0002383	0.0000000	0.0000000	15.7878271	0.0000269	-624.7124742
0.9921875	0.0000000	15.8612041	-0.0499732	-0.0002589	0.0000000	0.0000000	15.7881181	0.0000074	-625.8906293
0.9921875	0.2500000	15.8653269	0.0000083	0.0384319	0.0000000	0.0000000	15.1618976	0.0000002	-892.5583987
0.9921875	0.5000000	15.8611961	0.0499682	-0.0002674	0.0000000	0.0000000	15.7881604	-0.0000076	-626.5594109
0.9921875	0.7500000	15.8591657	0.0000009	-0.0387459	0.0000000	0.0000000	16.4084968	-0.0000002	-484.8689659
0.9921875	1.0000000	15.8612041	-0.0499732	-0.0002589	0.0000000	0.0000000	15.7881181	0.0000074	-625.8906293
1.0000000	0.0000000	15.8612057	-0.0500453	-0.0002925	0.0000000	0.0000000	15.7882245	-0.0000120	-629.0124622
1.0000000	0.2500000	15.8620712	0.0000082	0.0387637	0.0000000	0.0000000	15.7836268	0.0000002	-892.1172120
1.0000000	0.5000000	15.8611996	0.0500393	-0.0003019	0.0000000	0.0000000	15.7882723	0.0000118	-626.7564413
1.0000000	0.7500000	15.8624163	0.0000025	-0.0384222	0.0000000	0.0000000	15.7871716	-0.0000001	-476.4235423
1.0000000	1.0000000	15.8612057	-0.0500453	-0.0002925	0.0000000	0.0000000	15.7882245	-0.0000120	-629.0124622
