0.0000000	20.8662225	8.0455210	2.2537825	59.3732328	74.8437816
0.0078125	20.6594556	7.9913726	2.2780030	59.4623393	-8.9637101
0.0156250	20.4285725	7.9604612	2.2638020	59.4626808	73.4910533
0.0234375	20.1802595	7.8539432	2.2883804	59.6553393	-10.0084005
0.0312500	19.9069586	7.7769272	2.2730506	59.7127302	71.4387414
0.0390625	19.6169783	7.6179523	2.2952767	59.9895398	-11.8153041
0.0468750	19.3022845	7.4947702	2.2764447	60.1064705	69.3516241
0.0546875	18.9723804	7.2840216	2.2945315	60.4460627	-11.9366099
0.0625000	18.6187787	7.1155342	2.2733058	60.6287082	68.3360029
0.0703125	18.2528327	6.8544311	2.2895724	61.0236968	-11.4839267
0.0781250	17.8660861	6.6440175	2.2665601	61.2629506	67.4738125
0.0859375	17.4712811	6.3378579	2.2819828	61.7015568	-10.8790535
0.0937500	17.0601809	6.0909335	2.2566390	61.9806397	66.5639201
0.1015625	16.6467243	5.7464859	2.2718971	62.4589247	-10.1040427
0.1093750	16.2229501	5.4692874	2.2447341	62.7735582	65.4331750
0.1171875	15.8037840	5.0955911	2.2607025	63.2754553	-9.4356670
0.1250000	15.3812476	4.7981422	2.2300140	63.6053558	62.1211771
0.1328125	14.9714877	4.4072371	2.2454602	64.1155655	-12.9328390
0.1406250	14.5665855	4.0994751	2.2137117	64.4492872	56.7724393
0.1484375	14.1828783	3.7046480	2.2308248	64.9523920	-16.3430465
0.1562500	13.8125683	3.3984553	2.1986133	65.2746100	50.9883128
0.1640625	13.4716901	3.0139749	2.2166860	65.7362507	-19.5569287
0.1718750	13.1524543	2.7202030	2.1837195	66.0193003	44.9042662
0.1796875	12.8692932	2.3590630	2.2018532	66.4233016	-22.4624750
0.1875000	12.6149437	2.0868027	2.1669620	66.6479986	38.5423808
0.1953125	12.4013960	1.7586433	2.1831257	66.9502194	-23.8766303
0.2031250	12.2219235	1.5108500	2.1436813	67.0906537	33.7157301
0.2109375	12.0838068	1.2177824	2.1568423	67.2857161	-22.9941279
0.2187500	11.9801448	0.9896191	2.1135329	67.3340498	29.0214804
0.2265625	11.9132833	0.7225939	2.1251245	67.4327547	-21.6132536
0.2343750	11.8711185	0.4982407	2.0821285	67.4114951	24.5522426
0.2421875	11.8549461	0.2395126	2.0993513	67.4554869	-19.4603458
0.2500000	11.8480408	0.0070497	2.0666349	67.4171161	20.4404490
0.2578125	11.8513040	-0.2500836	2.0985388	67.4513101	-16.9907065
0.2656250	11.8690389	-0.4868057	2.0815208	67.4112842	15.9478334
0.2734375	11.9071524	-0.7391724	2.1239680	67.4217158	-15.4368426
0.2812500	11.9709634	-0.9771857	2.1146403	67.3453431	10.3712938
0.2890625	12.0731034	-1.2376411	2.1559785	67.2724222	-15.3273770
0.2968750	12.2093046	-1.4950766	2.1473010	67.1198442	4.0973481
0.3046875	12.3872228	-1.7801080	2.1817001	66.9366757	-16.2564639
0.3125000	12.6005836	-2.0687368	2.1724796	66.6895107	-1.6773819
0.3203125	12.8525894	-2.3825085	2.1990380	66.4025154	-16.2218496
0.3281250	13.1367302	-2.7012380	2.1907148	66.0714784	-5.4367534
0.3359375	13.4534025	-3.0386267	2.2119854	65.7055721	-15.9065113
0.3437500	13.7964147	-3.3791246	2.2069172	65.3241370	-9.0566033
0.3515625	14.1640999	-3.7303322	2.2245560	64.9162901	-16.3606607
0.3593750	14.5508642	-4.0804701	2.2232653	64.5134537	-12.5805135
0.3671875	14.9536510	-4.4333358	2.2383030	64.0830269	-17.6540577
0.3750000	15.3671790	-4.7801522	2.2403641	63.6695249	-16.2161069
0.3828125	15.7879333	-5.1225397	2.2534972	63.2422233	-19.5582076
0.3906250	16.2111222	-5.4533729	2.2561644	62.8403357	-19.7249763
0.3984375	16.6333577	-5.7730565	2.2651256	62.4395730	-22.2396487
0.4062500	17.0508386	-6.0766455	2.2686382	62.0570083	-22.3389460
0.4140625	17.4600705	-6.3649432	2.2758369	61.6820787	-24.4940754
0.4218750	17.8586652	-6.6325834	2.2793445	61.3427810	-24.2512604
0.4296875	18.2437186	-6.8808823	2.2838726	61.0075474	-26.3316362
0.4375000	18.6129517	-7.1058156	2.2867434	60.7097248	-25.6102516
0.4453125	18.9648518	-7.3090685	2.2891528	60.4362074	-27.7709140
0.4531250	19.2979179	-7.4873020	2.2904362	60.1993151	-26.5830957
0.4609375	19.6111174	-7.6420980	2.2898266	59.9779838	-28.9179180
0.4687500	19.9042916	-7.7707342	2.2876122	59.8027606	-28.3322909
0.4765625	20.1762077	-7.8759344	2.2836839	59.6507984	-30.7654957
0.4843750	20.4271924	-7.9553681	2.2796179	59.5500468	-30.3466516
0.4921875	20.6572770	-8.0118263	2.2732328	59.4742019	-32.6255553
0.5000000	20.8667204	-8.0426848	2.2672355	59.4389427	-32.2349930
0.5078125	21.0557515	-8.0507083	2.2590032	59.4381732	-34.2764197
0.5156250	21.2258519	-8.0342392	2.2510700	59.4806309	-33.9721134
0.5234375	21.3768478	-7.9962192	2.2406637	59.5521816	-35.7433946
0.5312500	21.5103498	-7.9343699	2.2305942	59.6696220	-35.4471429
0.5390625	21.6270600	-7.8524345	2.2177189	59.8049284	-36.9866168
0.5468750	21.7282595	-7.7479531	2.2062384	59.9792168	-36.5562456
0.5546875	21.8146418	-7.6241586	2.1916474	60.1821262	-37.8681229
0.5625000	21.8882518	-7.4789627	2.1784850	60.4185824	-37.2908557
0.5703125	21.9493781	-7.3161684	2.1612014	60.6622391	-38.4037655
0.5781250	21.9999018	-7.1331651	2.1468848	60.9431961	-37.3438290
0.5859375	22.0405933	-6.9337459	2.1267649	61.2317510	-38.0543045
0.5937500	22.0731837	-6.7152444	2.1116186	61.5493673	-35.8566052
0.6015625	22.0981174	-6.4815378	2.0894604	61.8513722	-37.1291609
0.6093750	22.1174867	-6.2300761	2.0751205	62.1922442	-33.7350251
0.6171875	22.1317203	-5.9648926	2.0514143	62.4984023	-35.9844368
0.6250000	22.1422837	-5.6835698	2.0389832	62.8635253	-31.0472674
0.6328125	22.1497367	-5.3900261	2.0129754	63.1627730	-34.6355453
0.6406250	22.1550372	-5.0823237	2.0032967	63.5185339	-27.7056488
0.6484375	22.1586233	-4.7642389	1.9758218	63.7952441	-33.1004646
0.6562500	22.1615473	-4.4341657	1.9705622	64.1443416	-23.6627991
0.6640625	22.1633625	-4.0963885	1.9411186	64.3955363	-31.5826569
0.6718750	22.1645056	-3.7485579	1.9412103	64.7156550	-18.8218468
0.6796875	22.1650526	-3.3950641	1.9102252	64.9305804	-30.1117140
0.6875000	22.1649965	-3.0333097	1.9163948	65.2104602	-13.1857841
0.6953125	22.1645586	-2.6673357	1.8841582	65.3886161	-28.8286187
0.7031250	22.1642888	-2.2944213	1.8962933	65.6149195	-6.8351190
0.7109375	22.1639411	-1.9195896	1.8636862	65.7455415	-27.7112371
0.7187500	22.1636057	-1.5391858	1.8816750	65.9129839	0.1491960
0.7265625	22.1632879	-1.1585574	1.8495949	65.9902292	-26.7437104
0.7343750	22.1631897	-0.7733404	1.8726365	66.0921549	7.6129096
0.7421875	22.1631285	-0.3896519	1.8424596	66.1163474	-25.8809667
0.7500000	22.1633794	-0.0022291	1.8693663	66.1537224	15.3115301
0.7578125	22.1635173	0.3819291	1.8423591	66.1135115	-25.0291831
0.7656250	22.1639732	0.7690593	1.8719138	66.0861922	23.0401710
0.7734375	22.1643603	1.1512744	1.8492749	65.9877616	-24.1005893
0.7812500	22.1651417	1.5355000	1.8803056	65.9011028	30.5485089
0.7890625	22.1657809	1.9130576	1.8627839	65.7367321	-23.0695100
0.7968750	22.1668062	2.2914103	1.8942219	65.6008784	37.7295844
0.8046875	22.1674990	2.6610616	1.8827855	65.3781156	-21.8927574
0.8125000	22.1680859	3.0302218	1.9139950	65.1931603	44.4084785
0.8203125	22.1682844	3.3887637	1.9082105	64.9126486	-20.6338297
0.8281250	22.1680615	3.7455716	1.9377787	64.6868526	50.4527288
0.8359375	22.1672677	4.0893515	1.9383765	64.3738926	-19.2218291
0.8437500	22.1655513	4.4302653	1.9664464	64.1132200	55.8154080
0.8515625	22.1630005	4.7553673	1.9726039	63.7667070	-17.7453278
0.8593750	22.1587862	5.0766654	1.9977264	63.4805390	60.4593731
0.8671875	22.1533401	5.3789092	2.0097096	63.1255216	-16.2339570
0.8750000	22.1448720	5.6769252	2.0314456	62.8173906	64.3219316
0.8828125	22.1340303	5.9520382	2.0482059	62.4634546	-14.6663766
0.8906250	22.1184440	6.2236034	2.0662891	62.1468332	67.4768075
0.8984375	22.0991141	6.4675074	2.0871990	61.8091968	-13.0104798
0.9062500	22.0724869	6.7093112	2.1010043	61.4897117	69.8842766
0.9140625	22.0402092	6.9187124	2.1247613	61.1910920	-11.3621526
0.9218750	21.9979647	7.1284192	2.1350565	60.8877709	71.7507165
0.9296875	21.9481207	7.3004133	2.1601402	60.6276622	-9.8203403
0.9375000	21.8855882	7.4754205	2.1657315	60.3465158	73.4179765
0.9453125	21.8133233	7.6072892	2.1910398	60.1517903	-8.6349944
0.9531250	21.7256316	7.7455632	2.1936787	59.9114507	74.5490681
0.9609375	21.6259902	7.8343633	2.2184014	59.7803500	-7.9220037
0.9687500	21.5080823	7.9333237	2.2181057	59.5942126	75.2494484
0.9765625	21.3764143	7.9770580	2.2421055	59.5353928	-7.7721602
0.9843750	21.2241986	8.0349192	2.2397092	59.4267559	75.4330374
0.9921875	21.0565522	8.0308380	2.2629899	59.4209155	-8.2448644
1.0000000	20.8662225	8.0455210	2.2537825	59.3732328	74.8437816
