0.0000000	25.2347286	1.8454286	2.8953688	75.9771330	122.8115634
0.0078125	22.8895991	1.6819240	2.6908774	74.1158134	306.1591823
0.0156250	20.7101999	1.5197722	2.4908353	72.2026071	-33.0754190
0.0234375	18.6909705	1.3640510	2.3035443	70.3112547	467.3738116
0.0312500	16.8263782	1.2149664	2.1278539	68.4452404	-203.6695089
0.0390625	15.1205867	1.0833027	1.9633710	66.6013893	645.2586905
0.0468750	13.5593914	0.9611923	1.8056665	64.7369394	-270.5792537
0.0546875	12.1382917	0.8477439	1.6595080	62.9219397	520.9013939
0.0625000	10.8486263	0.7436128	1.5228409	61.1166592	-86.9529694
0.0703125	9.6857374	0.6492372	1.3969985	59.3602679	326.6018927
0.0781250	8.6407667	0.5652069	1.2806939	57.6358130	128.4358582
0.0859375	7.7043690	0.4903915	1.1744729	55.9616771	120.2615250
0.0937500	6.8686628	0.4257335	1.0757223	54.3170129	359.6355858
0.1015625	6.1242526	0.3668943	0.9860299	52.7260947	-101.7756300
0.1093750	5.4649023	0.3151628	0.9047208	51.2001912	597.9061735
0.1171875	4.8834211	0.2696507	0.8307733	49.7311291	-308.5166999
0.1250000	4.3707956	0.2303543	0.7633632	48.3225383	574.4068123
0.1328125	3.9203543	0.1963520	0.7026681	46.9808781	-86.3724441
0.1406250	3.5261887	0.1665959	0.6479077	45.7013502	335.2079977
0.1484375	3.1834128	0.1409153	0.5998298	44.5144309	141.0128662
0.1562500	2.8866597	0.1193022	0.5567529	43.3984862	105.2333420
0.1640625	2.6304553	0.0999786	0.5188825	42.3614685	349.2619926
0.1718750	2.4117449	0.0838510	0.4858445	41.4159140	-93.4806079
0.1796875	2.2251272	0.0694901	0.4571386	40.5635659	519.0233792
0.1875000	2.0675346	0.0580425	0.4324683	39.7940463	-251.9113955
0.1953125	1.9340182	0.0478892	0.4111304	39.1115852	562.4670825
0.2031250	1.8221813	0.0392853	0.3926633	38.5001048	-156.3443136
0.2109375	1.7291082	0.0319036	0.3774676	37.9874129	447.8489887
0.2187500	1.6558454	0.0233280	0.3650981	37.5556250	-56.8953249
0.2265625	1.5991479	0.0190433	0.3554816	37.2176386	375.0460619
0.2343750	1.5602179	0.0090762	0.3486562	36.9698615	0.6208431
0.2421875	1.5382148	0.0088782	0.3447579	36.8261199	344.3783748
0.2500000	1.5294962	-0.0026953	0.3432646	36.7740843	14.5528107
0.2578125	1.5390387	-0.0034905	0.3449176	36.8331202	355.0070580
0.2656250	1.5610498	-0.0129648	0.3491623	36.9845329	-9.6858871
0.2734375	1.6000831	-0.0166017	0.3554912	37.2167869	397.9405219
0.2812500	1.6550435	-0.0244128	0.3650449	37.5540136	-68.7397664
0.2890625	1.7275757	-0.0307178	0.3771344	37.9756179	456.6882900
0.2968750	1.8187270	-0.0387799	0.3923943	38.4921651	-140.6907390
0.3046875	1.9292329	-0.0475017	0.4104109	39.0887461	527.6108616
0.3125000	2.0629729	-0.0577151	0.4320525	39.7818900	-181.0239423
0.3203125	2.2214376	-0.0696666	0.4567706	40.5477424	451.6215585
0.3281250	2.4096907	-0.0839497	0.4857153	41.4137760	-21.6578384
0.3359375	2.6302450	-0.1000933	0.5190682	42.3636402	300.0308889
0.3437500	2.8872981	-0.1191647	0.5567101	43.3942375	126.9745821
0.3515625	3.1850965	-0.1412248	0.5999388	44.5168595	150.9892600
0.3593750	3.5279530	-0.1665671	0.6483893	45.7170899	277.2503256
0.3671875	3.9211747	-0.1957876	0.7027830	46.9843386	4.2413107
0.3750000	4.3703462	-0.2297878	0.7633390	48.3243499	424.7908762
0.3828125	4.8824578	-0.2689575	0.8307890	49.7255415	-133.9006983
0.3906250	5.4649218	-0.3145576	0.9046120	51.1991661	429.4891201
0.3984375	6.1241509	-0.3654428	0.9866307	52.7374717	3.4069930
0.4062500	6.8668368	-0.4238010	1.0756387	54.3202911	279.4343416
0.4140625	7.7033767	-0.4909345	1.1737984	55.9496876	140.1153300
0.4218750	8.6407359	-0.5654587	1.2808704	57.6359644	146.6090855
0.4296875	9.6863225	-0.6489843	1.3966106	59.3563372	259.8940749
0.4375000	10.8503148	-0.7428692	1.5232955	61.1209594	28.0254052
0.4453125	12.1389967	-0.8462019	1.6598133	62.9241423	374.0248545
0.4531250	13.5614607	-0.9585196	1.8063665	64.7520732	-84.9569982
0.4609375	15.1229192	-1.0818106	1.9627571	66.5915736	446.8182366
0.4687500	16.8314405	-1.2159479	2.1282016	68.4470063	-48.5729472
0.4765625	18.6930488	-1.3605504	2.3045332	70.3252472	341.1421828
0.4843750	20.7094670	-1.5142425	2.4919258	72.2124411	50.8298152
0.4921875	22.8892273	-1.6772147	2.6890230	74.1024517	245.2520002
0.5000000	25.2327879	-1.8503536	2.8946519	75.9705435	138.9858975
0.5078125	27.7362358	-2.0274251	3.1136782	77.8646468	163.7632834
0.5156250	30.4009447	-2.2063889	3.3385510	79.7217223	221.8155271
0.5234375	33.2226385	-2.3911852	3.5725642	81.5658232	91.6387294
0.5312500	36.1983237	-2.5767229	3.8149566	83.3893506	300.5272196
0.5390625	39.3213504	-2.7638699	4.0657695	85.1939929	23.6352554
0.5468750	42.5760013	-2.9373149	4.3244513	86.9792542	354.4755011
0.5546875	45.9532997	-3.1036776	4.5833307	88.6954136	-53.2160579
0.5625000	49.4348514	-3.2737677	4.8479780	90.3834557	376.8236649
0.5703125	53.0067756	-3.4251513	5.1172013	92.0302647	-158.8367150
0.5781250	56.6483638	-3.5661235	5.3868802	93.6345104	341.3157359
0.5859375	60.3341569	-3.6829434	5.6545411	95.1945351	-205.9571726
0.5937500	64.0407880	-3.7717975	5.9206491	96.6822749	257.1135958
0.6015625	67.7396838	-3.8319595	6.1803120	98.1110561	-158.6963497
0.6093750	71.4205360	-3.8690180	6.4293567	99.4461380	275.2217543
0.6171875	75.0452087	-3.8912453	6.6847324	100.7586271	-16.1190853
0.6250000	78.5824089	-3.8462857	6.9359269	102.0273896	377.4796409
0.6328125	82.0160138	-3.7538675	7.1676469	103.1632690	162.0901643
0.6406250	85.3005004	-3.6546648	7.3852987	104.2044865	464.0303757
0.6484375	88.4282379	-3.5265332	7.6025833	105.2043787	271.7572257
0.6562500	91.3601803	-3.3596584	7.8039460	106.1248434	459.0941585
0.6640625	94.0736971	-3.1495538	7.9909051	106.9488710	259.6712627
0.6718750	96.5429695	-2.8923659	8.1669433	107.7154832	350.8647154
0.6796875	98.7423273	-2.6080826	8.3127651	108.3366325	159.4153117
0.6875000	100.6651922	-2.3232097	8.4389003	108.8869127	205.8593588
0.6953125	102.2768000	-2.0222232	8.5564483	109.3973044	63.6929048
0.7031250	103.6065435	-1.6782411	8.6517413	109.8133359	109.7432167
0.7109375	104.6500851	-1.3548182	8.7258608	110.1518084	22.6879417
0.7187500	105.4289072	-1.0291065	8.7848203	110.4122142	71.3903038
0.7265625	105.9668009	-0.7167232	8.8053322	110.5258272	19.4248481
0.7343750	106.2884175	-0.4428121	8.8267117	110.6401537	73.1041005
0.7421875	106.4325251	-0.2113309	8.8462698	110.7307664	48.6632682
0.7500000	106.4650009	-0.0198684	8.8454266	110.7343245	108.3217702
0.7578125	106.4249583	0.1745390	8.8342391	110.6680766	90.4601077
0.7656250	106.2625438	0.4107633	8.8201972	110.6091620	157.0728969
0.7734375	105.9232689	0.7051575	8.8004107	110.5299783	141.3265686
0.7812500	105.3732439	1.0270352	8.7625336	110.3722281	238.3173841
0.7890625	104.5849671	1.3715493	8.7075759	110.1394173	228.2119438
0.7968750	103.5454200	1.7046307	8.6365029	109.8214890	365.2503359
0.8046875	102.2267191	2.0371627	8.5492480	109.4216038	330.2256268
0.8125000	100.6217522	2.3476091	8.4397275	108.9098756	481.1615129
0.8203125	98.7173474	2.6353039	8.3052238	108.3101197	365.8225652
0.8281250	96.5210812	2.9068221	8.1621998	107.6500719	500.8551654
0.8359375	94.0486716	3.1400591	8.0013575	106.9263074	252.1559377
0.8437500	91.3231248	3.3643869	7.8230048	106.1151325	349.1678533
0.8515625	88.4010943	3.5452694	7.6167102	105.1981643	-46.7866224
0.8593750	85.2836814	3.6825427	7.4019145	104.2096648	78.2642658
0.8671875	82.0087827	3.7765734	7.1708970	103.1430236	-388.4175415
0.8750000	78.5882139	3.8291475	6.9311176	101.9887185	-112.6858491
0.8828125	75.0488027	3.8471833	6.6820912	100.7661584	-570.1117853
0.8906250	71.4220369	3.8564951	6.4353820	99.4929738	-56.9732924
0.8984375	67.7326447	3.8128471	6.1650408	98.0921937	-503.9706830
0.9062500	64.0235323	3.7531719	5.9117970	96.6965835	258.9096742
0.9140625	60.3067542	3.6554968	5.6447781	95.2027178	-253.1170368
0.9218750	56.6251582	3.5855822	5.3844150	93.6520917	671.6724978
0.9296875	52.9877851	3.4103483	5.1093633	92.0180374	-12.3337801
0.9375000	49.4210798	3.3057229	4.8524929	90.3960392	757.5890718
0.9453125	45.9570687	3.1069660	4.5812483	88.6828950	54.0487727
0.9531250	42.5758227	2.9759128	4.3251686	86.9672521	611.7525739
0.9609375	39.3353692	2.7459429	4.0651622	85.1919520	44.6492408
0.9687500	36.2008284	2.6097051	3.8170763	83.3898902	429.7263474
0.9765625	33.2531635	2.3818352	3.5788713	81.6066519	76.1080248
0.9843750	30.3915928	2.2229311	3.3300349	79.6547489	266.2056140
0.9921875	27.7415551	2.0181315	3.1175737	77.8935271	165.8839127
1.0000000	25.2347286	1.8454286	2.8953688	75.9771330	122.8115634
